- 601 Final Project
…
The population data is a clean data that has 14 rows of each county and the population.

The crime data contains 54 rows and 11 columns for each county files. 54 rows are different location types in the county categorised as where any crime can possibly occur.

Sanity Check:

In the dataset, there is a row for ‘All Location Types’. I expected that to be same as the sum of all other Locations but it was not. This could be due to either data entry errors or overlapping/duplication of data in Locations with similar names. I could find 6 such Locations that duplicated. ‘Commercial’, ‘Educational Facility’, ‘Government/Public Building and other’, ‘Road/Parking/Camps’, ‘Field/Woods/Waterways/Camps’ and ‘Construction/Industrial/Farm’. Those 6 Location types are just grouping of two or more other Location Types.

Code

first_county <- counties %>%
  slice(1:54)
first_county

# A tibble: 54 × 11
   Location      `6-9pm` 9-12p…¹ 12-3a…² `3-6am` `6-9am` 9-12n…³ 12-3p…⁴ `3-6pm`
   <chr>           <dbl>   <dbl>   <dbl>   <dbl>   <dbl>   <dbl>   <dbl>   <dbl>
 1 "All Locatio…     969     661     430     190     607    1314    1421    1264
 2 "Residence/H…     456     314     190      94     287     661     703     629
 3 "Commercial"      226     138      96      41     114     243     272     292
 4 "Air/Bus/Tra…       3      NA      NA      NA      NA       1       3       2
 5 "Bank/Saving…       4       2      NA       1      10      12      21      15
 6 "Bar/Nightcl…       2      11      13       1       2       1       4       4
 7 "Commercial/…      37       8       5       2      27      67      44      49
 8 "Convenience…      26      14       5       4       7      15      14      22
 9 "Department/…      19       1       2       1       6       8      36      38
10 "Drug Store/…      19       9       9       3      13      26      16      19
# … with 44 more rows, 2 more variables: County <chr>, Year <chr>, and
#   abbreviated variable names ¹​`9-12pm`, ²​`12-3am`, ³​`9-12noon`, ⁴​`12-3pm`
…
   6-9pm   9-12pm   12-3am    3-6am    6-9am 9-12noon   12-3pm    3-6pm 
    1406      944      629      271      868     1858     2008     1803 

So I checked by droping those overlapping/duplicated locations for the Barnstable County and again rechecked. Now the sum of the locations is same as that of ‘All Location Types’.

Code

dfRemain <- first_county[-c(3, 22,27,42,47,38), ]

dfRemain

# A tibble: 48 × 11
   Location      `6-9pm` 9-12p…¹ 12-3a…² `3-6am` `6-9am` 9-12n…³ 12-3p…⁴ `3-6pm`
   <chr>           <dbl>   <dbl>   <dbl>   <dbl>   <dbl>   <dbl>   <dbl>   <dbl>
 1 "All Locatio…     969     661     430     190     607    1314    1421    1264
 2 "Residence/H…     456     314     190      94     287     661     703     629
 3 "Air/Bus/Tra…       3      NA      NA      NA      NA       1       3       2
 4 "Bank/Saving…       4       2      NA       1      10      12      21      15
 5 "Bar/Nightcl…       2      11      13       1       2       1       4       4
 6 "Commercial/…      37       8       5       2      27      67      44      49
 7 "Convenience…      26      14       5       4       7      15      14      22
 8 "Department/…      19       1       2       1       6       8      36      38
 9 "Drug Store/…      19       9       9       3      13      26      16      19
10 "Grocery/Sup…      24       3      NA       1       7      26      23      27
# … with 38 more rows, 2 more variables: County <chr>, Year <chr>, and
#   abbreviated variable names ¹​`9-12pm`, ²​`12-3am`, ³​`9-12noon`, ⁴​`12-3pm`
…
Code

df <-  dfRemain[-c(1), ]
mapply(sum,df[,c(2:9)], na.rm= TRUE)

   6-9pm   9-12pm   12-3am    3-6am    6-9am 9-12noon   12-3pm    3-6pm 
     969      661      430      190      607     1314     1421     1264 

Code

new_county_data<-subset(counties, Location != 'Commercial' & Location !='Educational Facility' & Location != 'Government/Public Building and other' & Location != 'Road/Parking/Camps' & Location != 'Field/Woods/Waterways/Camps' & Location != 'Construction/Industrial/Farm' & Location != 'All Location Types')
new_county_data

# A tibble: 658 × 11
   Location      `6-9pm` 9-12p…¹ 12-3a…² `3-6am` `6-9am` 9-12n…³ 12-3p…⁴ `3-6pm`
   <chr>           <dbl>   <dbl>   <dbl>   <dbl>   <dbl>   <dbl>   <dbl>   <dbl>
 1 "Residence/H…     456     314     190      94     287     661     703     629
 2 "Air/Bus/Tra…       3      NA      NA      NA      NA       1       3       2
 3 "Bank/Saving…       4       2      NA       1      10      12      21      15
 4 "Bar/Nightcl…       2      11      13       1       2       1       4       4
 5 "Commercial/…      37       8       5       2      27      67      44      49
 6 "Convenience…      26      14       5       4       7      15      14      22
 7 "Department/…      19       1       2       1       6       8      36      38
 8 "Drug Store/…      19       9       9       3      13      26      16      19
 9 "Grocery/Sup…      24       3      NA       1       7      26      23      27
10 "Hotel/Motel…      36      30      18      26      13      31      39      21
# … with 648 more rows, 2 more variables: County <chr>, Year <chr>, and
#   abbreviated variable names ¹​`9-12pm`, ²​`12-3am`, ³​`9-12noon`, ⁴​`12-3pm`
…
Code

ma_crime_2021 <- new_county_data %>% left_join(ma_population,by="County")

The number of crimes per 1000 people in the county can be a good way to start with the analysis. So I scaled down the population data to per 1000.

Code

crime_per_population <- ma_crime_2021 %>%  
    mutate(across(c(2:9),
           .fns = ~./(Population/1000)))
crime_per_population

# A tibble: 658 × 12
   Location  `6-9pm` `9-12pm` `12-3am`  `3-6am`  `6-9am` 9-12n…¹ 12-3p…² `3-6pm`
   <chr>       <dbl>    <dbl>    <dbl>    <dbl>    <dbl>   <dbl>   <dbl>   <dbl>
 1 "Residen… 2.14     1.47     0.890    0.440    1.34    3.10     3.29   2.95   
 2 "Air/Bus… 0.0141  NA       NA       NA       NA       0.00468  0.0141 0.00937
 3 "Bank/Sa… 0.0187   0.00937 NA        0.00468  0.0468  0.0562   0.0984 0.0703 
 4 "Bar/Nig… 0.00937  0.0515   0.0609   0.00468  0.00937 0.00468  0.0187 0.0187 
 5 "Commerc… 0.173    0.0375   0.0234   0.00937  0.126   0.314    0.206  0.230  
 6 "Conveni… 0.122    0.0656   0.0234   0.0187   0.0328  0.0703   0.0656 0.103  
 7 "Departm… 0.0890   0.00468  0.00937  0.00468  0.0281  0.0375   0.169  0.178  
 8 "Drug St… 0.0890   0.0422   0.0422   0.0141   0.0609  0.122    0.0749 0.0890 
 9 "Grocery… 0.112    0.0141  NA        0.00468  0.0328  0.122    0.108  0.126  
10 "Hotel/M… 0.169    0.141    0.0843   0.122    0.0609  0.145    0.183  0.0984 
# … with 648 more rows, 3 more variables: County <chr>, Year <chr>,
#   Population <dbl>, and abbreviated variable names ¹​`9-12noon`, ²​`12-3pm`
…
