- Challenge 3
…
[1] 3

There are 9 existing rows and 17 existing columns. The expected rows are 144 and expected columns are 3.

Challenge: Pivot the Chosen Data

Code

animal_weight_pivoted <- pivot_longer(animal_weight,
                         col = c('Cattle - dairy', 'Cattle - non-dairy', 'Buffaloes', 'Swine - market', 'Swine - breeding', 'Chicken - Broilers', 'Chicken - Layers', 'Ducks', 'Turkeys', 'Sheep', 'Goats', 'Horses', 'Asses', 'Mules', 'Camels', 'Llamas'), names_to = 'Animal Type', values_to = 'Weight')
animal_weight_pivoted

# A tibble: 144 × 3
   `IPCC Area`         `Animal Type`      Weight
   <chr>               <chr>               <dbl>
 1 Indian Subcontinent Cattle - dairy      275  
 2 Indian Subcontinent Cattle - non-dairy  110  
 3 Indian Subcontinent Buffaloes           295  
 4 Indian Subcontinent Swine - market       28  
 5 Indian Subcontinent Swine - breeding     28  
 6 Indian Subcontinent Chicken - Broilers    0.9
 7 Indian Subcontinent Chicken - Layers      1.8
 8 Indian Subcontinent Ducks                 2.7
 9 Indian Subcontinent Turkeys               6.8
10 Indian Subcontinent Sheep                28  
# … with 134 more rows
# ℹ Use `print(n = ...)` to see more rows
…
