- Challenge 2
…
Code

railroad_df%>%
  select(county)%>%
  n_distinct(.)

[1] 1709

Code

railroad_df %>%
  group_by(state) %>%
  summarise(employees2 = sum(employees))

# A tibble: 53 × 2
   state employees2
   <chr>      <dbl>
 1 AE             2
 2 AK           103
 3 AL          4257
 4 AP             1
 5 AR          3871
 6 AZ          3153
 7 CA         13137
 8 CO          3650
 9 CT          2592
10 DC           279
# … with 43 more rows
# ℹ Use `print(n = ...)` to see more rows
…
Code

railroad_df%>% filter(state == "CA")%>% summarise (mean.employees = mean(`employees`), median.employees = median(`employees`), min.employees = min(`employees`), max.employees = max(`employees`), sd.employees = sd(`employees`), var.employees = var(`employees`), IQR.employees = IQR(`employees`))

  mean.employees median.employees min.employees max.employees sd.employees
1       238.8545               61             1          2888     549.4692
  var.employees IQR.employees
1      301916.3           188

Code

railroad_df%>% filter(state == "CA")%>%group_by(county)%>%arrange(county, desc(employees))

# A tibble: 55 × 4
# Groups:   county [55]
   state county       total_employees employees
   <chr> <chr>        <chr>               <dbl>
 1 CA    ALAMEDA      346                   346
 2 CA    AMADOR       9                       9
 3 CA    BUTTE        69                     69
 4 CA    CALAVERAS    30                     30
 5 CA    COLUSA       2                       2
 6 CA    CONTRA COSTA 348                   348
 7 CA    EL DORADO    103                   103
 8 CA    FRESNO       341                   341
 9 CA    GLENN        4                       4
10 CA    HUMBOLDT     2                       2
# … with 45 more rows
# ℹ Use `print(n = ...)` to see more rows

Code

railroad_df%>% filter(state == "NE")%>% summarise (mean.employees = mean(`employees`), median.employees = median(`employees`), min.employees = min(`employees`), max.employees = max(`employees`), sd.employees = sd(`employees`), var.employees = var(`employees`), IQR.employees = IQR(`employees`))

  mean.employees median.employees min.employees max.employees sd.employees
1       148.0449               15             1          3797     511.5816
  var.employees IQR.employees
1      261715.7            66

Code

railroad_df%>% filter(state == "NE")%>%group_by(county)%>%arrange(county, desc(employees))

# A tibble: 89 × 4
# Groups:   county [89]
   state county    total_employees employees
   <chr> <chr>     <chr>               <dbl>
 1 NE    ADAMS     77                     77
 2 NE    ANTELOPE  2                       2
 3 NE    ARTHUR    2                       2
 4 NE    BANNER    8                       8
 5 NE    BLAINE    2                       2
 6 NE    BOONE     2                       2
 7 NE    BOX BUTTE 1168                 1168
 8 NE    BROWN     1                       1
 9 NE    BUFFALO   107                   107
10 NE    BURT      9                       9
# … with 79 more rows
# ℹ Use `print(n = ...)` to see more rows
…
