- Challenge 8
…
This is a fun one! Today I am going to be joining, mutating, and analyzing data of SNL cast members and seasons.

Read in data

The data for this challenge are contained within three related .csv files.

snl_actors_orig<-read_csv("_data/snl_actors.csv")
snl_casts_orig<-read_csv("_data/snl_casts.csv")
snl_seasons_orig<-read_csv("_data/snl_seasons.csv")

Briefly describe the data

snl_actors_orig

# A tibble: 2,306 × 4
   aid            url           type  gender 
   <chr>          <chr>         <chr> <chr>  
 1 Kate McKinnon  /Cast/?KaMc   cast  female 
 2 Alex Moffat    /Cast/?AlMo   cast  male   
 3 Ego Nwodim     /Cast/?EgNw   cast  unknown
 4 Chris Redd     /Cast/?ChRe   cast  male   
 5 Kenan Thompson /Cast/?KeTh   cast  male   
 6 Carey Mulligan /Guests/?3677 guest andy   
 7 Marcus Mumford /Guests/?3679 guest male   
 8 Aidy Bryant    /Cast/?AiBr   cast  female 
 9 Steve Higgins  /Crew/?StHi   crew  male   
10 Mikey Day      /Cast/?MiDa   cast  male   
# … with 2,296 more rows
# ℹ Use `print(n = ...)` to see more rows

snl_casts_orig

# A tibble: 614 × 8
   aid                sid featured first_epid last_epid update…¹ n_epi…² seaso…³
   <chr>            <dbl> <lgl>         <dbl>     <dbl> <lgl>      <dbl>   <dbl>
 1 A. Whitney Brown    11 TRUE       19860222        NA FALSE          8   0.444
 2 A. Whitney Brown    12 TRUE             NA        NA FALSE         20   1    
 3 A. Whitney Brown    13 TRUE             NA        NA FALSE         13   1    
 4 A. Whitney Brown    14 TRUE             NA        NA FALSE         20   1    
 5 A. Whitney Brown    15 TRUE             NA        NA FALSE         20   1    
 6 A. Whitney Brown    16 TRUE             NA        NA FALSE         20   1    
 7 Alan Zweibel         5 TRUE       19800409        NA FALSE          5   0.25 
 8 Sasheer Zamata      39 TRUE       20140118        NA FALSE         11   0.524
 9 Sasheer Zamata      40 TRUE             NA        NA FALSE         21   1    
10 Sasheer Zamata      41 FALSE            NA        NA FALSE         21   1    
# … with 604 more rows, and abbreviated variable names ¹​update_anchor,
#   ²​n_episodes, ³​season_fraction
# ℹ Use `print(n = ...)` to see more rows

snl_seasons_orig

# A tibble: 46 × 5
     sid  year first_epid last_epid n_episodes
   <dbl> <dbl>      <dbl>     <dbl>      <dbl>
 1     1  1975   19751011  19760731         24
 2     2  1976   19760918  19770521         22
 3     3  1977   19770924  19780520         20
 4     4  1978   19781007  19790526         20
 5     5  1979   19791013  19800524         20
 6     6  1980   19801115  19810411         13
 7     7  1981   19811003  19820522         20
 8     8  1982   19820925  19830514         20
 9     9  1983   19831008  19840512         19
10    10  1984   19841006  19850413         17
# … with 36 more rows
# ℹ Use `print(n = ...)` to see more rows
…
nrow(snl_casts)

[1] 614

ncol(snl_casts) + ncol(snl_seasons) - 1

[1] 9

snl_casts_seas <- snl_casts %>% 
  left_join(snl_seasons,by="sid")

snl_casts_seas

# A tibble: 614 × 9
   aid           sid featu…¹ updat…² n_epi…³  year first_epid last_epid  n_epi…⁴
   <chr>       <dbl> <lgl>   <lgl>     <dbl> <dbl> <date>     <date>       <dbl>
 1 A. Whitney…    11 TRUE    FALSE         8  1985 1985-11-09 1986-05-24      18
 2 A. Whitney…    12 TRUE    FALSE        20  1986 1986-10-11 1987-05-23      20
 3 A. Whitney…    13 TRUE    FALSE        13  1987 1987-10-17 1988-02-27      13
 4 A. Whitney…    14 TRUE    FALSE        20  1988 1988-10-08 1989-05-20      20
 5 A. Whitney…    15 TRUE    FALSE        20  1989 1989-09-30 1990-05-19      20
 6 A. Whitney…    16 TRUE    FALSE        20  1990 1990-09-29 1991-05-18      20
 7 Alan Zweib…     5 TRUE    FALSE         5  1979 1979-10-13 1980-05-24      20
 8 Sasheer Za…    39 TRUE    FALSE        11  2013 2013-09-28 2014-05-17      21
 9 Sasheer Za…    40 TRUE    FALSE        21  2014 2014-09-27 2015-05-16      21
10 Sasheer Za…    41 FALSE   FALSE        21  2015 2015-10-03 2016-05-21      21
# … with 604 more rows, and abbreviated variable names ¹​featured,
#   ²​update_anchor, ³​n_episodes_player, ⁴​n_episodes_season
# ℹ Use `print(n = ...)` to see more rows

dim(snl_casts_seas)

[1] 614   9

Perfect!

Now that we’ve completed this join, we can recreate what had been called the “season_fraction” variable in the snl_casts_orig dataframe. This variable recorded the percentage of a given season’s episodes in which a given player appeared. For clarity, I am going to call this variable the “player_appearance_rate” in this dataframe.

snl_casts_seas<-snl_casts_seas %>% 
  mutate(player_appearance_rate=(n_episodes_player/n_episodes_season))

snl_casts_seas

# A tibble: 614 × 10
   aid           sid featu…¹ updat…² n_epi…³  year first_epid last_epid  n_epi…⁴
   <chr>       <dbl> <lgl>   <lgl>     <dbl> <dbl> <date>     <date>       <dbl>
 1 A. Whitney…    11 TRUE    FALSE         8  1985 1985-11-09 1986-05-24      18
 2 A. Whitney…    12 TRUE    FALSE        20  1986 1986-10-11 1987-05-23      20
 3 A. Whitney…    13 TRUE    FALSE        13  1987 1987-10-17 1988-02-27      13
 4 A. Whitney…    14 TRUE    FALSE        20  1988 1988-10-08 1989-05-20      20
 5 A. Whitney…    15 TRUE    FALSE        20  1989 1989-09-30 1990-05-19      20
 6 A. Whitney…    16 TRUE    FALSE        20  1990 1990-09-29 1991-05-18      20
 7 Alan Zweib…     5 TRUE    FALSE         5  1979 1979-10-13 1980-05-24      20
 8 Sasheer Za…    39 TRUE    FALSE        11  2013 2013-09-28 2014-05-17      21
 9 Sasheer Za…    40 TRUE    FALSE        21  2014 2014-09-27 2015-05-16      21
10 Sasheer Za…    41 FALSE   FALSE        21  2015 2015-10-03 2016-05-21      21
# … with 604 more rows, 1 more variable: player_appearance_rate <dbl>, and
#   abbreviated variable names ¹​featured, ²​update_anchor, ³​n_episodes_player,
#   ⁴​n_episodes_season
# ℹ Use `print(n = ...)` to see more rows, and `colnames()` to see all variable names
…
