- Challenge 2 Instructions
…
Code

library(tidyverse)
library(summarytools)

knitr::opts_chunk$set(echo = TRUE, warning=FALSE, message=FALSE)

Read in Data

Code

FAO <- read_csv("_data/FAOSTAT_livestock.csv")
FAO

# A tibble: 82,116 × 14
   Domain Cod…¹ Domain Area …² Area  Eleme…³ Element Item …⁴ Item  Year …⁵  Year
   <chr>        <chr>    <dbl> <chr>   <dbl> <chr>     <dbl> <chr>   <dbl> <dbl>
 1 QA           Live …       2 Afgh…    5111 Stocks     1107 Asses    1961  1961
 2 QA           Live …       2 Afgh…    5111 Stocks     1107 Asses    1962  1962
 3 QA           Live …       2 Afgh…    5111 Stocks     1107 Asses    1963  1963
 4 QA           Live …       2 Afgh…    5111 Stocks     1107 Asses    1964  1964
 5 QA           Live …       2 Afgh…    5111 Stocks     1107 Asses    1965  1965
 6 QA           Live …       2 Afgh…    5111 Stocks     1107 Asses    1966  1966
 7 QA           Live …       2 Afgh…    5111 Stocks     1107 Asses    1967  1967
 8 QA           Live …       2 Afgh…    5111 Stocks     1107 Asses    1968  1968
 9 QA           Live …       2 Afgh…    5111 Stocks     1107 Asses    1969  1969
10 QA           Live …       2 Afgh…    5111 Stocks     1107 Asses    1970  1970
# … with 82,106 more rows, 4 more variables: Unit <chr>, Value <dbl>,
#   Flag <chr>, `Flag Description` <chr>, and abbreviated variable names
#   ¹​`Domain Code`, ²​`Area Code`, ³​`Element Code`, ⁴​`Item Code`, ⁵​`Year Code`
# ℹ Use `print(n = ...)` to see more rows, and `colnames()` to see all variable names
…
Code

FAO.sm <- FAO %>%
  select(-contains("Code"))
FAO.sm

# A tibble: 82,116 × 9
   Domain       Area        Element Item   Year Unit    Value Flag  Flag Descr…¹
   <chr>        <chr>       <chr>   <chr> <dbl> <chr>   <dbl> <chr> <chr>       
 1 Live Animals Afghanistan Stocks  Asses  1961 Head  1300000 <NA>  Official da…
 2 Live Animals Afghanistan Stocks  Asses  1962 Head   851850 <NA>  Official da…
 3 Live Animals Afghanistan Stocks  Asses  1963 Head  1001112 <NA>  Official da…
 4 Live Animals Afghanistan Stocks  Asses  1964 Head  1150000 F     FAO estimate
 5 Live Animals Afghanistan Stocks  Asses  1965 Head  1300000 <NA>  Official da…
 6 Live Animals Afghanistan Stocks  Asses  1966 Head  1200000 <NA>  Official da…
 7 Live Animals Afghanistan Stocks  Asses  1967 Head  1200000 <NA>  Official da…
 8 Live Animals Afghanistan Stocks  Asses  1968 Head  1328000 <NA>  Official da…
 9 Live Animals Afghanistan Stocks  Asses  1969 Head  1250000 <NA>  Official da…
10 Live Animals Afghanistan Stocks  Asses  1970 Head  1300000 <NA>  Official da…
# … with 82,106 more rows, and abbreviated variable name ¹​`Flag Description`
# ℹ Use `print(n = ...)` to see more rows
…
Generated by summarytools 1.0.1 (R version 4.2.1)
2022-08-25

Based on the results of the spec() function, I can see that there are six variables that are type double and eight that are type character. Out of the six double() variables, Area Code, Year and Item Code are all good grouping variables because they do not have values that vary across rows. I dropped the double() variables that contain code because they are just numeric codes for database management purposes. Using summarytools(), I can say that the records in this dataset are the number of Live Animal Stocks and the units of the values is Head. Each case in this dataset consists of an animal record based on the country and year that tries to estimate the number of live animals which is represented by Value. In total, I have estimates of the stock of nine different types of livestock (Asses, Buffaloes, Camels, Cattle, Goats, Horses, Mules, Pigs, Sheep ) in 253 areas for 58 years. The flags correspond to what type of estimate is being used.

Provide Grouped Summary Statistics

Code

FAO.sm %>%
  filter(Flag=="A")%>%
  group_by(Area)%>%
  summarize(n=n())

# A tibble: 28 × 2
   Area                          n
   <chr>                     <int>
 1 Africa                      522
 2 Americas                    464
 3 Asia                        522
 4 Australia and New Zealand   376
 5 Caribbean                   464
 6 Central America             406
 7 Central Asia                243
 8 Eastern Africa              522
 9 Eastern Asia                522
10 Eastern Europe              522
# … with 18 more rows
# ℹ Use `print(n = ...)` to see more rows

Code

FAO_clc <- FAO.sm %>%
  filter(Flag!="A")

FAO_clc  

# A tibble: 31,279 × 9
   Domain       Area        Element Item   Year Unit    Value Flag  Flag Descr…¹
   <chr>        <chr>       <chr>   <chr> <dbl> <chr>   <dbl> <chr> <chr>       
 1 Live Animals Afghanistan Stocks  Asses  1964 Head  1150000 F     FAO estimate
 2 Live Animals Afghanistan Stocks  Asses  1973 Head  1250000 F     FAO estimate
 3 Live Animals Afghanistan Stocks  Asses  1974 Head  1250000 F     FAO estimate
 4 Live Animals Afghanistan Stocks  Asses  1975 Head  1250000 F     FAO estimate
 5 Live Animals Afghanistan Stocks  Asses  1976 Head  1250000 F     FAO estimate
 6 Live Animals Afghanistan Stocks  Asses  1978 Head  1300000 *     Unofficial …
 7 Live Animals Afghanistan Stocks  Asses  1979 Head  1300000 *     Unofficial …
 8 Live Animals Afghanistan Stocks  Asses  1980 Head  1295000 *     Unofficial …
 9 Live Animals Afghanistan Stocks  Asses  1981 Head  1315000 *     Unofficial …
10 Live Animals Afghanistan Stocks  Asses  1982 Head  1315000 *     Unofficial …
# … with 31,269 more rows, and abbreviated variable name ¹​`Flag Description`
# ℹ Use `print(n = ...)` to see more rows
…
