- Challenge 3 Instructions
…
Observed many animals have designated columns. So i will try pivot_longer to compress them into individual rows. lets see how long the dataset will be.

I’ve used the pivot_longer to convert multiple animal rows to a single column with all the animal names, and all their values are in the ‘values’ column

Code

animal_longer <- animal_weights %>% 
  pivot_longer("Cattle - dairy" : 'Llamas', names_to='All_Animals', values_to='values')

animal_longer

# A tibble: 144 × 3
   `IPCC Area`         All_Animals        values
   <chr>               <chr>               <dbl>
 1 Indian Subcontinent Cattle - dairy      275  
 2 Indian Subcontinent Cattle - non-dairy  110  
 3 Indian Subcontinent Buffaloes           295  
 4 Indian Subcontinent Swine - market       28  
 5 Indian Subcontinent Swine - breeding     28  
 6 Indian Subcontinent Chicken - Broilers    0.9
 7 Indian Subcontinent Chicken - Layers      1.8
 8 Indian Subcontinent Ducks                 2.7
 9 Indian Subcontinent Turkeys               6.8
10 Indian Subcontinent Sheep                28  
# … with 134 more rows
# ℹ Use `print(n = ...)` to see more rows
…
Eggs_tidy.csv

Code

eggs_tidy <- read_csv('_data/eggs_tidy.csv')
eggs_tidy

# A tibble: 120 × 6
   month      year large_half_dozen large_dozen extra_large_half_dozen extra_l…¹
   <chr>     <dbl>            <dbl>       <dbl>                  <dbl>     <dbl>
 1 January    2004             126         230                    132       230 
 2 February   2004             128.        226.                   134.      230 
 3 March      2004             131         225                    137       230 
 4 April      2004             131         225                    137       234.
 5 May        2004             131         225                    137       236 
 6 June       2004             134.        231.                   137       241 
 7 July       2004             134.        234.                   137       241 
 8 August     2004             134.        234.                   137       241 
 9 September  2004             130.        234.                   136.      241 
10 October    2004             128.        234.                   136.      241 
# … with 110 more rows, and abbreviated variable name ¹​extra_large_dozen
# ℹ Use `print(n = ...)` to see more rows
…
colnames(eggs_tidy)

[1] "month"                  "year"                   "large_half_dozen"      
[4] "large_dozen"            "extra_large_half_dozen" "extra_large_dozen"     

I want to compress everything from 3rd column to the last in a single column with its values included

Code

eggs_longer <- eggs_tidy %>% 
  pivot_longer('large_half_dozen':'extra_large_dozen', values_to='Values')
eggs_longer

# A tibble: 480 × 4
   month     year name                   Values
   <chr>    <dbl> <chr>                   <dbl>
 1 January   2004 large_half_dozen         126 
 2 January   2004 large_dozen              230 
 3 January   2004 extra_large_half_dozen   132 
 4 January   2004 extra_large_dozen        230 
 5 February  2004 large_half_dozen         128.
 6 February  2004 large_dozen              226.
 7 February  2004 extra_large_half_dozen   134.
 8 February  2004 extra_large_dozen        230 
 9 March     2004 large_half_dozen         131 
10 March     2004 large_dozen              225 
# … with 470 more rows
# ℹ Use `print(n = ...)` to see more rows
…
eggs_wider_month <- eggs_longer %>% 
  pivot_wider(names_from='month', values_from = 'Values')
eggs_wider

Error in eval(expr, envir, enclos): object 'eggs_wider' not found

pivot_wider() with year

Code

eggs_wider_year <- eggs_longer %>% 
  pivot_wider(names_from='year', values_from='Values')
eggs_wider_year

# A tibble: 48 × 12
   month    name  `2004` `2005` `2006` `2007` `2008` `2009` `2010` `2011` `2012`
   <chr>    <chr>  <dbl>  <dbl>  <dbl>  <dbl>  <dbl>  <dbl>  <dbl>  <dbl>  <dbl>
 1 January  larg…   126    128.   128.   128.    132   174.   174.   174.   174.
 2 January  larg…   230    234.   234.   234.    237   278.   272.   268.   268.
 3 January  extr…   132    136.   136.   136.    139   186.   186.   186.   186.
 4 January  extr…   230    241    241    242.    245   286.   286.   286.   286.
 5 February larg…   128.   128.   128.   131.    132   174.   174.   174.   174.
 6 February larg…   226.   234.   234.   236.    237   278.   272.   268.   268.
 7 February extr…   134.   136.   136.   138.    139   186.   186.   186.   186.
 8 February extr…   230    241    241    244.    245   286.   286.   286.   288.
 9 March    larg…   131    128.   128.   132     132   174.   174.   174.   174.
10 March    larg…   225    234.   234.   237     237   278.   268    268.   268.
# … with 38 more rows, and 1 more variable: `2013` <dbl>
# ℹ Use `print(n = ...)` to see more rows, and `colnames()` to see all variable names

USA Households

Code

usa_households<-read_excel('_data/USA Households by Total Money Income, Race, and Hispanic Origin of Householder 1967 to 2019.xlsx', skip=5)
usa_households

# A tibble: 382 × 16
   `ALL RACES` ...2   ...3  ...4  ...5  ...6  ...7  ...8  ...9 ...10 ...11 ...12
   <chr>       <chr> <dbl> <dbl> <dbl> <dbl> <dbl> <dbl> <dbl> <dbl> <dbl> <dbl>
 1 2019        1284…   100   9.1   8     8.3  11.7  16.5  12.3  15.5   8.3  10.3
 2 2018        1285…   100  10.1   8.8   8.7  12    17    12.5  15     7.2   8.8
 3 2017 2      1276…   100  10     9.1   9.2  12    16.4  12.4  14.7   7.3   8.9
 4 2017        1275…   100  10.1   9.1   9.2  11.9  16.3  12.6  14.8   7.5   8.5
 5 2016        1262…   100  10.4   9     9.2  12.3  16.7  12.2  15     7.2   8  
 6 2015        1258…   100  10.6  10     9.6  12.1  16.1  12.4  14.9   7.1   7.2
 7 2014        1245…   100  11.4  10.5   9.6  12.6  16.4  12.1  14     6.6   6.8
 8 2013 3      1239…   100  11.4  10.3   9.5  12.5  16.8  12    13.9   6.7   6.9
 9 2013 4      1229…   100  11.3  10.4   9.7  13.1  17    12.5  13.6   6.3   6  
10 2012        1224…   100  11.4  10.6  10.1  12.5  17.4  12    13.9   6.3   5.9
# … with 372 more rows, and 4 more variables: ...13 <dbl>, ...14 <dbl>,
#   ...15 <chr>, ...16 <chr>
# ℹ Use `print(n = ...)` to see more rows, and `colnames()` to see all variable names

Code

ushh_orig <- read_excel("_data/USA Households by Total Money Income, Race, and Hispanic Origin of Householder 1967 to 2019.xlsx",
         skip=5,
         n_max = 352,
         col_names = c("year", "hholds", "del",
                       str_c("income",1:9,sep="_i"),
                       "median_inc", "median_se", 
                       "mean_inc","mean_se")) %>% 
  select(-del)
  ushh_orig 

# A tibble: 352 × 15
   year   hholds incom…¹ incom…² incom…³ incom…⁴ incom…⁵ incom…⁶ incom…⁷ incom…⁸
   <chr>  <chr>    <dbl>   <dbl>   <dbl>   <dbl>   <dbl>   <dbl>   <dbl>   <dbl>
 1 ALL R… <NA>      NA      NA      NA      NA      NA      NA      NA      NA  
 2 2019   128451     9.1     8       8.3    11.7    16.5    12.3    15.5     8.3
 3 2018   128579    10.1     8.8     8.7    12      17      12.5    15       7.2
 4 2017 2 127669    10       9.1     9.2    12      16.4    12.4    14.7     7.3
 5 2017   127586    10.1     9.1     9.2    11.9    16.3    12.6    14.8     7.5
 6 2016   126224    10.4     9       9.2    12.3    16.7    12.2    15       7.2
 7 2015   125819    10.6    10       9.6    12.1    16.1    12.4    14.9     7.1
 8 2014   124587    11.4    10.5     9.6    12.6    16.4    12.1    14       6.6
 9 2013 3 123931    11.4    10.3     9.5    12.5    16.8    12      13.9     6.7
10 2013 4 122952    11.3    10.4     9.7    13.1    17      12.5    13.6     6.3
# … with 342 more rows, 5 more variables: income_i9 <dbl>, median_inc <dbl>,
#   median_se <dbl>, mean_inc <chr>, mean_se <chr>, and abbreviated variable
#   names ¹​income_i1, ²​income_i2, ³​income_i3, ⁴​income_i4, ⁵​income_i5,
#   ⁶​income_i6, ⁷​income_i7, ⁸​income_i8
# ℹ Use `print(n = ...)` to see more rows, and `colnames()` to see all variable names
…
