- Challenge 3 Instructions
…
eggs_tidy.csv ⭐⭐ or organicpoultry.xls ⭐⭐⭐

australian_marriage*.xlsx ⭐⭐⭐

USA Households*.xlsx ⭐⭐⭐⭐

sce_labor_chart_data_public.csv 🌟🌟🌟🌟🌟

Code

eggs <-read_csv("_data/eggs_tidy.csv",
                        show_col_types = FALSE)
eggs

# A tibble: 120 × 6
   month      year large_half_dozen large_dozen extra_large_half_dozen extra_l…¹
   <chr>     <dbl>            <dbl>       <dbl>                  <dbl>     <dbl>
 1 January    2004             126         230                    132       230 
 2 February   2004             128.        226.                   134.      230 
 3 March      2004             131         225                    137       230 
 4 April      2004             131         225                    137       234.
 5 May        2004             131         225                    137       236 
 6 June       2004             134.        231.                   137       241 
 7 July       2004             134.        234.                   137       241 
 8 August     2004             134.        234.                   137       241 
 9 September  2004             130.        234.                   136.      241 
10 October    2004             128.        234.                   136.      241 
# … with 110 more rows, and abbreviated variable name ¹​extra_large_dozen
# ℹ Use `print(n = ...)` to see more rows
…
Yes, once it is pivoted long, our resulting data are \(12x5\) - exactly what we expected!

Challenge: Pivot the Chosen Data

Document your work here. What will a new “case” be once you have pivoted the data? How does it meet requirements for tidy data?

Code

eggs <- pivot_longer(eggs, col = c(large_half_dozen, large_dozen, extra_large_half_dozen, extra_large_dozen),
                 names_to="type",
                 values_to = "sales")
eggs

# A tibble: 480 × 4
   month     year type                   sales
   <chr>    <dbl> <chr>                  <dbl>
 1 January   2004 large_half_dozen        126 
 2 January   2004 large_dozen             230 
 3 January   2004 extra_large_half_dozen  132 
 4 January   2004 extra_large_dozen       230 
 5 February  2004 large_half_dozen        128.
 6 February  2004 large_dozen             226.
 7 February  2004 extra_large_half_dozen  134.
 8 February  2004 extra_large_dozen       230 
 9 March     2004 large_half_dozen        131 
10 March     2004 large_dozen             225 
# … with 470 more rows
# ℹ Use `print(n = ...)` to see more rows
…
