- Challenge 6
…
Mortgage in general is higher than any other loan type.

Visualizing Part-Whole Relationships

I want to visualize the proportion of each loan type as a whole using a pie chart.

debt_long %>% 
  mutate(loan_type = fct_relevel(loan_type, "Mortgage", "HE Revolving",
                            "Auto Loan", "Student Loan",  
                            "Credit Card","Other")) 

# A tibble: 444 × 4
   `Year and Quarter` date                loan_type    totals
   <chr>              <dttm>              <fct>         <dbl>
 1 03:Q1              2003-01-01 00:00:00 Mortgage      4.94 
 2 03:Q1              2003-01-01 00:00:00 HE Revolving  0.242
 3 03:Q1              2003-01-01 00:00:00 Auto Loan     0.641
 4 03:Q1              2003-01-01 00:00:00 Credit Card   0.688
 5 03:Q1              2003-01-01 00:00:00 Student Loan  0.241
 6 03:Q1              2003-01-01 00:00:00 Other         0.478
 7 03:Q2              2003-04-01 00:00:00 Mortgage      5.08 
 8 03:Q2              2003-04-01 00:00:00 HE Revolving  0.26 
 9 03:Q2              2003-04-01 00:00:00 Auto Loan     0.622
10 03:Q2              2003-04-01 00:00:00 Credit Card   0.693
# … with 434 more rows
# ℹ Use `print(n = ...)` to see more rows
…
