- Challenge 2
…
Hotel wise, year wise, month wise, reservation status wise number of bookings

Code

booking_hymrs<-hotel_bookings%>%
  group_by(hotel, arrival_date_year, arrival_date_month, reservation_status)%>%
  summarise(no_of_bookings=n(),.groups = 'keep') %>% 
  pivot_wider(names_from = c(hotel, reservation_status), values_from = no_of_bookings)
  
booking_hymrs

# A tibble: 26 × 8
# Groups:   arrival_date_year, arrival_date_month [26]
   arrival_date_year arrival_d…¹ City …² City …³ City …⁴ Resor…⁵ Resor…⁶ Resor…⁷
   <fct>             <fct>         <int>   <int>   <int>   <int>   <int>   <int>
 1 2015              August         1217    1248      15     361    1043       5
 2 2015              December        646     986      22     278     961      27
 3 2015              July            918     459      21     314    1058       6
 4 2015              November        277     934      24     170     920      15
 5 2015              October        1311    2065      10     403    1160       8
 6 2015              September      1513    1986      30     543    1034       8
 7 2016              April          1492    2022      47     515    1345       7
 8 2016              August         1214    2131      33     572    1107       6
 9 2016              December       1049    1406      23     316    1056      10
10 2016              February        796    1441     134     396    1113      11
# … with 16 more rows, and abbreviated variable names ¹​arrival_date_month,
#   ²​`City Hotel_Canceled`, ³​`City Hotel_Check-Out`, ⁴​`City Hotel_No-Show`,
#   ⁵​`Resort Hotel_Canceled`, ⁶​`Resort Hotel_Check-Out`,
#   ⁷​`Resort Hotel_No-Show`
# ℹ Use `print(n = ...)` to see more rows

Hotel year wise, month wise, reservation status wise number of cancelled/normal bookings

is_cancelled: 1 = cancelled, 0= normal booking

Code

booking_hymc<-hotel_bookings%>%
  group_by(hotel, arrival_date_year, arrival_date_month)%>%
  summarise(no_of_bookings=sum(!as.numeric(is_canceled)),no_of_cancelled=sum(as.numeric(is_canceled)), .groups = 'keep') %>% 
  pivot_wider(names_from = hotel, values_from = c(no_of_bookings, no_of_cancelled))

booking_hymc

# A tibble: 26 × 6
# Groups:   arrival_date_year, arrival_date_month [26]
   arrival_date_year arrival_date_month no_of_bookings…¹ no_of…² no_of…³ no_of…⁴
   <fct>             <fct>                         <int>   <int>   <dbl>   <dbl>
 1 2015              August                            0       0    3712    1775
 2 2015              December                          0       0    2322    1571
 3 2015              July                              0       0    2337    1698
 4 2015              November                          0       0    1536    1290
 5 2015              October                           0       0    4707    1982
 6 2015              September                         0       0    5072    2136
 7 2016              April                             0       0    5100    2389
 8 2016              August                            0       0    4625    2263
 9 2016              December                          0       0    3550    1708
10 2016              February                          0       0    3301    1927
# … with 16 more rows, and abbreviated variable names
#   ¹​`no_of_bookings_City Hotel`, ²​`no_of_bookings_Resort Hotel`,
#   ³​`no_of_cancelled_City Hotel`, ⁴​`no_of_cancelled_Resort Hotel`
# ℹ Use `print(n = ...)` to see more rows
…
Hotel year wise, month wise, reservation status wise number of cancelled/normal bookings

Code

booking_cym <-hotel_bookings%>%
  filter(is_canceled==1, reservation_status %in% c('No-Show', 'Canceled'))%>%
  group_by(hotel, arrival_date_year, arrival_date_month, reservation_status)%>%
  summarise(cancelled_ticket_status=n(), .groups = 'keep') %>% 
  pivot_wider(names_from = hotel, values_from = c(cancelled_ticket_status))

booking_cym

# A tibble: 52 × 5
# Groups:   arrival_date_year, arrival_date_month, reservation_status [52]
   arrival_date_year arrival_date_month reservation_status `City Hotel` Resort…¹
   <fct>             <fct>              <fct>                     <int>    <int>
 1 2015              August             Canceled                   1217      361
 2 2015              August             No-Show                      15        5
 3 2015              December           Canceled                    646      278
 4 2015              December           No-Show                      22       27
 5 2015              July               Canceled                    918      314
 6 2015              July               No-Show                      21        6
 7 2015              November           Canceled                    277      170
 8 2015              November           No-Show                      24       15
 9 2015              October            Canceled                   1311      403
10 2015              October            No-Show                      10        8
# … with 42 more rows, and abbreviated variable name ¹​`Resort Hotel`
# ℹ Use `print(n = ...)` to see more rows
…
