- Challenge 2 Will Munson
…
Provide Grouped Summary Statistics

Conduct some exploratory data analysis, using dplyr commands such as group_by(), select(), filter(), and summarise(). Find the central tendency (mean, median, mode) and dispersion (standard deviation, mix/max/quantile) for different subgroups within the data set.

Code

FAOstat %>%
  group_by(Year) %>%
  filter(Item == 'Sheep' & `Flag Description` == 'Official data') %>%
  summarize(mean = mean(Value, na.rm = TRUE), sd = sd(Value, na.rm = TRUE))

# A tibble: 58 × 3
    Year     mean        sd
   <dbl>    <dbl>     <dbl>
 1  1961 9172935. 22937872.
 2  1962 8667943. 23653127.
 3  1963 8787122. 24057267.
 4  1964 8612111. 23824573.
 5  1965 8492538. 23745915.
 6  1966 9094943. 23326897.
 7  1967 7984239. 22894441.
 8  1968 8688126. 24101623.
 9  1969 8518124. 24300499.
10  1970 7955016. 24019630.
# … with 48 more rows
# ℹ Use `print(n = ...)` to see more rows
…
