- Challenge 4 Instructions
…
knitr::opts_chunk$set(echo = TRUE, warning=FALSE, message=FALSE)

Read in data

debt_in_trillions ⭐⭐⭐⭐⭐

I chose the debt_in_trillions dataset. I am going to use the .name_repair function to remove spaces from column names and replace them with periods.

Code

debt <- read_excel("_data/debt_in_trillions.xlsx",
                  .name_repair = "universal")
debt

# A tibble: 74 × 8
   Year.and.Quarter Mortgage HE.Revolving Auto.Loan Credit…¹ Stude…² Other Total
   <chr>               <dbl>        <dbl>     <dbl>    <dbl>   <dbl> <dbl> <dbl>
 1 03:Q1                4.94        0.242     0.641    0.688   0.241 0.478  7.23
 2 03:Q2                5.08        0.26      0.622    0.693   0.243 0.486  7.38
 3 03:Q3                5.18        0.269     0.684    0.693   0.249 0.477  7.56
 4 03:Q4                5.66        0.302     0.704    0.698   0.253 0.449  8.07
 5 04:Q1                5.84        0.328     0.72     0.695   0.260 0.446  8.29
 6 04:Q2                5.97        0.367     0.743    0.697   0.263 0.423  8.46
 7 04:Q3                6.21        0.426     0.751    0.706   0.33  0.41   8.83
 8 04:Q4                6.36        0.468     0.728    0.717   0.346 0.423  9.04
 9 05:Q1                6.51        0.502     0.725    0.71    0.364 0.394  9.21
10 05:Q2                6.70        0.528     0.774    0.717   0.374 0.402  9.49
# … with 64 more rows, and abbreviated variable names ¹​Credit.Card,
#   ²​Student.Loan
# ℹ Use `print(n = ...)` to see more rows

This dataset contains debt in trillions based on fiscal year and quarter. It comes with a precalculated total for each of the 6 categories.

The column names are self-explanatory, except for HE.Revolving - that refers to home equity revolving lines of credit, also known as HELOC debt.

Sanity check

Do the totals for each category of debt add up according to the “Total” column? Let’s see:

Code

debt %>% rowwise() %>% mutate(calculated_total = sum(c_across("Mortgage":"Other"), na.rm = T))

# A tibble: 74 × 9
# Rowwise: 
   Year.and.Quarter Mortgage HE.Re…¹ Auto.…² Credi…³ Stude…⁴ Other Total calcu…⁵
   <chr>               <dbl>   <dbl>   <dbl>   <dbl>   <dbl> <dbl> <dbl>   <dbl>
 1 03:Q1                4.94   0.242   0.641   0.688   0.241 0.478  7.23    7.23
 2 03:Q2                5.08   0.26    0.622   0.693   0.243 0.486  7.38    7.38
 3 03:Q3                5.18   0.269   0.684   0.693   0.249 0.477  7.56    7.56
 4 03:Q4                5.66   0.302   0.704   0.698   0.253 0.449  8.07    8.07
 5 04:Q1                5.84   0.328   0.72    0.695   0.260 0.446  8.29    8.29
 6 04:Q2                5.97   0.367   0.743   0.697   0.263 0.423  8.46    8.46
 7 04:Q3                6.21   0.426   0.751   0.706   0.33  0.41   8.83    8.83
 8 04:Q4                6.36   0.468   0.728   0.717   0.346 0.423  9.04    9.04
 9 05:Q1                6.51   0.502   0.725   0.71    0.364 0.394  9.21    9.21
10 05:Q2                6.70   0.528   0.774   0.717   0.374 0.402  9.49    9.49
# … with 64 more rows, and abbreviated variable names ¹​HE.Revolving,
#   ²​Auto.Loan, ³​Credit.Card, ⁴​Student.Loan, ⁵​calculated_total
# ℹ Use `print(n = ...)` to see more rows
…
Lubridate supports time intervals, which is maybe a better idea:

Code

debt2 <- debt2 %>% rowwise() %>% mutate(quarter_interval = interval(quarter_beginning_date, quarter_ending_date))

More observations

The percentage of student loan debt in proportion to total debt (per year) increased from 3.32% in Q1 of 2003 to 10.49% in Q1 of 2021. Ow!

Code

debt2 %>% group_by(quarter_interval) %>% mutate(Student.Loan.Percent = 100 * Student.Loan/Total)

# A tibble: 74 × 12
# Groups:   quarter_interval [74]
   Year.and.Qua…¹ Mortg…² HE.Re…³ Auto.…⁴ Credi…⁵ Stude…⁶ Other Total quarter_…⁷
   <chr>            <dbl>   <dbl>   <dbl>   <dbl>   <dbl> <dbl> <dbl> <date>    
 1 03:Q1             4.94   0.242   0.641   0.688   0.241 0.478  7.23 2003-01-01
 2 03:Q2             5.08   0.26    0.622   0.693   0.243 0.486  7.38 2003-04-01
 3 03:Q3             5.18   0.269   0.684   0.693   0.249 0.477  7.56 2003-07-01
 4 03:Q4             5.66   0.302   0.704   0.698   0.253 0.449  8.07 2003-10-01
 5 04:Q1             5.84   0.328   0.72    0.695   0.260 0.446  8.29 2004-01-01
 6 04:Q2             5.97   0.367   0.743   0.697   0.263 0.423  8.46 2004-04-01
 7 04:Q3             6.21   0.426   0.751   0.706   0.33  0.41   8.83 2004-07-01
 8 04:Q4             6.36   0.468   0.728   0.717   0.346 0.423  9.04 2004-10-01
 9 05:Q1             6.51   0.502   0.725   0.71    0.364 0.394  9.21 2005-01-01
10 05:Q2             6.70   0.528   0.774   0.717   0.374 0.402  9.49 2005-04-01
# … with 64 more rows, 3 more variables: quarter_ending_date <date>,
#   quarter_interval <Interval>, Student.Loan.Percent <dbl>, and abbreviated
#   variable names ¹​Year.and.Quarter, ²​Mortgage, ³​HE.Revolving, ⁴​Auto.Loan,
#   ⁵​Credit.Card, ⁶​Student.Loan, ⁷​quarter_beginning_date
# ℹ Use `print(n = ...)` to see more rows, and `colnames()` to see all variable names
…
