- Challenge 8
…
Both datasets had 13 columns and the combined number of rows in the new dataset is \[36449 + 82116 = 118565\].

#figuring out the primary key for 'faostat_country'
faostat_country %>% 
  count('Country Code') %>% 
  filter(n > 1)

# A tibble: 1 × 2
  `"Country Code"`     n
  <chr>            <int>
1 Country Code      1943

faostat_country

# A tibble: 1,943 × 7
   `Country Group Code` `Country Group` Countr…¹ Country M49 C…² ISO2 …³ ISO3 …⁴
                  <dbl> <chr>              <dbl> <chr>   <chr>   <chr>   <chr>  
 1                 5100 Africa                 4 Algeria 012     DZ      DZA    
 2                 5100 Africa                 7 Angola  024     AO      AGO    
 3                 5100 Africa                53 Benin   204     BJ      BEN    
 4                 5100 Africa                20 Botswa… 072     BW      BWA    
 5                 5100 Africa               233 Burkin… 854     BF      BFA    
 6                 5100 Africa                29 Burundi 108     BI      BDI    
 7                 5100 Africa                35 Cabo V… 132     CV      CPV    
 8                 5100 Africa                32 Camero… 120     CM      CMR    
 9                 5100 Africa                37 Centra… 140     CF      CAF    
10                 5100 Africa                39 Chad    148     TD      TCD    
# … with 1,933 more rows, and abbreviated variable names ¹​`Country Code`,
#   ²​`M49 Code`, ³​`ISO2 Code`, ⁴​`ISO3 Code`
# ℹ Use `print(n = ...)` to see more rows
…
check1 <- join_anti %>% 
  select(`Area Code`,`Area`) %>% 
  group_by(`Area Code`,`Area`) %>% 
  tally()
check1

# A tibble: 28 × 3
# Groups:   Area Code [28]
   `Area Code` Area                 n
         <dbl> <chr>            <int>
 1        5000 World              696
 2        5100 Africa             696
 3        5101 Eastern Africa     696
 4        5102 Middle Africa      638
 5        5103 Northern Africa    696
 6        5104 Southern Africa    638
 7        5105 Western Africa     638
 8        5200 Americas           638
 9        5203 Northern America   580
10        5204 Central America    580
# … with 18 more rows
# ℹ Use `print(n = ...)` to see more rows

The anti_join() on egg_livestock and faostat_country reveals that there are 17346 observations in egg_livestock that did not find a match in faostat_country. join_anti has 13 columns, the same as the egg_livestock dataset.

Analyze Data

I’m looking to compare egg production to camel livestock production in Bahrain and Qatar using a line graph with facet wrap.

egg_livestock_filt <- egg_livestock %>%
  select(Year,Area,Item,Element,Value) %>%
  filter(Area=="Bahrain"|Area=="Qatar") %>%
  filter(Element=="Production"| Item=="Camels")
egg_livestock_filt

# A tibble: 216 × 5
    Year Area    Item                Element    Value
   <dbl> <chr>   <chr>               <fct>      <dbl>
 1  1961 Bahrain Eggs, hen, in shell Production    60
 2  1962 Bahrain Eggs, hen, in shell Production    60
 3  1963 Bahrain Eggs, hen, in shell Production    60
 4  1964 Bahrain Eggs, hen, in shell Production    60
 5  1965 Bahrain Eggs, hen, in shell Production    70
 6  1966 Bahrain Eggs, hen, in shell Production    70
 7  1967 Bahrain Eggs, hen, in shell Production    80
 8  1968 Bahrain Eggs, hen, in shell Production    80
 9  1969 Bahrain Eggs, hen, in shell Production    80
10  1970 Bahrain Eggs, hen, in shell Production    80
# … with 206 more rows
# ℹ Use `print(n = ...)` to see more rows
…
