- Challenge 4
…
Code

library(tidyverse)

knitr::opts_chunk$set(echo = TRUE, warning=FALSE, message=FALSE)

Read in data

Code

feds<-read_csv("_data/FedFundsRate.csv",
                        show_col_types = FALSE)
feds

# A tibble: 904 × 10
    Year Month   Day Federal F…¹ Feder…² Feder…³ Effec…⁴ Real …⁵ Unemp…⁶ Infla…⁷
   <dbl> <dbl> <dbl>       <dbl>   <dbl>   <dbl>   <dbl>   <dbl>   <dbl>   <dbl>
 1  1954     7     1          NA      NA      NA    0.8      4.6     5.8      NA
 2  1954     8     1          NA      NA      NA    1.22    NA       6        NA
 3  1954     9     1          NA      NA      NA    1.06    NA       6.1      NA
 4  1954    10     1          NA      NA      NA    0.85     8       5.7      NA
 5  1954    11     1          NA      NA      NA    0.83    NA       5.3      NA
 6  1954    12     1          NA      NA      NA    1.28    NA       5        NA
 7  1955     1     1          NA      NA      NA    1.39    11.9     4.9      NA
 8  1955     2     1          NA      NA      NA    1.29    NA       4.7      NA
 9  1955     3     1          NA      NA      NA    1.35    NA       4.6      NA
10  1955     4     1          NA      NA      NA    1.43     6.7     4.7      NA
# … with 894 more rows, and abbreviated variable names
#   ¹​`Federal Funds Target Rate`, ²​`Federal Funds Upper Target`,
#   ³​`Federal Funds Lower Target`, ⁴​`Effective Federal Funds Rate`,
#   ⁵​`Real GDP (Percent Change)`, ⁶​`Unemployment Rate`, ⁷​`Inflation Rate`
# ℹ Use `print(n = ...)` to see more rows
…
Code

feds<-feds %>% 
  rename("TargetRate" = `Federal Funds Target Rate`, 
         "UpperTarget"=`Federal Funds Upper Target`, 
         "EffectiveRate"=`Effective Federal Funds Rate`,
         "GDP%Change"=`Real GDP (Percent Change)`,
         "InflationRate"=`Inflation Rate`)
feds

# A tibble: 904 × 10
    Year Month   Day TargetRate UpperT…¹ Feder…² Effec…³ GDP%C…⁴ Unemp…⁵ Infla…⁶
   <dbl> <dbl> <dbl>      <dbl>    <dbl>   <dbl>   <dbl>   <dbl>   <dbl>   <dbl>
 1  1954     7     1          0        0       0    0.8      4.6     5.8       0
 2  1954     8     1          0        0       0    1.22     0       6         0
 3  1954     9     1          0        0       0    1.06     0       6.1       0
 4  1954    10     1          0        0       0    0.85     8       5.7       0
 5  1954    11     1          0        0       0    0.83     0       5.3       0
 6  1954    12     1          0        0       0    1.28     0       5         0
 7  1955     1     1          0        0       0    1.39    11.9     4.9       0
 8  1955     2     1          0        0       0    1.29     0       4.7       0
 9  1955     3     1          0        0       0    1.35     0       4.6       0
10  1955     4     1          0        0       0    1.43     6.7     4.7       0
# … with 894 more rows, and abbreviated variable names ¹​UpperTarget,
#   ²​`Federal Funds Lower Target`, ³​EffectiveRate, ⁴​`GDP%Change`,
#   ⁵​`Unemployment Rate`, ⁶​InflationRate
# ℹ Use `print(n = ...)` to see more rows
…
