- Challenge_6_Jyoti Rani
…
New names:
Rows: 48895 Columns: 16
── Column specification
──────────────────────────────────────────────────────── Delimiter: "," chr
(5): name, host_name, neighbourhood_group, neighbourhood, room_type dbl (10):
del...1, del...3, latitude, longitude, price, minimum_nights, num... date (1):
last_review
ℹ Use `spec()` to retrieve the full column specification for this data. ℹ
Specify the column types or set `show_col_types = FALSE` to quiet this message.
• `del` -> `del...1`
• `del` -> `del...3`

Air_Bnb

# A tibble: 38,843 × 14
   name    host_…¹ neigh…² neigh…³ latit…⁴ longi…⁵ room_…⁶ price minim…⁷ numbe…⁸
   <chr>   <chr>   <chr>   <chr>     <dbl>   <dbl> <chr>   <dbl>   <dbl>   <dbl>
 1 Clean … John    Brookl… Kensin…    40.6   -74.0 Privat…   149       1       9
 2 Skylit… Jennif… Manhat… Midtown    40.8   -74.0 Entire…   225       1      45
 3 Cozy E… LisaRo… Brookl… Clinto…    40.7   -74.0 Entire…    89       1     270
 4 Entire… Laura   Manhat… East H…    40.8   -73.9 Entire…    80      10       9
 5 Large … Chris   Manhat… Murray…    40.7   -74.0 Entire…   200       3      74
 6 BlissA… Garon   Brookl… Bedfor…    40.7   -74.0 Privat…    60      45      49
 7 Large … Shunic… Manhat… Hell's…    40.8   -74.0 Privat…    79       2     430
 8 Cozy C… MaryEl… Manhat… Upper …    40.8   -74.0 Privat…    79       2     118
 9 Cute &… Ben     Manhat… Chinat…    40.7   -74.0 Entire…   150       1     160
10 Beauti… Lena    Manhat… Upper …    40.8   -74.0 Entire…   135       5      53
# … with 38,833 more rows, 4 more variables: last_review <date>,
#   reviews_per_month <dbl>, calculated_host_listings_count <dbl>,
#   availability_365 <dbl>, and abbreviated variable names ¹​host_name,
#   ²​neighbourhood_group, ³​neighbourhood, ⁴​latitude, ⁵​longitude, ⁶​room_type,
#   ⁷​minimum_nights, ⁸​number_of_reviews
…
