- Challenge 2
…
We can see that the City Hotel had more cancellations when compared to a resort hotel.

Let’s find out which countries are more popular

Code

countryTableData<-hotelBookingsCompleteData %>% group_by(country) %>% summarise(hotel = n())

countryTableData %>% group_by(country) %>% arrange(desc(hotel))

# A tibble: 178 × 2
# Groups:   country [178]
   country hotel
   <chr>   <int>
 1 PRT     48590
 2 GBR     12129
 3 FRA     10415
 4 ESP      8568
 5 DEU      7287
 6 ITA      3766
 7 IRL      3375
 8 BEL      2342
 9 BRA      2224
10 NLD      2104
# … with 168 more rows
# ℹ Use `print(n = ...)` to see more rows

From the above results we can find the countries with highest hotel bookings and the ones with the least hotel bookings.

But some of reservations are cancelled so let’s find the actual number of stays.

Code

hotelBookingsCompleteData %>%       
  group_by(country) %>%
  summarise(totalCancellations = sum(is_canceled))%>%
  arrange(desc(totalCancellations))

# A tibble: 178 × 2
   country totalCancellations
   <chr>                <dbl>
 1 PRT                  27519
 2 GBR                   2453
 3 ESP                   2177
 4 FRA                   1934
 5 ITA                   1333
 6 DEU                   1218
 7 IRL                    832
 8 BRA                    830
 9 USA                    501
10 BEL                    474
# … with 168 more rows
# ℹ Use `print(n = ...)` to see more rows
…
