- Challenge 5 Emma Rasmussen
…
library(tidyverse)
library(ggplot2)

knitr::opts_chunk$set(echo = TRUE, warning=FALSE, message=FALSE)

###Read in data Reading in the data and saving a original copy of the dataset

library(readr)
AB_NYC_2019 <- read_csv("_data/AB_NYC_2019.csv")
AB_NYC_2019_Orig<-AB_NYC_2019

AB_NYC_2019

# A tibble: 48,895 × 16
      id name      host_id host_…¹ neigh…² neigh…³ latit…⁴ longi…⁵ room_…⁶ price
   <dbl> <chr>       <dbl> <chr>   <chr>   <chr>     <dbl>   <dbl> <chr>   <dbl>
 1  2539 Clean & …    2787 John    Brookl… Kensin…    40.6   -74.0 Privat…   149
 2  2595 Skylit M…    2845 Jennif… Manhat… Midtown    40.8   -74.0 Entire…   225
 3  3647 THE VILL…    4632 Elisab… Manhat… Harlem     40.8   -73.9 Privat…   150
 4  3831 Cozy Ent…    4869 LisaRo… Brookl… Clinto…    40.7   -74.0 Entire…    89
 5  5022 Entire A…    7192 Laura   Manhat… East H…    40.8   -73.9 Entire…    80
 6  5099 Large Co…    7322 Chris   Manhat… Murray…    40.7   -74.0 Entire…   200
 7  5121 BlissArt…    7356 Garon   Brookl… Bedfor…    40.7   -74.0 Privat…    60
 8  5178 Large Fu…    8967 Shunic… Manhat… Hell's…    40.8   -74.0 Privat…    79
 9  5203 Cozy Cle…    7490 MaryEl… Manhat… Upper …    40.8   -74.0 Privat…    79
10  5238 Cute & C…    7549 Ben     Manhat… Chinat…    40.7   -74.0 Entire…   150
# … with 48,885 more rows, 6 more variables: minimum_nights <dbl>,
#   number_of_reviews <dbl>, last_review <date>, reviews_per_month <dbl>,
#   calculated_host_listings_count <dbl>, availability_365 <dbl>, and
#   abbreviated variable names ¹​host_name, ²​neighbourhood_group,
#   ³​neighbourhood, ⁴​latitude, ⁵​longitude, ⁶​room_type
# ℹ Use `print(n = ...)` to see more rows, and `colnames()` to see all variable names
…
filter(AB_NYC_2019, price>1000)#only 239 listings over $1000

# A tibble: 239 × 16
        id name    host_id host_…¹ neigh…² neigh…³ latit…⁴ longi…⁵ room_…⁶ price
     <dbl> <chr>     <dbl> <chr>   <chr>   <chr>     <dbl>   <dbl> <chr>   <dbl>
 1  174966 Luxury…  836168 Henry   Manhat… Upper …    40.8   -74.0 Entire…  2000
 2  273190 6 Bedr…  605463 West V… Manhat… West V…    40.7   -74.0 Entire…  1300
 3  363673 Beauti…  256239 Tracey  Manhat… Upper …    40.8   -74.0 Privat…  3000
 4  468613 $ (Pho… 2325861 Cynthia Manhat… Lower …    40.7   -74.0 Privat…  1300
 5  664047 Lux 2B…  836168 Henry   Manhat… Upper …    40.8   -74.0 Entire…  2000
 6  826690 Sunny,… 4289240 Lucy    Brookl… Prospe…    40.7   -74.0 Entire…  4000
 7  893413 Archit… 4751930 Martin  Manhat… East V…    40.7   -74.0 Entire…  2500
 8 1056256 Beauti…  462379 Loretta Brookl… Carrol…    40.7   -74.0 Entire…  1395
 9 1300097 Marcel… 4069241 Shannon Brookl… Brookl…    40.7   -74.0 Privat…  1500
10 1301321 West V… 2214774 Ben An… Manhat… West V…    40.7   -74.0 Entire…  1899
# … with 229 more rows, 6 more variables: minimum_nights <dbl>,
#   number_of_reviews <dbl>, last_review <date>, reviews_per_month <dbl>,
#   calculated_host_listings_count <dbl>, availability_365 <dbl>, and
#   abbreviated variable names ¹​host_name, ²​neighbourhood_group,
#   ³​neighbourhood, ⁴​latitude, ⁵​longitude, ⁶​room_type
# ℹ Use `print(n = ...)` to see more rows, and `colnames()` to see all variable names

filter(AB_NYC_2019, price>0 & price<1000) #most listings fall in this range, there are 48895 rows in total, and 48586 in this range

# A tibble: 48,586 × 16
      id name      host_id host_…¹ neigh…² neigh…³ latit…⁴ longi…⁵ room_…⁶ price
   <dbl> <chr>       <dbl> <chr>   <chr>   <chr>     <dbl>   <dbl> <chr>   <dbl>
 1  2539 Clean & …    2787 John    Brookl… Kensin…    40.6   -74.0 Privat…   149
 2  2595 Skylit M…    2845 Jennif… Manhat… Midtown    40.8   -74.0 Entire…   225
 3  3647 THE VILL…    4632 Elisab… Manhat… Harlem     40.8   -73.9 Privat…   150
 4  3831 Cozy Ent…    4869 LisaRo… Brookl… Clinto…    40.7   -74.0 Entire…    89
 5  5022 Entire A…    7192 Laura   Manhat… East H…    40.8   -73.9 Entire…    80
 6  5099 Large Co…    7322 Chris   Manhat… Murray…    40.7   -74.0 Entire…   200
 7  5121 BlissArt…    7356 Garon   Brookl… Bedfor…    40.7   -74.0 Privat…    60
 8  5178 Large Fu…    8967 Shunic… Manhat… Hell's…    40.8   -74.0 Privat…    79
 9  5203 Cozy Cle…    7490 MaryEl… Manhat… Upper …    40.8   -74.0 Privat…    79
10  5238 Cute & C…    7549 Ben     Manhat… Chinat…    40.7   -74.0 Entire…   150
# … with 48,576 more rows, 6 more variables: minimum_nights <dbl>,
#   number_of_reviews <dbl>, last_review <date>, reviews_per_month <dbl>,
#   calculated_host_listings_count <dbl>, availability_365 <dbl>, and
#   abbreviated variable names ¹​host_name, ²​neighbourhood_group,
#   ³​neighbourhood, ⁴​latitude, ⁵​longitude, ⁶​room_type
# ℹ Use `print(n = ...)` to see more rows, and `colnames()` to see all variable names
…
