- Nick Boonstra Challenge 1 Resubmit
…
Code

library(tidyverse)

knitr::opts_chunk$set(echo = TRUE, warning=FALSE, message=FALSE)

Reading In and Cleaning Up

Code

birds<-read_csv("_data/birds.csv")
birds

# A tibble: 30,977 × 14
   Domain Cod…¹ Domain Area …² Area  Eleme…³ Element Item …⁴ Item  Year …⁵  Year
   <chr>        <chr>    <dbl> <chr>   <dbl> <chr>     <dbl> <chr>   <dbl> <dbl>
 1 QA           Live …       2 Afgh…    5112 Stocks     1057 Chic…    1961  1961
 2 QA           Live …       2 Afgh…    5112 Stocks     1057 Chic…    1962  1962
 3 QA           Live …       2 Afgh…    5112 Stocks     1057 Chic…    1963  1963
 4 QA           Live …       2 Afgh…    5112 Stocks     1057 Chic…    1964  1964
 5 QA           Live …       2 Afgh…    5112 Stocks     1057 Chic…    1965  1965
 6 QA           Live …       2 Afgh…    5112 Stocks     1057 Chic…    1966  1966
 7 QA           Live …       2 Afgh…    5112 Stocks     1057 Chic…    1967  1967
 8 QA           Live …       2 Afgh…    5112 Stocks     1057 Chic…    1968  1968
 9 QA           Live …       2 Afgh…    5112 Stocks     1057 Chic…    1969  1969
10 QA           Live …       2 Afgh…    5112 Stocks     1057 Chic…    1970  1970
# … with 30,967 more rows, 4 more variables: Unit <chr>, Value <dbl>,
#   Flag <chr>, `Flag Description` <chr>, and abbreviated variable names
#   ¹​`Domain Code`, ²​`Area Code`, ³​`Element Code`, ⁴​`Item Code`, ⁵​`Year Code`
# ℹ Use `print(n = ...)` to see more rows, and `colnames()` to see all variable names
…
birds

# A tibble: 30,977 × 8
   area_code area        item_code item      year value flag  flag_desc    
       <dbl> <chr>           <dbl> <chr>    <dbl> <dbl> <chr> <chr>        
 1         2 Afghanistan      1057 Chickens  1961  4700 F     FAO estimate 
 2         2 Afghanistan      1057 Chickens  1962  4900 F     FAO estimate 
 3         2 Afghanistan      1057 Chickens  1963  5000 F     FAO estimate 
 4         2 Afghanistan      1057 Chickens  1964  5300 F     FAO estimate 
 5         2 Afghanistan      1057 Chickens  1965  5500 F     FAO estimate 
 6         2 Afghanistan      1057 Chickens  1966  5800 F     FAO estimate 
 7         2 Afghanistan      1057 Chickens  1967  6600 F     FAO estimate 
 8         2 Afghanistan      1057 Chickens  1968  6290 <NA>  Official data
 9         2 Afghanistan      1057 Chickens  1969  6300 F     FAO estimate 
10         2 Afghanistan      1057 Chickens  1970  6000 F     FAO estimate 
# … with 30,967 more rows
# ℹ Use `print(n = ...)` to see more rows
…
Code

birds %>%
  group_by(year) %>%
  summarise("Median Values by Year" = median(value,na.rm=T))

# A tibble: 58 × 2
    year `Median Values by Year`
   <dbl>                   <dbl>
 1  1961                   1033 
 2  1962                   1014 
 3  1963                   1106 
 4  1964                   1103 
 5  1965                   1104 
 6  1966                   1088.
 7  1967                   1193 
 8  1968                   1252.
 9  1969                   1267 
10  1970                   1259 
# … with 48 more rows
# ℹ Use `print(n = ...)` to see more rows

Code

birds %>%
  group_by(area) %>%
  summarise("Median Values by Area" = median(value,na.rm=T))

# A tibble: 248 × 2
   area                `Median Values by Area`
   <chr>                                 <dbl>
 1 Afghanistan                          6700  
 2 Africa                              12910. 
 3 Albania                              1300  
 4 Algeria                                42.5
 5 American Samoa                         38  
 6 Americas                            66924. 
 7 Angola                               6075  
 8 Antigua and Barbuda                    85  
 9 Argentina                            2355  
10 Armenia                              1528. 
# … with 238 more rows
# ℹ Use `print(n = ...)` to see more rows
…
