- Challenge 2
…
Provide Grouped Summary Statistics

Conduct some exploratory data analysis, using dplyr commands such as group_by(), select(), filter(), and summarise(). Find the central tendency (mean, median, mode) and dispersion (standard deviation, mix/max/quantile) for different subgroups within the data set.

The total number of railroad employees for each state/territory are shown below.

Code

state_totals = Railroad %>% 
  filter(grepl("Total", STATE)) %>%
  filter(!grepl("Grand", STATE))
print(state_totals)

# A tibble: 53 × 5
   STATE     ...2  COUNTY ...4  TOTAL
   <chr>     <lgl> <chr>  <lgl> <dbl>
 1 AE Total1 NA    <NA>   NA        2
 2 AK Total  NA    <NA>   NA      103
 3 AL Total  NA    <NA>   NA     4257
 4 AP Total1 NA    <NA>   NA        1
 5 AR Total  NA    <NA>   NA     3871
 6 AZ Total  NA    <NA>   NA     3153
 7 CA Total  NA    <NA>   NA    13137
 8 CO Total  NA    <NA>   NA     3650
 9 CT Total  NA    <NA>   NA     2592
10 DC Total  NA    <NA>   NA      279
# … with 43 more rows
# ℹ Use `print(n = ...)` to see more rows
…
