- Challenge 5
…
library(tidyverse)
library(ggplot2)

knitr::opts_chunk$set(echo = TRUE, warning=FALSE, message=FALSE)

Read in data

Code

AB_NYC_2019 <- read_csv("_data/AB_NYC_2019.csv") %>%
  select(!c("id", "host_id", "neighbourhood", "latitude", "longitude", "minimum_nights", "last_review"))
AB_NYC_2019

# A tibble: 48,895 × 9
   name            host_…¹ neigh…² room_…³ price numbe…⁴ revie…⁵ calcu…⁶ avail…⁷
   <chr>           <chr>   <chr>   <chr>   <dbl>   <dbl>   <dbl>   <dbl>   <dbl>
 1 Clean & quiet … John    Brookl… Privat…   149       9    0.21       6     365
 2 Skylit Midtown… Jennif… Manhat… Entire…   225      45    0.38       2     355
 3 THE VILLAGE OF… Elisab… Manhat… Privat…   150       0   NA          1     365
 4 Cozy Entire Fl… LisaRo… Brookl… Entire…    89     270    4.64       1     194
 5 Entire Apt: Sp… Laura   Manhat… Entire…    80       9    0.1        1       0
 6 Large Cozy 1 B… Chris   Manhat… Entire…   200      74    0.59       1     129
 7 BlissArtsSpace! Garon   Brookl… Privat…    60      49    0.4        1       0
 8 Large Furnishe… Shunic… Manhat… Privat…    79     430    3.47       1     220
 9 Cozy Clean Gue… MaryEl… Manhat… Privat…    79     118    0.99       1       0
10 Cute & Cozy Lo… Ben     Manhat… Entire…   150     160    1.33       4     188
# … with 48,885 more rows, and abbreviated variable names ¹​host_name,
#   ²​neighbourhood_group, ³​room_type, ⁴​number_of_reviews, ⁵​reviews_per_month,
#   ⁶​calculated_host_listings_count, ⁷​availability_365
# ℹ Use `print(n = ...)` to see more rows
…
Tidy Data (as needed)

Code

AB_NYC_2019 <- replace_na(AB_NYC_2019, list(reviews_per_month = 0))
AB_NYC_2019

# A tibble: 48,895 × 9
   name            host_…¹ neigh…² room_…³ price numbe…⁴ revie…⁵ calcu…⁶ avail…⁷
   <chr>           <chr>   <chr>   <chr>   <dbl>   <dbl>   <dbl>   <dbl>   <dbl>
 1 Clean & quiet … John    Brookl… Privat…   149       9    0.21       6     365
 2 Skylit Midtown… Jennif… Manhat… Entire…   225      45    0.38       2     355
 3 THE VILLAGE OF… Elisab… Manhat… Privat…   150       0    0          1     365
 4 Cozy Entire Fl… LisaRo… Brookl… Entire…    89     270    4.64       1     194
 5 Entire Apt: Sp… Laura   Manhat… Entire…    80       9    0.1        1       0
 6 Large Cozy 1 B… Chris   Manhat… Entire…   200      74    0.59       1     129
 7 BlissArtsSpace! Garon   Brookl… Privat…    60      49    0.4        1       0
 8 Large Furnishe… Shunic… Manhat… Privat…    79     430    3.47       1     220
 9 Cozy Clean Gue… MaryEl… Manhat… Privat…    79     118    0.99       1       0
10 Cute & Cozy Lo… Ben     Manhat… Entire…   150     160    1.33       4     188
# … with 48,885 more rows, and abbreviated variable names ¹​host_name,
#   ²​neighbourhood_group, ³​room_type, ⁴​number_of_reviews, ⁵​reviews_per_month,
#   ⁶​calculated_host_listings_count, ⁷​availability_365
# ℹ Use `print(n = ...)` to see more rows
…
