- Nick Boonstra Challenge 3
…
ozzie

# A tibble: 736 × 4
   division                  response_type num_respondents response_type_code
   <chr>                     <chr>                   <dbl>              <dbl>
 1 New South Wales Divisions Yes                        NA                  1
 2 New South Wales Divisions No                         NA                  2
 3 New South Wales Divisions Unclear                    NA                  3
 4 New South Wales Divisions No response                NA                  4
 5 Banks                     Yes                     37736                  1
 6 Banks                     No                      46343                  2
 7 Banks                     Unclear                   247                  3
 8 Banks                     No response             20928                  4
 9 Barton                    Yes                     37153                  1
10 Barton                    No                      47984                  2
# … with 726 more rows
# ℹ Use `print(n = ...)` to see more rows
Voila! Looks much better already.

As an aside, we can create that valid/invalid dummy variable that was mentioned earlier:

Code

ozzie <- ozzie %>% # dummy
  mutate(valid = case_when(
    response_type_code < 3 ~ 1,
    T ~ 0
  ))

ozzie

# A tibble: 736 × 5
   division                  response_type num_respondents response_type…¹ valid
   <chr>                     <chr>                   <dbl>           <dbl> <dbl>
 1 New South Wales Divisions Yes                        NA               1     1
 2 New South Wales Divisions No                         NA               2     1
 3 New South Wales Divisions Unclear                    NA               3     0
 4 New South Wales Divisions No response                NA               4     0
 5 Banks                     Yes                     37736               1     1
 6 Banks                     No                      46343               2     1
 7 Banks                     Unclear                   247               3     0
 8 Banks                     No response             20928               4     0
 9 Barton                    Yes                     37153               1     1
10 Barton                    No                      47984               2     1
# … with 726 more rows, and abbreviated variable name ¹​response_type_code
# ℹ Use `print(n = ...)` to see more rows
…
