- Challenge 3 Will Munson
…
Yes, once it is pivoted long, our resulting data are \(12x5\) - exactly what we expected!

Challenge: Pivot the Chosen Data

Document your work here. What will a new “case” be once you have pivoted the data? How does it meet requirements for tidy data?

Code

animal_weight <- pivot_longer(animal_weight, col = c(`Cattle - dairy`, `Cattle - non-dairy`, Buffaloes, `Swine - market`, `Swine - breeding`, `Chicken - Broilers`, `Chicken - Layers`, Ducks, Turkeys, Sheep, Goats, Horses, Asses, Mules, Camels, Llamas),
                              names_to = "Animal Type",
                              values_to = "Weight in lb")

animal_weight

# A tibble: 144 × 3
   `IPCC Area`         `Animal Type`      `Weight in lb`
   <chr>               <chr>                       <dbl>
 1 Indian Subcontinent Cattle - dairy              275  
 2 Indian Subcontinent Cattle - non-dairy          110  
 3 Indian Subcontinent Buffaloes                   295  
 4 Indian Subcontinent Swine - market               28  
 5 Indian Subcontinent Swine - breeding             28  
 6 Indian Subcontinent Chicken - Broilers            0.9
 7 Indian Subcontinent Chicken - Layers              1.8
 8 Indian Subcontinent Ducks                         2.7
 9 Indian Subcontinent Turkeys                       6.8
10 Indian Subcontinent Sheep                        28  
# … with 134 more rows
# ℹ Use `print(n = ...)` to see more rows
…
