- Challenge 3
…
Briefly describe the data

This data set contains the average weight of 17 different groups of animals in 9 regions of the world. This data set is not tidy because the variables (animal species and average weight) are not set as the columns. Using pivot_longer will fix that.

Challenge: Pivot the Chosen Data

Code

aw_pivot <- pivot_longer(animal_weight, 
             "Cattle - dairy":"Llamas", 
             names_to = "Species",
             values_to = "Weight")
print(aw_pivot)

# A tibble: 144 × 3
   `IPCC Area`         Species            Weight
   <chr>               <chr>               <dbl>
 1 Indian Subcontinent Cattle - dairy      275  
 2 Indian Subcontinent Cattle - non-dairy  110  
 3 Indian Subcontinent Buffaloes           295  
 4 Indian Subcontinent Swine - market       28  
 5 Indian Subcontinent Swine - breeding     28  
 6 Indian Subcontinent Chicken - Broilers    0.9
 7 Indian Subcontinent Chicken - Layers      1.8
 8 Indian Subcontinent Ducks                 2.7
 9 Indian Subcontinent Turkeys               6.8
10 Indian Subcontinent Sheep                28  
# … with 134 more rows
# ℹ Use `print(n = ...)` to see more rows
…
