- Challenge 6 Will Munson
…
Briefly describe the data

So, the data appears to be about the changes in federal funding, and how that impacts the overall GDP, unemployment, and inflation. However, much of the data is missing, so we’ll need to remove some rows and maybe even a few columns in order to continue working with this.

Tidy Data (as needed)

Is your data already tidy, or is there work to be done? Be sure to anticipate your end result to provide a sanity check, and document your work here.

fed_rate %>%
  select(-contains("Target")) %>%
  na.omit() %>%
  mutate(full_date = paste(Year,Month,Day,sep="-")) %>%
  mutate(full_date = as.Date(full_date))

# A tibble: 236 × 8
    Year Month   Day Effective Federal Fund…¹ Real …² Unemp…³ Infla…⁴ full_date 
   <dbl> <dbl> <dbl>                    <dbl>   <dbl>   <dbl>   <dbl> <date>    
 1  1958     1     1                     2.72   -10       5.8     3.2 1958-01-01
 2  1958     4     1                     1.26     2.6     7.4     2.4 1958-04-01
 3  1958     7     1                     0.68     9.6     7.5     2.4 1958-07-01
 4  1958    10     1                     1.8      9.7     6.7     1.7 1958-10-01
 5  1959     1     1                     2.48     7.7     6       1.7 1959-01-01
 6  1959     4     1                     2.96    10.1     5.2     1.7 1959-04-01
 7  1959     7     1                     3.47    -0.8     5.1     2   1959-07-01
 8  1959    10     1                     3.98     1.6     5.7     2.7 1959-10-01
 9  1960     1     1                     3.99     9.2     5.2     2   1960-01-01
10  1960     4     1                     3.92    -1.5     5.2     2   1960-04-01
# … with 226 more rows, and abbreviated variable names
#   ¹​`Effective Federal Funds Rate`, ²​`Real GDP (Percent Change)`,
#   ³​`Unemployment Rate`, ⁴​`Inflation Rate`
# ℹ Use `print(n = ...)` to see more rows
…
