- Challenge 4 Akhilesh
…
Tidy Data (as needed)

Is your data already tidy, or is there work to be done? Be sure to anticipate your end result to provide a sanity check, and document your work here.

tidy data using pivot_longer, so that obervations represent individual observation and columns represent individual variable

Code

animal_weight_pivot <- pivot_longer(animal_weight, col = names(animal_weight)[2:17], names_to = 'animal_name', values_to = 'weight')
animal_weight_pivot

# A tibble: 144 × 3
   `IPCC Area`         animal_name        weight
   <chr>               <chr>               <dbl>
 1 Indian Subcontinent Cattle - dairy      275  
 2 Indian Subcontinent Cattle - non-dairy  110  
 3 Indian Subcontinent Buffaloes           295  
 4 Indian Subcontinent Swine - market       28  
 5 Indian Subcontinent Swine - breeding     28  
 6 Indian Subcontinent Chicken - Broilers    0.9
 7 Indian Subcontinent Chicken - Layers      1.8
 8 Indian Subcontinent Ducks                 2.7
 9 Indian Subcontinent Turkeys               6.8
10 Indian Subcontinent Sheep                28  
# … with 134 more rows
# ℹ Use `print(n = ...)` to see more rows

Identify variables that need to be mutated

col_classes below provide column wise class of dataframe animal_weight_pivot

‘IPCC Area’ and ‘animal_name’ are character class, and converted to factor class using mutate_at

Code

col_classes = data.frame(t(data.frame(lapply(animal_weight_pivot,class))))

animal_weight_pivot %>% 
  mutate_at(c('IPCC Area', 'animal_name'), factor)

# A tibble: 144 × 3
   `IPCC Area`         animal_name        weight
   <fct>               <fct>               <dbl>
 1 Indian Subcontinent Cattle - dairy      275  
 2 Indian Subcontinent Cattle - non-dairy  110  
 3 Indian Subcontinent Buffaloes           295  
 4 Indian Subcontinent Swine - market       28  
 5 Indian Subcontinent Swine - breeding     28  
 6 Indian Subcontinent Chicken - Broilers    0.9
 7 Indian Subcontinent Chicken - Layers      1.8
 8 Indian Subcontinent Ducks                 2.7
 9 Indian Subcontinent Turkeys               6.8
10 Indian Subcontinent Sheep                28  
# … with 134 more rows
# ℹ Use `print(n = ...)` to see more rows
…
