- Challenge 8
…
snl_actors<- snl_actors %>% 
  select(-url)

Join Data

actors_casts <- snl_actors %>%
  inner_join(snl_casts, by = "aid")

fully_joined_dataset <- actors_casts %>%
  inner_join(snl_seasons, by = "sid")

fully_joined_dataset

# A tibble: 614 × 14
   aid        type  gender   sid featu…¹ first…² last_…³ updat…⁴ n_epi…⁵ seaso…⁶
   <chr>      <chr> <chr>  <dbl> <lgl>     <dbl>   <dbl> <lgl>     <dbl>   <dbl>
 1 Kate McKi… cast  female    37 TRUE     2.01e7       0 FALSE         5   0.227
 2 Kate McKi… cast  female    38 TRUE     0            0 FALSE        21   1    
 3 Kate McKi… cast  female    39 FALSE    0            0 FALSE        21   1    
 4 Kate McKi… cast  female    40 FALSE    0            0 FALSE        21   1    
 5 Kate McKi… cast  female    41 FALSE    0            0 FALSE        21   1    
 6 Kate McKi… cast  female    42 FALSE    0            0 FALSE        21   1    
 7 Kate McKi… cast  female    43 FALSE    0            0 FALSE        21   1    
 8 Kate McKi… cast  female    44 FALSE    0            0 FALSE        21   1    
 9 Kate McKi… cast  female    45 FALSE    0            0 FALSE        18   1    
10 Kate McKi… cast  female    46 FALSE    0            0 FALSE        17   1    
# … with 604 more rows, 4 more variables: year <dbl>, first_epid.y <dbl>,
#   last_epid.y <dbl>, n_episodes.y <dbl>, and abbreviated variable names
#   ¹​featured, ²​first_epid.x, ³​last_epid.x, ⁴​update_anchor, ⁵​n_episodes.x,
#   ⁶​season_fraction
# ℹ Use `print(n = ...)` to see more rows, and `colnames()` to see all variable names
…
