- Challenge 6 Emma Rasmussen
…
      August 23, 2022

library(tidyverse)
library(ggplot2)
library(readxl)
library(lubridate)

knitr::opts_chunk$set(echo = TRUE, warning=FALSE, message=FALSE)

Read in data

debt<-read_excel("_data/debt_in_trillions.xlsx")
debt

# A tibble: 74 × 8
   `Year and Quarter` Mortgage HE Revolvin…¹ Auto …² Credi…³ Stude…⁴ Other Total
   <chr>                 <dbl>         <dbl>   <dbl>   <dbl>   <dbl> <dbl> <dbl>
 1 03:Q1                  4.94         0.242   0.641   0.688   0.241 0.478  7.23
 2 03:Q2                  5.08         0.26    0.622   0.693   0.243 0.486  7.38
 3 03:Q3                  5.18         0.269   0.684   0.693   0.249 0.477  7.56
 4 03:Q4                  5.66         0.302   0.704   0.698   0.253 0.449  8.07
 5 04:Q1                  5.84         0.328   0.72    0.695   0.260 0.446  8.29
 6 04:Q2                  5.97         0.367   0.743   0.697   0.263 0.423  8.46
 7 04:Q3                  6.21         0.426   0.751   0.706   0.33  0.41   8.83
 8 04:Q4                  6.36         0.468   0.728   0.717   0.346 0.423  9.04
 9 05:Q1                  6.51         0.502   0.725   0.71    0.364 0.394  9.21
10 05:Q2                  6.70         0.528   0.774   0.717   0.374 0.402  9.49
# … with 64 more rows, and abbreviated variable names ¹​`HE Revolving`,
#   ²​`Auto Loan`, ³​`Credit Card`, ⁴​`Student Loan`
# ℹ Use `print(n = ...)` to see more rows
…
      0
(0.0%)

Generated by summarytools 1.0.1 (R version 4.2.1)
2022-08-28

Tidy Data (as needed)

#fixing date variable
debtNEW<-debt%>%
  mutate(YearQuarter=parse_date_time(`Year and Quarter`, 
                                     orders="yq"))
debtNEW

# A tibble: 74 × 9
   `Year and Quarter` Mortgage HE Revolvin…¹ Auto …² Credi…³ Stude…⁴ Other Total
   <chr>                 <dbl>         <dbl>   <dbl>   <dbl>   <dbl> <dbl> <dbl>
 1 03:Q1                  4.94         0.242   0.641   0.688   0.241 0.478  7.23
 2 03:Q2                  5.08         0.26    0.622   0.693   0.243 0.486  7.38
 3 03:Q3                  5.18         0.269   0.684   0.693   0.249 0.477  7.56
 4 03:Q4                  5.66         0.302   0.704   0.698   0.253 0.449  8.07
 5 04:Q1                  5.84         0.328   0.72    0.695   0.260 0.446  8.29
 6 04:Q2                  5.97         0.367   0.743   0.697   0.263 0.423  8.46
 7 04:Q3                  6.21         0.426   0.751   0.706   0.33  0.41   8.83
 8 04:Q4                  6.36         0.468   0.728   0.717   0.346 0.423  9.04
 9 05:Q1                  6.51         0.502   0.725   0.71    0.364 0.394  9.21
10 05:Q2                  6.70         0.528   0.774   0.717   0.374 0.402  9.49
# … with 64 more rows, 1 more variable: YearQuarter <dttm>, and abbreviated
#   variable names ¹​`HE Revolving`, ²​`Auto Loan`, ³​`Credit Card`,
#   ⁴​`Student Loan`
# ℹ Use `print(n = ...)` to see more rows, and `colnames()` to see all variable names

#pivoting debt categories
debtNEWPIVOT<-pivot_longer(debtNEW, c("Mortgage", "HE Revolving", "Auto Loan", "Credit Card", "Student Loan", "Other"),
             names_to="DebtCategory", values_to="DebtByCategory")

debtNEWPIVOT

# A tibble: 444 × 5
   `Year and Quarter` Total YearQuarter         DebtCategory DebtByCategory
   <chr>              <dbl> <dttm>              <chr>                 <dbl>
 1 03:Q1               7.23 2003-01-01 00:00:00 Mortgage              4.94 
 2 03:Q1               7.23 2003-01-01 00:00:00 HE Revolving          0.242
 3 03:Q1               7.23 2003-01-01 00:00:00 Auto Loan             0.641
 4 03:Q1               7.23 2003-01-01 00:00:00 Credit Card           0.688
 5 03:Q1               7.23 2003-01-01 00:00:00 Student Loan          0.241
 6 03:Q1               7.23 2003-01-01 00:00:00 Other                 0.478
 7 03:Q2               7.38 2003-04-01 00:00:00 Mortgage              5.08 
 8 03:Q2               7.38 2003-04-01 00:00:00 HE Revolving          0.26 
 9 03:Q2               7.38 2003-04-01 00:00:00 Auto Loan             0.622
10 03:Q2               7.38 2003-04-01 00:00:00 Credit Card           0.693
# … with 434 more rows
# ℹ Use `print(n = ...)` to see more rows
…
