- Final Project - Indian Stock Market Analysis
…
ℹ Use `spec()` to retrieve the full column specification for this data.
ℹ Specify the column types or set `show_col_types = FALSE` to quiet this message.

Code

all_stocks

# A tibble: 235,192 × 15
   Date       Symbol   Series Prev …¹  Open  High   Low  Last Close  VWAP Volume
   <date>     <chr>    <chr>    <dbl> <dbl> <dbl> <dbl> <dbl> <dbl> <dbl>  <dbl>
 1 2007-11-27 MUNDRAP… EQ        440   770  1050   770   959   963.  985. 2.73e7
 2 2007-11-28 MUNDRAP… EQ        963.  984   990   874   885   894.  941. 4.58e6
 3 2007-11-29 MUNDRAP… EQ        894.  909   915.  841   887   884.  888. 5.12e6
 4 2007-11-30 MUNDRAP… EQ        884.  890   958   890   929   922.  929. 4.61e6
 5 2007-12-03 MUNDRAP… EQ        922.  940.  995   922   980   969.  966. 2.98e6
 6 2007-12-04 MUNDRAP… EQ        969.  985  1056   976  1049  1041. 1015. 4.85e6
 7 2007-12-05 MUNDRAP… EQ       1041. 1061  1100. 1050  1084  1082. 1083. 2.85e6
 8 2007-12-06 MUNDRAP… EQ       1082. 1089  1110. 1051  1090. 1081. 1087. 1.75e6
 9 2007-12-07 MUNDRAP… EQ       1081. 1100  1134  1078  1100  1102. 1107. 2.25e6
10 2007-12-10 MUNDRAP… EQ       1102. 1110  1110  1061. 1074. 1075. 1080. 1.01e6
# … with 235,182 more rows, 4 more variables: Turnover <dbl>, Trades <dbl>,
#   `Deliverable Volume` <dbl>, `%Deliverble` <dbl>, and abbreviated variable
#   name ¹​`Prev Close`
# ℹ Use `print(n = ...)` to see more rows, and `colnames()` to see all variable names
…
Code

# separating year from the Date column

# all_stocks %>% select(Date) %>% year()

x<-format(as.Date(all_stocks$Date, format="%Y/%m/%d"))

all_stocks_yy <- all_stocks %>% 
  mutate(yy=year(x)) %>%
  select(-Date)
print(all_stocks_yy)

# A tibble: 235,192 × 15
   Symbol     Series Prev C…¹  Open  High   Low  Last Close  VWAP Volume Turno…²
   <chr>      <chr>     <dbl> <dbl> <dbl> <dbl> <dbl> <dbl> <dbl>  <dbl>   <dbl>
 1 MUNDRAPORT EQ         440   770  1050   770   959   963.  985. 2.73e7 2.69e15
 2 MUNDRAPORT EQ         963.  984   990   874   885   894.  941. 4.58e6 4.31e14
 3 MUNDRAPORT EQ         894.  909   915.  841   887   884.  888. 5.12e6 4.55e14
 4 MUNDRAPORT EQ         884.  890   958   890   929   922.  929. 4.61e6 4.28e14
 5 MUNDRAPORT EQ         922.  940.  995   922   980   969.  966. 2.98e6 2.88e14
 6 MUNDRAPORT EQ         969.  985  1056   976  1049  1041. 1015. 4.85e6 4.92e14
 7 MUNDRAPORT EQ        1041. 1061  1100. 1050  1084  1082. 1083. 2.85e6 3.08e14
 8 MUNDRAPORT EQ        1082. 1089  1110. 1051  1090. 1081. 1087. 1.75e6 1.90e14
 9 MUNDRAPORT EQ        1081. 1100  1134  1078  1100  1102. 1107. 2.25e6 2.49e14
10 MUNDRAPORT EQ        1102. 1110  1110  1061. 1074. 1075. 1080. 1.01e6 1.09e14
# … with 235,182 more rows, 4 more variables: Trades <dbl>,
#   `Deliverable Volume` <dbl>, Percent_Deliverable <dbl>, yy <dbl>, and
#   abbreviated variable names ¹​`Prev Close`, ²​Turnover
# ℹ Use `print(n = ...)` to see more rows, and `colnames()` to see all variable names

Code

all_stocks_yy %>% select(1) %>% distinct()

# A tibble: 65 × 1
   Symbol    
   <chr>     
 1 MUNDRAPORT
 2 ADANIPORTS
 3 ASIANPAINT
 4 UTIBANK   
 5 AXISBANK  
 6 BAJAJ-AUTO
 7 BAJAJFINSV
 8 BAJAUTOFIN
 9 BAJFINANCE
10 BHARTI    
# … with 55 more rows
# ℹ Use `print(n = ...)` to see more rows
…
Rows: 5306 Columns: 15
── Column specification ────────────────────────────────────────────────────────
Delimiter: ","
chr   (2): Symbol, Series
dbl  (12): Prev Close, Open, High, Low, Last, Close, VWAP, Volume, Turnover,...
date  (1): Date

ℹ Use `spec()` to retrieve the full column specification for this data.
ℹ Specify the column types or set `show_col_types = FALSE` to quiet this message.

Code

wipro

# A tibble: 5,306 × 15
   Date       Symbol Series Prev Cl…¹  Open  High   Low  Last Close  VWAP Volume
   <date>     <chr>  <chr>      <dbl> <dbl> <dbl> <dbl> <dbl> <dbl> <dbl>  <dbl>
 1 2000-01-03 WIPRO  EQ         2522. 2724  2724. 2724  2724. 2724. 2724.   1599
 2 2000-01-04 WIPRO  EQ         2724. 2942. 2942. 2942. 2942. 2942. 2942.   4392
 3 2000-01-05 WIPRO  EQ         2942. 2942. 3178. 2715  3000  2990. 3064. 132297
 4 2000-01-06 WIPRO  EQ         2990. 3145. 3183  2790  2915  2932. 2962.  72840
 5 2000-01-07 WIPRO  EQ         2932. 2751  2751  2698. 2698. 2698. 2698.  10110
 6 2000-01-10 WIPRO  EQ         2698. 2698. 2914. 2612  2665  2701. 2741.  40382
 7 2000-01-11 WIPRO  EQ         2701. 2734  2789  2485. 2485. 2485. 2543.  46178
 8 2000-01-12 WIPRO  EQ         2485. 2590  2608  2485  2570  2563. 2544.  20037
 9 2000-01-13 WIPRO  EQ         2563. 2574  2620  2460  2485. 2480. 2540.  19080
10 2000-01-14 WIPRO  EQ         2480. 2590  2590  2405  2475. 2498. 2470.  20412
# … with 5,296 more rows, 4 more variables: Turnover <dbl>, Trades <dbl>,
#   `Deliverable Volume` <dbl>, `%Deliverble` <dbl>, and abbreviated variable
#   name ¹​`Prev Close`
# ℹ Use `print(n = ...)` to see more rows, and `colnames()` to see all variable names
…
To see on which date the highest sales were made, I picked the date and volume column and produced the result based on the grouped date column. We can see the highest number of shares ever sold was on 15 July 2020

Code

wipro_year_wise<- wipro %>% 
  arrange(desc(`Volume`)) %>% 
  select(`Date`,`Volume`) %>% 
  group_by(`Date`)
  # ungroup() %>% 
  # arrange(desc(`Date`)) %>% 
  # slice(1:10)

wipro_year_wise

# A tibble: 5,306 × 2
# Groups:   Date [5,306]
   Date          Volume
   <date>         <dbl>
 1 2020-07-15 130367693
 2 2021-04-16 109361636
 3 2020-10-08 107270570
 4 2020-10-14  74138275
 5 2021-01-14  71551807
 6 2020-10-09  55431052
 7 2020-10-12  52966063
 8 2020-07-16  52277954
 9 2021-01-11  47334018
10 2020-12-23  44874433
# … with 5,296 more rows
# ℹ Use `print(n = ...)` to see more rows
…
