- Final
…
#Sanity Check
ilga_PR

# A tibble: 241 × 13
       N    CN COUNTRY   P_Const P_Bro…¹ P_Emp…² P_Hat…³ P_Inc…⁴ P_Ban…⁵ R_Sam…⁶
   <dbl> <dbl> <chr>     <chr>   <chr>   <chr>   <chr>   <chr>   <chr>   <chr>  
 1     1     1 Algeria   NO      NO      NO      NO      NO      NO      NO     
 2     2     2 Angola    NO      YES     YES     YES     YES     NO      NO     
 3     3     3 Benin     NO      NO      NO      NO      NO      NO      NO     
 4     4     4 Botswana  NO      NO      YES     NO      NO      NO      NO     
 5     5     5 Burkina … NO      NO      NO      NO      NO      NO      NO     
 6     6     6 Burundi   NO      NO      NO      NO      NO      NO      NO     
 7     7     7 Cameroon  NO      NO      NO      NO      NO      NO      NO     
 8     8     8 Cabo Ver… NO      NO      YES     YES     NO      NO      NO     
 9     9     9 Central … NO      NO      NO      NO      NO      NO      NO     
10    10    10 Chad      NO      NO      NO      YES     NO      NO      NO     
# … with 231 more rows, 3 more variables: R_CivilUnion <chr>,
#   R_JointAdoptions <chr>, R_SecondParentAdoption <chr>, and abbreviated
#   variable names ¹​P_BroadProt, ²​P_Employ, ³​P_HateCrime, ⁴​P_Incitement,
#   ⁵​P_BanConvTherapies, ⁶​R_SameSexMarriage
# ℹ Use `print(n = ...)` to see more rows, and `colnames()` to see all variable names
…
Bring Continent Column to Front of Data set

After adding a Continent column, I wanted to bring the column to the front of data set.

Note: N is the order of the country in the scheme of all countries. CN is the country number within the Continent the country falls.

#Brings the newly created Continent column to the front 
ilga_PR_Cont <- ilga_PR_Cont%>%
  select(N, CN, Continent, everything())

#Sanity Check
ilga_PR_Cont 

# A tibble: 241 × 14
       N    CN Continent COUNTRY P_Const P_Bro…¹ P_Emp…² P_Hat…³ P_Inc…⁴ P_Ban…⁵
   <dbl> <dbl> <chr>     <chr>   <chr>   <chr>   <chr>   <chr>   <chr>   <chr>  
 1     1     1 Africa    Algeria NO      NO      NO      NO      NO      NO     
 2     2     2 Africa    Angola  NO      YES     YES     YES     YES     NO     
 3     3     3 Africa    Benin   NO      NO      NO      NO      NO      NO     
 4     4     4 Africa    Botswa… NO      NO      YES     NO      NO      NO     
 5     5     5 Africa    Burkin… NO      NO      NO      NO      NO      NO     
 6     6     6 Africa    Burundi NO      NO      NO      NO      NO      NO     
 7     7     7 Africa    Camero… NO      NO      NO      NO      NO      NO     
 8     8     8 Africa    Cabo V… NO      NO      YES     YES     NO      NO     
 9     9     9 Africa    Centra… NO      NO      NO      NO      NO      NO     
10    10    10 Africa    Chad    NO      NO      NO      YES     NO      NO     
# … with 231 more rows, 4 more variables: R_SameSexMarriage <chr>,
#   R_CivilUnion <chr>, R_JointAdoptions <chr>, R_SecondParentAdoption <chr>,
#   and abbreviated variable names ¹​P_BroadProt, ²​P_Employ, ³​P_HateCrime,
#   ⁴​P_Incitement, ⁵​P_BanConvTherapies
# ℹ Use `print(n = ...)` to see more rows, and `colnames()` to see all variable names

Treating NA

The data set contained NA values in N and CN, for areas that were broadly presenting as a “territory”.

For my data, I decided to filter out the NA values and focused on the countries assigned a N and CN value.

ilga_PR_Cont <- ilga_PR_Cont %>%
  filter(!is.na(N))

ilga_PR_Cont

# A tibble: 193 × 14
       N    CN Continent COUNTRY P_Const P_Bro…¹ P_Emp…² P_Hat…³ P_Inc…⁴ P_Ban…⁵
   <dbl> <dbl> <chr>     <chr>   <chr>   <chr>   <chr>   <chr>   <chr>   <chr>  
 1     1     1 Africa    Algeria NO      NO      NO      NO      NO      NO     
 2     2     2 Africa    Angola  NO      YES     YES     YES     YES     NO     
 3     3     3 Africa    Benin   NO      NO      NO      NO      NO      NO     
 4     4     4 Africa    Botswa… NO      NO      YES     NO      NO      NO     
 5     5     5 Africa    Burkin… NO      NO      NO      NO      NO      NO     
 6     6     6 Africa    Burundi NO      NO      NO      NO      NO      NO     
 7     7     7 Africa    Camero… NO      NO      NO      NO      NO      NO     
 8     8     8 Africa    Cabo V… NO      NO      YES     YES     NO      NO     
 9     9     9 Africa    Centra… NO      NO      NO      NO      NO      NO     
10    10    10 Africa    Chad    NO      NO      NO      YES     NO      NO     
# … with 183 more rows, 4 more variables: R_SameSexMarriage <chr>,
#   R_CivilUnion <chr>, R_JointAdoptions <chr>, R_SecondParentAdoption <chr>,
#   and abbreviated variable names ¹​P_BroadProt, ²​P_Employ, ³​P_HateCrime,
#   ⁴​P_Incitement, ⁵​P_BanConvTherapies
# ℹ Use `print(n = ...)` to see more rows, and `colnames()` to see all variable names

Pivoting Data

To better analyze my data, I decided to pivot the data frame. Before, the “Type of measure” (Protection and Recognition) were written out as their own variables (P_Type and R_Type) with a “Yes”, “No”, or “Limited” as their values.

After I pivoted my data longer,P_Type and R_Type fall under the variable Type, with the “Yes”, “No”, and “Limited” values falling under the variable Yes_No_Limited.

#ilga_PR_Cont Pivot longer
ilga_PIV <- pivot_longer(ilga_PR_Cont, P_Const:R_SecondParentAdoption, names_to = "Type", values_to = "Yes_No_Limited")

#Sanity Check
ilga_PIV

# A tibble: 1,930 × 6
       N    CN Continent COUNTRY Type                   Yes_No_Limited
   <dbl> <dbl> <chr>     <chr>   <chr>                  <chr>         
 1     1     1 Africa    Algeria P_Const                NO            
 2     1     1 Africa    Algeria P_BroadProt            NO            
 3     1     1 Africa    Algeria P_Employ               NO            
 4     1     1 Africa    Algeria P_HateCrime            NO            
 5     1     1 Africa    Algeria P_Incitement           NO            
 6     1     1 Africa    Algeria P_BanConvTherapies     NO            
 7     1     1 Africa    Algeria R_SameSexMarriage      NO            
 8     1     1 Africa    Algeria R_CivilUnion           NO            
 9     1     1 Africa    Algeria R_JointAdoptions       NO            
10     1     1 Africa    Algeria R_SecondParentAdoption NO            
# … with 1,920 more rows
# ℹ Use `print(n = ...)` to see more rows
…
I gave the values NO = 0, YES = 1, LIMITED = 0.5. I did this because I wanted to create a numeric metric to compare the the number of Protections and Recognition for Continents and Countries in the data frame.

First I recoded just for the P_Type

#recodinng variables for Protection("P")
ilga_PR_Cont_NumP <- ilga_PR_Cont %>%
  mutate(across(starts_with("P"),
                ~recode(., "NO" = 0,"YES" = 1, "LIMITED" = 0.5),
  ))

#Sanity Check
ilga_PR_Cont_NumP

# A tibble: 193 × 14
       N    CN Continent COUNTRY P_Const P_Bro…¹ P_Emp…² P_Hat…³ P_Inc…⁴ P_Ban…⁵
   <dbl> <dbl> <chr>     <chr>     <dbl>   <dbl>   <dbl>   <dbl>   <dbl>   <dbl>
 1     1     1 Africa    Algeria       0       0       0       0       0       0
 2     2     2 Africa    Angola        0       1       1       1       1       0
 3     3     3 Africa    Benin         0       0       0       0       0       0
 4     4     4 Africa    Botswa…       0       0       1       0       0       0
 5     5     5 Africa    Burkin…       0       0       0       0       0       0
 6     6     6 Africa    Burundi       0       0       0       0       0       0
 7     7     7 Africa    Camero…       0       0       0       0       0       0
 8     8     8 Africa    Cabo V…       0       0       1       1       0       0
 9     9     9 Africa    Centra…       0       0       0       0       0       0
10    10    10 Africa    Chad          0       0       0       1       0       0
# … with 183 more rows, 4 more variables: R_SameSexMarriage <chr>,
#   R_CivilUnion <chr>, R_JointAdoptions <chr>, R_SecondParentAdoption <chr>,
#   and abbreviated variable names ¹​P_BroadProt, ²​P_Employ, ³​P_HateCrime,
#   ⁴​P_Incitement, ⁵​P_BanConvTherapies
# ℹ Use `print(n = ...)` to see more rows, and `colnames()` to see all variable names

I did the same for the Recognition

#recoding variables for Protection and Recognition(P and R)
ilga_PR_Cont_NumPR <- ilga_PR_Cont_NumP %>%
  mutate(across(starts_with("R"),
                ~recode(., "NO" = 0,"YES" = 1, "LIMITED" = 0.5),
  ))

#sanity check
ilga_PR_Cont_NumPR

# A tibble: 193 × 14
       N    CN Continent COUNTRY P_Const P_Bro…¹ P_Emp…² P_Hat…³ P_Inc…⁴ P_Ban…⁵
   <dbl> <dbl> <chr>     <chr>     <dbl>   <dbl>   <dbl>   <dbl>   <dbl>   <dbl>
 1     1     1 Africa    Algeria       0       0       0       0       0       0
 2     2     2 Africa    Angola        0       1       1       1       1       0
 3     3     3 Africa    Benin         0       0       0       0       0       0
 4     4     4 Africa    Botswa…       0       0       1       0       0       0
 5     5     5 Africa    Burkin…       0       0       0       0       0       0
 6     6     6 Africa    Burundi       0       0       0       0       0       0
 7     7     7 Africa    Camero…       0       0       0       0       0       0
 8     8     8 Africa    Cabo V…       0       0       1       1       0       0
 9     9     9 Africa    Centra…       0       0       0       0       0       0
10    10    10 Africa    Chad          0       0       0       1       0       0
# … with 183 more rows, 4 more variables: R_SameSexMarriage <dbl>,
#   R_CivilUnion <dbl>, R_JointAdoptions <dbl>, R_SecondParentAdoption <dbl>,
#   and abbreviated variable names ¹​P_BroadProt, ²​P_Employ, ³​P_HateCrime,
#   ⁴​P_Incitement, ⁵​P_BanConvTherapies
# ℹ Use `print(n = ...)` to see more rows, and `colnames()` to see all variable names
…
Freedom Score For Each Country

With each Yes”, “No”, and “Limited” as a number, I decided to create a column called Freedom_Score.

The Freedom_Score represents the aggregate score of the P_Type and R_Type added. So each number across P_Const:R_SecondParentAdoption is added to single number under the variable Freedom_Score.

#Freedom Score Variable 
ilga_PR_Cont_NumPR_FS <- ilga_PR_Cont_NumPR %>% 
  rowwise() %>%
  mutate(Freedom_Score = sum(c_across(P_Const:R_SecondParentAdoption)))

#Sanity Check
ilga_PR_Cont_NumPR_FS

# A tibble: 193 × 15
# Rowwise: 
       N    CN Continent COUNTRY P_Const P_Bro…¹ P_Emp…² P_Hat…³ P_Inc…⁴ P_Ban…⁵
   <dbl> <dbl> <chr>     <chr>     <dbl>   <dbl>   <dbl>   <dbl>   <dbl>   <dbl>
 1     1     1 Africa    Algeria       0       0       0       0       0       0
 2     2     2 Africa    Angola        0       1       1       1       1       0
 3     3     3 Africa    Benin         0       0       0       0       0       0
 4     4     4 Africa    Botswa…       0       0       1       0       0       0
 5     5     5 Africa    Burkin…       0       0       0       0       0       0
 6     6     6 Africa    Burundi       0       0       0       0       0       0
 7     7     7 Africa    Camero…       0       0       0       0       0       0
 8     8     8 Africa    Cabo V…       0       0       1       1       0       0
 9     9     9 Africa    Centra…       0       0       0       0       0       0
10    10    10 Africa    Chad          0       0       0       1       0       0
# … with 183 more rows, 5 more variables: R_SameSexMarriage <dbl>,
#   R_CivilUnion <dbl>, R_JointAdoptions <dbl>, R_SecondParentAdoption <dbl>,
#   Freedom_Score <dbl>, and abbreviated variable names ¹​P_BroadProt,
#   ²​P_Employ, ³​P_HateCrime, ⁴​P_Incitement, ⁵​P_BanConvTherapies
# ℹ Use `print(n = ...)` to see more rows, and `colnames()` to see all variable names
…
Processing Data for Asian COUNTRYs

I did the same process’ and visualizations I did for the Continents, for the COUNTRYs in “Asia”.

Dataframes Specific to Asia with “Yes”, “No”, and “Limited”.

#Dataframe with Yes and NO

Asia_YN <- ilga_PR_Cont %>%
  filter( Continent == "Asia")

Asia_YN

# A tibble: 42 × 14
       N    CN Continent COUNTRY P_Const P_Bro…¹ P_Emp…² P_Hat…³ P_Inc…⁴ P_Ban…⁵
   <dbl> <dbl> <chr>     <chr>   <chr>   <chr>   <chr>   <chr>   <chr>   <chr>  
 1    90     1 Asia      Afghan… NO      NO      NO      NO      NO      NO     
 2    91     2 Asia      Bahrain NO      NO      NO      NO      NO      NO     
 3    92     3 Asia      Bangla… NO      NO      NO      NO      NO      NO     
 4    93     4 Asia      Bhutan  NO      NO      NO      NO      NO      NO     
 5    94     5 Asia      Brunei… NO      NO      NO      NO      NO      NO     
 6    95     6 Asia      Cambod… NO      NO      NO      NO      NO      NO     
 7    96     7 Asia      China   NO      NO      NO      NO      NO      NO     
 8    97     8 Asia      East T… NO      NO      NO      YES     NO      NO     
 9    98     9 Asia      India   NO      NO      NO      NO      NO      NO     
10    99    10 Asia      Indone… NO      NO      NO      NO      NO      NO     
# … with 32 more rows, 4 more variables: R_SameSexMarriage <chr>,
#   R_CivilUnion <chr>, R_JointAdoptions <chr>, R_SecondParentAdoption <chr>,
#   and abbreviated variable names ¹​P_BroadProt, ²​P_Employ, ³​P_HateCrime,
#   ⁴​P_Incitement, ⁵​P_BanConvTherapies
# ℹ Use `print(n = ...)` to see more rows, and `colnames()` to see all variable names

Asia Data frame with “Yes”, “No”, and “Limited” as 1, 0, 0.5 and Freedom Score

#Dataframe with Numbers and Freedom Score
Asia_FS <- ilga_PR_Cont_NumPR_FS %>%
  filter( Continent == "Asia")

Asia_FS

# A tibble: 42 × 15
# Rowwise: 
       N    CN Continent COUNTRY P_Const P_Bro…¹ P_Emp…² P_Hat…³ P_Inc…⁴ P_Ban…⁵
   <dbl> <dbl> <chr>     <chr>     <dbl>   <dbl>   <dbl>   <dbl>   <dbl>   <dbl>
 1    90     1 Asia      Afghan…       0       0       0       0       0       0
 2    91     2 Asia      Bahrain       0       0       0       0       0       0
 3    92     3 Asia      Bangla…       0       0       0       0       0       0
 4    93     4 Asia      Bhutan        0       0       0       0       0       0
 5    94     5 Asia      Brunei…       0       0       0       0       0       0
 6    95     6 Asia      Cambod…       0       0       0       0       0       0
 7    96     7 Asia      China         0       0       0       0       0       0
 8    97     8 Asia      East T…       0       0       0       1       0       0
 9    98     9 Asia      India         0       0       0       0       0       0
10    99    10 Asia      Indone…       0       0       0       0       0       0
# … with 32 more rows, 5 more variables: R_SameSexMarriage <dbl>,
#   R_CivilUnion <dbl>, R_JointAdoptions <dbl>, R_SecondParentAdoption <dbl>,
#   Freedom_Score <dbl>, and abbreviated variable names ¹​P_BroadProt,
#   ²​P_Employ, ³​P_HateCrime, ⁴​P_Incitement, ⁵​P_BanConvTherapies
# ℹ Use `print(n = ...)` to see more rows, and `colnames()` to see all variable names

Pivot Asia Dataframe

Asia_Piv <- Asia_YN %>%
  pivot_longer(P_Const:R_SecondParentAdoption, names_to = "Type", values_to = "Yes_No_Limited")

Asia_Piv

# A tibble: 420 × 6
       N    CN Continent COUNTRY     Type                   Yes_No_Limited
   <dbl> <dbl> <chr>     <chr>       <chr>                  <chr>         
 1    90     1 Asia      Afghanistan P_Const                NO            
 2    90     1 Asia      Afghanistan P_BroadProt            NO            
 3    90     1 Asia      Afghanistan P_Employ               NO            
 4    90     1 Asia      Afghanistan P_HateCrime            NO            
 5    90     1 Asia      Afghanistan P_Incitement           NO            
 6    90     1 Asia      Afghanistan P_BanConvTherapies     NO            
 7    90     1 Asia      Afghanistan R_SameSexMarriage      NO            
 8    90     1 Asia      Afghanistan R_CivilUnion           NO            
 9    90     1 Asia      Afghanistan R_JointAdoptions       NO            
10    90     1 Asia      Afghanistan R_SecondParentAdoption NO            
# … with 410 more rows
# ℹ Use `print(n = ...)` to see more rows
…
