- Final Project DRAFT
…
us_names <- read_csv("~/School/UMASS/DACSS601/Final/names.csv")

Now that I’ve read in all those data sets, I need to combine them into one data frame and give them column names (since none of the files had column names). Once that’s done, I’ll sort by year.

#bind all data frames
states <- bind_rows(AK, AL, AR, AZ, CA, CO, CT, DC, DE, FL, GA, HI, IA, ID, IL, IN, KS, KY, LA, MA, MD, ME, MI, MN, MO, MS, MT, NC, ND, NE, NH, NJ, NM, NV, NY, OH, OK, OR, PA, RI, SC, SD, TN, TX, UT, VA, VT, WA, WI, WV, WY)

#rename columns
states <- rename(states, "State" = "X1", "Sex" = "X2", "Year" = "X3", "Name" = "X4", "Count" = "X5")

states

# A tibble: 6,311,504 × 5
   State Sex    Year Name     Count
   <chr> <chr> <dbl> <chr>    <dbl>
 1 AK    F      1910 Mary        14
 2 AK    F      1910 Annie       12
 3 AK    F      1910 Anna        10
 4 AK    F      1910 Margaret     8
 5 AK    F      1910 Helen        7
 6 AK    F      1910 Elsie        6
 7 AK    F      1910 Lucy         6
 8 AK    F      1910 Dorothy      5
 9 AK    F      1911 Mary        12
10 AK    F      1911 Margaret     7
# … with 6,311,494 more rows
# ℹ Use `print(n = ...)` to see more rows
…
#assign each tibble a name for ease
f_state <- X$F
m_state <- X$M

#split national data into separate tibbles by sex
Y <- split(us_names, us_names$Sex)

#assign each tibble a name for ease
f_natl <- Y$F
m_natl <- Y$M

arrange(f_natl, Year, desc(Count))

# A tibble: 1,209,866 × 4
   Name      Sex   Count  Year
   <chr>     <chr> <dbl> <dbl>
 1 Mary      F      7065  1880
 2 Anna      F      2604  1880
 3 Emma      F      2003  1880
 4 Elizabeth F      1939  1880
 5 Minnie    F      1746  1880
 6 Margaret  F      1578  1880
 7 Ida       F      1472  1880
 8 Alice     F      1414  1880
 9 Bertha    F      1320  1880
10 Sarah     F      1288  1880
# … with 1,209,856 more rows
# ℹ Use `print(n = ...)` to see more rows

#top female names nationally, arranged by year
f_natl %>%
  group_by(Year) %>%
  top_n(1, Count) %>%
  arrange(Year)

# A tibble: 142 × 4
# Groups:   Year [142]
   Name  Sex   Count  Year
   <chr> <chr> <dbl> <dbl>
 1 Mary  F      7065  1880
 2 Mary  F      6919  1881
 3 Mary  F      8148  1882
 4 Mary  F      8012  1883
 5 Mary  F      9217  1884
 6 Mary  F      9128  1885
 7 Mary  F      9889  1886
 8 Mary  F      9888  1887
 9 Mary  F     11754  1888
10 Mary  F     11648  1889
# … with 132 more rows
# ℹ Use `print(n = ...)` to see more rows
…
m_natl %>%
  group_by(Year) %>%
  top_n(1, Count) %>%
  arrange(Year)

# A tibble: 142 × 4
# Groups:   Year [142]
   Name  Sex   Count  Year
   <chr> <chr> <dbl> <dbl>
 1 John  M      9655  1880
 2 John  M      8769  1881
 3 John  M      9557  1882
 4 John  M      8894  1883
 5 John  M      9388  1884
 6 John  M      8756  1885
 7 John  M      9026  1886
 8 John  M      8110  1887
 9 John  M      9247  1888
10 John  M      8548  1889
# … with 132 more rows
# ℹ Use `print(n = ...)` to see more rows
…
