- Final Project
…
The first is to look at the general picture of the U.S. economy. I will visualize and examine the real gdp changes in the US economy since the 50s.

Second, I’ll draw the famous Phillips curve, which represents the trade-off between unemployment and inflation, using real data from the United States, and see how the trade-off between the two really looks.

Lastly, I’ll look at whether the target interest rate of the U.S. monetary policy authorities is for inflation management as I learned in the textbook. If the monetary authorities’ top policy goal is inflation management, they will raise the target interest rate when inflation is high to stabilize prices, and the correlation between the two will be high.

Read and Tidy Data

# Read Federal Funds Rate data

fedfundsrate_org<-read_csv("_data/FedFundsRate.csv", show_col_types = FALSE)
fedfundsrate_org

# A tibble: 904 × 10
    Year Month   Day Federal F…¹ Feder…² Feder…³ Effec…⁴ Real …⁵ Unemp…⁶ Infla…⁷
   <dbl> <dbl> <dbl>       <dbl>   <dbl>   <dbl>   <dbl>   <dbl>   <dbl>   <dbl>
 1  1954     7     1          NA      NA      NA    0.8      4.6     5.8      NA
 2  1954     8     1          NA      NA      NA    1.22    NA       6        NA
 3  1954     9     1          NA      NA      NA    1.06    NA       6.1      NA
 4  1954    10     1          NA      NA      NA    0.85     8       5.7      NA
 5  1954    11     1          NA      NA      NA    0.83    NA       5.3      NA
 6  1954    12     1          NA      NA      NA    1.28    NA       5        NA
 7  1955     1     1          NA      NA      NA    1.39    11.9     4.9      NA
 8  1955     2     1          NA      NA      NA    1.29    NA       4.7      NA
 9  1955     3     1          NA      NA      NA    1.35    NA       4.6      NA
10  1955     4     1          NA      NA      NA    1.43     6.7     4.7      NA
# … with 894 more rows, and abbreviated variable names
#   ¹​`Federal Funds Target Rate`, ²​`Federal Funds Upper Target`,
#   ³​`Federal Funds Lower Target`, ⁴​`Effective Federal Funds Rate`,
#   ⁵​`Real GDP (Percent Change)`, ⁶​`Unemployment Rate`, ⁷​`Inflation Rate`
# ℹ Use `print(n = ...)` to see more rows
…
inflation_after17<-inflation_after17 %>% mutate("Day"=1) %>% 
  mutate("Date" = make_date(Year, Month, Day)) %>% 
  select("Date", "Inflation Rate")

# Join all the after 2017 data

data_after2017<-left_join(upper_target_after17, lower_target_after17, key = 'Date') %>%
  left_join(effr_after17, key = 'Date') %>%
  left_join(rgdp_after17, key = 'Date') %>%
  left_join(unemployment_after17, key = 'Date') %>%
  left_join(inflation_after17, key = 'Date')
data_after2017

# A tibble: 1,978 × 7
   Date       Federal Funds Upper Targ…¹ Feder…² Effec…³ Real …⁴ Unemp…⁵ Infla…⁶
   <date>                          <dbl>   <dbl>   <dbl>   <dbl>   <dbl>   <dbl>
 1 2017-04-01                          1    0.75    0.82     2.3     4.4     1.9
 2 2017-04-02                          1    0.75    0.82    NA      NA      NA  
 3 2017-04-03                          1    0.75    0.91    NA      NA      NA  
 4 2017-04-04                          1    0.75    0.91    NA      NA      NA  
 5 2017-04-05                          1    0.75    0.91    NA      NA      NA  
 6 2017-04-06                          1    0.75    0.91    NA      NA      NA  
 7 2017-04-07                          1    0.75    0.91    NA      NA      NA  
 8 2017-04-08                          1    0.75    0.91    NA      NA      NA  
 9 2017-04-09                          1    0.75    0.91    NA      NA      NA  
10 2017-04-10                          1    0.75    0.91    NA      NA      NA  
# … with 1,968 more rows, and abbreviated variable names
#   ¹​`Federal Funds Upper Target`, ²​`Federal Funds Lower Target`,
#   ³​`Effective Federal Funds Rate`, ⁴​`Real GDP (Percent Change)`,
#   ⁵​`Unemployment Rate`, ⁶​`Inflation Rate`
# ℹ Use `print(n = ...)` to see more rows
…
# Tidy the original data to join data after 2017

fedfundsrate_org<-fedfundsrate_org%>%
  mutate(Date = make_date(Year, Month, Day))

tot_fedfundsrate<-full_join(fedfundsrate_org, data_after2017, key= "Date")
tot_fedfundsrate<-tot_fedfundsrate%>%
  select(!"Year")%>%
  select(!"Month")%>%
  select(!"Day")%>%
  relocate(c("Date"))
tot_fedfundsrate

# A tibble: 2,882 × 8
   Date       Federal Funds Ta…¹ Feder…² Feder…³ Effec…⁴ Real …⁵ Unemp…⁶ Infla…⁷
   <date>                  <dbl>   <dbl>   <dbl>   <dbl>   <dbl>   <dbl>   <dbl>
 1 1954-07-01                 NA      NA      NA    0.8      4.6     5.8      NA
 2 1954-08-01                 NA      NA      NA    1.22    NA       6        NA
 3 1954-09-01                 NA      NA      NA    1.06    NA       6.1      NA
 4 1954-10-01                 NA      NA      NA    0.85     8       5.7      NA
 5 1954-11-01                 NA      NA      NA    0.83    NA       5.3      NA
 6 1954-12-01                 NA      NA      NA    1.28    NA       5        NA
 7 1955-01-01                 NA      NA      NA    1.39    11.9     4.9      NA
 8 1955-02-01                 NA      NA      NA    1.29    NA       4.7      NA
 9 1955-03-01                 NA      NA      NA    1.35    NA       4.6      NA
10 1955-04-01                 NA      NA      NA    1.43     6.7     4.7      NA
# … with 2,872 more rows, and abbreviated variable names
#   ¹​`Federal Funds Target Rate`, ²​`Federal Funds Upper Target`,
#   ³​`Federal Funds Lower Target`, ⁴​`Effective Federal Funds Rate`,
#   ⁵​`Real GDP (Percent Change)`, ⁶​`Unemployment Rate`, ⁷​`Inflation Rate`
# ℹ Use `print(n = ...)` to see more rows

All put together, it became a data table with 2882 rows and 8 columns. It felt too much. In order to facilitate analysis, I extracted data from January, April, July, and October using the filter function and made quarterly data.

# Filter quarterly data and rename columns 

fin_ffr<-tot_fedfundsrate %>%
  filter(month(Date) %in% c(1, 4, 7, 10)) %>%
  filter(day(Date) == 1)
names(fin_ffr) <- c("date", "fftr", "ffut", "fflt", "effr", "rgdp", "ur", "ir")
fin_ffr

# A tibble: 273 × 8
   date        fftr  ffut  fflt  effr  rgdp    ur    ir
   <date>     <dbl> <dbl> <dbl> <dbl> <dbl> <dbl> <dbl>
 1 1954-07-01    NA    NA    NA  0.8    4.6   5.8    NA
 2 1954-10-01    NA    NA    NA  0.85   8     5.7    NA
 3 1955-01-01    NA    NA    NA  1.39  11.9   4.9    NA
 4 1955-04-01    NA    NA    NA  1.43   6.7   4.7    NA
 5 1955-07-01    NA    NA    NA  1.68   5.5   4      NA
 6 1955-10-01    NA    NA    NA  2.24   2.4   4.3    NA
 7 1956-01-01    NA    NA    NA  2.45  -1.5   4      NA
 8 1956-04-01    NA    NA    NA  2.62   3.4   4      NA
 9 1956-07-01    NA    NA    NA  2.75  -0.3   4.4    NA
10 1956-10-01    NA    NA    NA  2.96   6.7   3.9    NA
# … with 263 more rows
# ℹ Use `print(n = ...)` to see more rows
…
mean(fin_ffr$rgdp, na.rm=T)

[1] 3.08155

During this period, the average real GDP growth rate in the United States was 3.08 percent.(Missing growth rates for the period were excluded from the calculation)

And the growth rate seems to be decreasing very little by little, but it is not seen well due to rapid changes since 2020. I drew the graph again except for rapid changes after 2020, which seems to be due to the COVID-19 pandemic.

# Exclude COVID period(2020-)

ffr_b20<-filter(fin_ffr, year(date)<=2019)
ffr_b20

# A tibble: 262 × 8
   date        fftr  ffut  fflt  effr  rgdp    ur    ir
   <date>     <dbl> <dbl> <dbl> <dbl> <dbl> <dbl> <dbl>
 1 1954-07-01    NA    NA    NA  0.8    4.6   5.8    NA
 2 1954-10-01    NA    NA    NA  0.85   8     5.7    NA
 3 1955-01-01    NA    NA    NA  1.39  11.9   4.9    NA
 4 1955-04-01    NA    NA    NA  1.43   6.7   4.7    NA
 5 1955-07-01    NA    NA    NA  1.68   5.5   4      NA
 6 1955-10-01    NA    NA    NA  2.24   2.4   4.3    NA
 7 1956-01-01    NA    NA    NA  2.45  -1.5   4      NA
 8 1956-04-01    NA    NA    NA  2.62   3.4   4      NA
 9 1956-07-01    NA    NA    NA  2.75  -0.3   4.4    NA
10 1956-10-01    NA    NA    NA  2.96   6.7   3.9    NA
# … with 252 more rows
# ℹ Use `print(n = ...)` to see more rows
…
