- FinalProject
…
#using purrr/map_dfr to join data sheets for 2014 through 2021, applying the function read_shootings for consistent formatting
mass_shootings_all <- map_dfr(
  sheet_names("https://docs.google.com/spreadsheets/d/1rCnIYPQSkcZDCulp5KXAxmZUBad4QtrERi4_7tUMXqs/edit?usp=sharing")[1:9],
  read_shootings)

#converting incident_date from "POSIXct" to "date" format
mass_shootings_all

# A tibble: 3,835 × 8
   incident_id incident_date       state   city_…¹ address numbe…² numbe…³ Year 
         <dbl> <dttm>              <chr>   <chr>   <chr>     <dbl>   <dbl> <chr>
 1      271363 2014-12-29 00:00:00 Louisi… New Or… Poydra…       0       4 2014 
 2      269679 2014-12-27 00:00:00 Califo… Los An… 8800 b…       1       3 2014 
 3      270036 2014-12-27 00:00:00 Califo… Sacram… 4000 b…       0       4 2014 
 4      269167 2014-12-26 00:00:00 Illino… East S… 2500 b…       1       3 2014 
 5      268598 2014-12-24 00:00:00 Missou… Saint … 18th a…       1       3 2014 
 6      267792 2014-12-23 00:00:00 Kentuc… Winche… 260 Ox…       1       3 2014 
 7      268282 2014-12-22 00:00:00 Michig… Detroit Charle…       1       3 2014 
 8      282186 2014-12-22 00:00:00 New Yo… Webster 191 La…       4       2 2014 
 9      267721 2014-12-22 00:00:00 Illino… Chicago 5700 b…       0       5 2014 
10      266570 2014-12-21 00:00:00 Florida Saraso… 4034 N…       2       2 2014 
# … with 3,825 more rows, and abbreviated variable names ¹​city_or_county,
#   ²​number_killed, ³​number_injured
# ℹ Use `print(n = ...)` to see more rows

mass_shootings_all$incident_date<-as.Date(mass_shootings_all$incident_date)

#creating a month column and converting to factors
mass_shootings_all<-mass_shootings_all%>% 
  mutate(month=as.factor(month(incident_date))) %>% 
    mutate(month=recode(month, `1`="Jan", `2`="Feb", `3`="Mar", `4`="Apr", `5`="May", `6`="Jun", `7`="Jul", `8`="Aug", `9`="Sept", `10`="Oct", `11`="Nov", `12`="Dec"))

#sanity check
mass_shootings_all

# A tibble: 3,835 × 9
   incident_id incident_date state   city_…¹ address numbe…² numbe…³ Year  month
         <dbl> <date>        <chr>   <chr>   <chr>     <dbl>   <dbl> <chr> <fct>
 1      271363 2014-12-29    Louisi… New Or… Poydra…       0       4 2014  Dec  
 2      269679 2014-12-27    Califo… Los An… 8800 b…       1       3 2014  Dec  
 3      270036 2014-12-27    Califo… Sacram… 4000 b…       0       4 2014  Dec  
 4      269167 2014-12-26    Illino… East S… 2500 b…       1       3 2014  Dec  
 5      268598 2014-12-24    Missou… Saint … 18th a…       1       3 2014  Dec  
 6      267792 2014-12-23    Kentuc… Winche… 260 Ox…       1       3 2014  Dec  
 7      268282 2014-12-22    Michig… Detroit Charle…       1       3 2014  Dec  
 8      282186 2014-12-22    New Yo… Webster 191 La…       4       2 2014  Dec  
 9      267721 2014-12-22    Illino… Chicago 5700 b…       0       5 2014  Dec  
10      266570 2014-12-21    Florida Saraso… 4034 N…       2       2 2014  Dec  
# … with 3,825 more rows, and abbreviated variable names ¹​city_or_county,
#   ²​number_killed, ³​number_injured
# ℹ Use `print(n = ...)` to see more rows

The number of rows in the df is equal to the sum of the rows from the original google sheets data (-9 for column names in google sheets)

#Can now use "year" column to easily analyze data by year
filter(mass_shootings_all, Year=="2014")

# A tibble: 272 × 9
   incident_id incident_date state   city_…¹ address numbe…² numbe…³ Year  month
         <dbl> <date>        <chr>   <chr>   <chr>     <dbl>   <dbl> <chr> <fct>
 1      271363 2014-12-29    Louisi… New Or… Poydra…       0       4 2014  Dec  
 2      269679 2014-12-27    Califo… Los An… 8800 b…       1       3 2014  Dec  
 3      270036 2014-12-27    Califo… Sacram… 4000 b…       0       4 2014  Dec  
 4      269167 2014-12-26    Illino… East S… 2500 b…       1       3 2014  Dec  
 5      268598 2014-12-24    Missou… Saint … 18th a…       1       3 2014  Dec  
 6      267792 2014-12-23    Kentuc… Winche… 260 Ox…       1       3 2014  Dec  
 7      268282 2014-12-22    Michig… Detroit Charle…       1       3 2014  Dec  
 8      282186 2014-12-22    New Yo… Webster 191 La…       4       2 2014  Dec  
 9      267721 2014-12-22    Illino… Chicago 5700 b…       0       5 2014  Dec  
10      266570 2014-12-21    Florida Saraso… 4034 N…       2       2 2014  Dec  
# … with 262 more rows, and abbreviated variable names ¹​city_or_county,
#   ²​number_killed, ³​number_injured
# ℹ Use `print(n = ...)` to see more rows
…
#Looking at distinct values for number injured
distinct(mass_shootings_all, number_injured) %>% 
  arrange(number_injured)

# A tibble: 28 × 1
   number_injured
            <dbl>
 1              0
 2              1
 3              2
 4              3
 5              4
 6              5
 7              6
 8              7
 9              8
10              9
# … with 18 more rows
# ℹ Use `print(n = ...)` to see more rows

#creating a new column/variable to measure severity based on above variables, number shot= number killed+number injured
mass_shootings_all<-mass_shootings_all %>% 
  mutate(number_shot= number_injured+number_killed)

#Looking at distinct values for new variable
distinct(mass_shootings_all, number_shot) %>% 
  arrange(number_shot)

# A tibble: 31 × 1
   number_shot
         <dbl>
 1           4
 2           5
 3           6
 4           7
 5           8
 6           9
 7          10
 8          11
 9          12
10          13
# … with 21 more rows
# ℹ Use `print(n = ...)` to see more rows
…
#creating a new variable, severity, by categorizing the number shot into low, mid, high
mass_shootings_all<-mass_shootings_all %>% 
  mutate(severity= case_when(number_shot <= 9 ~ "low", number_shot >= 10 & number_shot <= 29 ~ "mid",
    number_shot >= 30 ~ "high"))
mass_shootings_all

# A tibble: 3,835 × 11
   incide…¹ incident…² state city_…³ address numbe…⁴ numbe…⁵ Year  month numbe…⁶
      <dbl> <date>     <chr> <chr>   <chr>     <dbl>   <dbl> <chr> <fct>   <dbl>
 1   271363 2014-12-29 Loui… New Or… Poydra…       0       4 2014  Dec         4
 2   269679 2014-12-27 Cali… Los An… 8800 b…       1       3 2014  Dec         4
 3   270036 2014-12-27 Cali… Sacram… 4000 b…       0       4 2014  Dec         4
 4   269167 2014-12-26 Illi… East S… 2500 b…       1       3 2014  Dec         4
 5   268598 2014-12-24 Miss… Saint … 18th a…       1       3 2014  Dec         4
 6   267792 2014-12-23 Kent… Winche… 260 Ox…       1       3 2014  Dec         4
 7   268282 2014-12-22 Mich… Detroit Charle…       1       3 2014  Dec         4
 8   282186 2014-12-22 New … Webster 191 La…       4       2 2014  Dec         6
 9   267721 2014-12-22 Illi… Chicago 5700 b…       0       5 2014  Dec         5
10   266570 2014-12-21 Flor… Saraso… 4034 N…       2       2 2014  Dec         4
# … with 3,825 more rows, 1 more variable: severity <chr>, and abbreviated
#   variable names ¹​incident_id, ²​incident_date, ³​city_or_county,
#   ⁴​number_killed, ⁵​number_injured, ⁶​number_shot
# ℹ Use `print(n = ...)` to see more rows, and `colnames()` to see all variable names
…
