- Final Project DACSS601
…
Here it is visible that there in only one outlier where the average daily rate (adr) is greater than 800. Updating the outlier value by the mean of adr (average daily rate).

hoteldata = hoteldata%>%
  mutate(adr = replace(adr, adr>1000, mean(adr)))

hoteldata%>%group_by(arrival_date_month, arrival_date_year)%>%tally()

# A tibble: 26 × 3
# Groups:   arrival_date_month [12]
   arrival_date_month arrival_date_year     n
   <fct>                          <int> <int>
 1 April                           2016  4854
 2 April                           2017  4904
 3 August                          2015  3357
 4 August                          2016  4692
 5 August                          2017  4633
 6 December                        2015  2367
 7 December                        2016  3264
 8 February                        2016  3056
 9 February                        2017  3405
10 January                         2016  1784
# … with 16 more rows
# ℹ Use `print(n = ...)` to see more rows
…
Inference: We can observe that room type ‘A’ was booked the most by customers. However, the number of cancellations of room type ‘A’ also is the highest. This could be due to the non-availability of the room, or the customer could have been reassigned to another room, which could be the reason for such a high number of cancellations.

Visualizing the total number of nights stayed at the City Hotel and the Resort Hotel. We calculate total number of nights stayed by adding values of two columns stays_in_weekend_nights and stays_in_week_nights.

totalnights <- hoteldata$stays_in_weekend_nights + hoteldata$stays_in_week_nights

totalcost <- totalnights*hoteldata$adr

hoteldata%>%mutate(totalnights, totalcost)

# A tibble: 103,050 × 32
   hotel  is_ca…¹ lead_…² arriv…³ arriv…⁴ arriv…⁵ stays…⁶ stays…⁷ adults child…⁸
   <fct>    <int>   <int>   <int> <fct>     <int>   <int>   <int>  <int>   <int>
 1 Resor…       0      13    2015 July          1       0       1      1       0
 2 Resor…       0      14    2015 July          1       0       2      2       0
 3 Resor…       0      14    2015 July          1       0       2      2       0
 4 Resor…       0       9    2015 July          1       0       2      2       0
 5 Resor…       1      85    2015 July          1       0       3      2       0
 6 Resor…       1      75    2015 July          1       0       3      2       0
 7 Resor…       1      23    2015 July          1       0       4      2       0
 8 Resor…       0      35    2015 July          1       0       4      2       0
 9 Resor…       0      68    2015 July          1       0       4      2       0
10 Resor…       0      18    2015 July          1       0       4      2       1
# … with 103,040 more rows, 22 more variables: babies <int>, meal <fct>,
#   country <fct>, market_segment <fct>, distribution_channel <fct>,
#   is_repeated_guest <int>, previous_cancellations <int>,
#   previous_bookings_not_canceled <int>, reserved_room_type <fct>,
#   assigned_room_type <fct>, booking_changes <int>, deposit_type <fct>,
#   agent <fct>, days_in_waiting_list <int>, customer_type <fct>, adr <dbl>,
#   required_car_parking_spaces <int>, total_of_special_requests <int>, …
# ℹ Use `print(n = ...)` to see more rows, and `colnames()` to see all variable names
…
