- An Analysis of Seasonality on Mass Shootings
…
#using purrr/map_dfr to join data sheets for 2014 through 2022, applying the function read_shootings for consistent formatting
mass_shootings_all <- map_dfr(
  sheet_names("https://docs.google.com/spreadsheets/d/1rCnIYPQSkcZDCulp5KXAxmZUBad4QtrERi4_7tUMXqs/edit?usp=sharing")[1:9],
  read_shootings)

mass_shootings_all

# A tibble: 3,835 × 8
   incident_id incident_date       state   city_…¹ address numbe…² numbe…³ Year 
         <dbl> <dttm>              <chr>   <chr>   <chr>     <dbl>   <dbl> <chr>
 1      271363 2014-12-29 00:00:00 Louisi… New Or… Poydra…       0       4 2014 
 2      269679 2014-12-27 00:00:00 Califo… Los An… 8800 b…       1       3 2014 
 3      270036 2014-12-27 00:00:00 Califo… Sacram… 4000 b…       0       4 2014 
 4      269167 2014-12-26 00:00:00 Illino… East S… 2500 b…       1       3 2014 
 5      268598 2014-12-24 00:00:00 Missou… Saint … 18th a…       1       3 2014 
 6      267792 2014-12-23 00:00:00 Kentuc… Winche… 260 Ox…       1       3 2014 
 7      268282 2014-12-22 00:00:00 Michig… Detroit Charle…       1       3 2014 
 8      282186 2014-12-22 00:00:00 New Yo… Webster 191 La…       4       2 2014 
 9      267721 2014-12-22 00:00:00 Illino… Chicago 5700 b…       0       5 2014 
10      266570 2014-12-21 00:00:00 Florida Saraso… 4034 N…       2       2 2014 
# … with 3,825 more rows, and abbreviated variable names ¹​city_or_county,
#   ²​number_killed, ³​number_injured
# ℹ Use `print(n = ...)` to see more rows
…
#converting incident_date from "POSIXct" to "date" format
mass_shootings_all$incident_date<-as.Date(mass_shootings_all$incident_date)

#creating a month column and converting to factors
mass_shootings_all<-mass_shootings_all%>% 
  mutate(month=as.factor(month(incident_date))) %>% 
    mutate(month=recode(month, `1`="Jan", `2`="Feb", `3`="Mar", `4`="Apr", `5`="May", `6`="Jun", `7`="Jul", `8`="Aug", `9`="Sept", `10`="Oct", `11`="Nov", `12`="Dec"))

#reordering the columns 
mass_shootings_all<-mass_shootings_all %>% 
  select(c("incident_id", "incident_date", "Year", "month", "state", "city_or_county", "address", "number_killed", "number_injured"))
mass_shootings_all

# A tibble: 3,835 × 9
   incident_id incident_date Year  month state   city_…¹ address numbe…² numbe…³
         <dbl> <date>        <chr> <fct> <chr>   <chr>   <chr>     <dbl>   <dbl>
 1      271363 2014-12-29    2014  Dec   Louisi… New Or… Poydra…       0       4
 2      269679 2014-12-27    2014  Dec   Califo… Los An… 8800 b…       1       3
 3      270036 2014-12-27    2014  Dec   Califo… Sacram… 4000 b…       0       4
 4      269167 2014-12-26    2014  Dec   Illino… East S… 2500 b…       1       3
 5      268598 2014-12-24    2014  Dec   Missou… Saint … 18th a…       1       3
 6      267792 2014-12-23    2014  Dec   Kentuc… Winche… 260 Ox…       1       3
 7      268282 2014-12-22    2014  Dec   Michig… Detroit Charle…       1       3
 8      282186 2014-12-22    2014  Dec   New Yo… Webster 191 La…       4       2
 9      267721 2014-12-22    2014  Dec   Illino… Chicago 5700 b…       0       5
10      266570 2014-12-21    2014  Dec   Florida Saraso… 4034 N…       2       2
# … with 3,825 more rows, and abbreviated variable names ¹​city_or_county,
#   ²​number_killed, ³​number_injured
# ℹ Use `print(n = ...)` to see more rows
…
Below I create a new variable “location” predicting whether the shooting occurred “inside” or “outside” based on the wording of the address the shooting occurred at.

#creating a new variable column "location" to denote if incident was likely inside or outside based on address column. detects presence of "outside words" or if a address string starts with a number.
outside_words<-c("block", "Block", "corner", "and", "of")
mass_shootings_all<-mass_shootings_all%>%
  mutate(location=case_when(
    str_detect(address,paste0(outside_words, collapse="|"))~ "outside",
    str_starts(address, "[0-9]") ~ "inside",
    TRUE ~ "outside"))

#New column location versus addresses
mass_shootings_all %>% 
  select(address, location)

# A tibble: 3,393 × 2
   address                             location
   <chr>                               <chr>   
 1 Poydras and Bolivar                 outside 
 2 8800 block of South Figueroa Street outside 
 3 4000 block of May Street            outside 
 4 2500 block of Summit Avenue         outside 
 5 18th and Pine                       outside 
 6 260 Oxford Drive                    inside  
 7 Charlevoix and Philip               outside 
 8 191 Lake Rd                         inside  
 9 5700 block of South Green Street    outside 
10 4034 N Washington Blvd              inside  
# … with 3,383 more rows
# ℹ Use `print(n = ...)` to see more rows
…
Next, I will analyze how many people are shot or killed during mass shootings, and if seasonality also affects severity.

First I will create a new variable, “number_shot”, because I believe this a better measure of severity of a shooting than number killed or number injured alone. Number_shot is a better measure of intention of the shooter (how many people the shooter intended to kill/affect), however this is still a limited measure as skill/how good the shooters aim is may affect if he/she makes their intended impact.

Because there is also large variability in the number shot, I created a new variable, severity, with categories based on the number of people shot (low, mid, and high severity). I chose <9 shot as low severity 10-29 as mid severity, and 30+ as high severity based on the number of distinct values of number_shot. This variable is still difficult to work with, given the majority of mass shootings only involve four victims. However, it is useful for weeding out the lower severity shootings to see trends in the higher severity shootings where 10 or more people are killed. I chose 30+ as high severity as there are few with over 30 people shot so this seemed like a logical threshold for high severity (as they also go way beyond 30 shot, one incident, involving 500 people shot).

#creating a new column/variable to measure severity based on above variables, number_shot= number_killed+number_injured
mass_shootings_all<-mass_shootings_all %>% 
  mutate(number_shot= number_injured+number_killed)

#Looking at distinct values for new variable
distinct(mass_shootings_all, number_shot) %>% 
  arrange(number_shot)

# A tibble: 29 × 1
   number_shot
         <dbl>
 1           4
 2           5
 3           6
 4           7
 5           8
 6           9
 7          10
 8          11
 9          12
10          13
# … with 19 more rows
# ℹ Use `print(n = ...)` to see more rows

#creating a new variable, severity, by categorizing the number shot into low, mid, and high severity
mass_shootings_all<-mass_shootings_all %>% 
  mutate(severity= case_when(number_shot <= 9 ~ "low", 
                             number_shot >= 10 & number_shot <= 29 ~ "mid", 
                             number_shot >= 30 ~ "high"))
mass_shootings_all

# A tibble: 3,393 × 12
   incide…¹ incident…² Year  month state city_…³ address numbe…⁴ numbe…⁵ locat…⁶
      <dbl> <date>     <chr> <fct> <chr> <chr>   <chr>     <dbl>   <dbl> <chr>  
 1   271363 2014-12-29 2014  Dec   Loui… New Or… Poydra…       0       4 outside
 2   269679 2014-12-27 2014  Dec   Cali… Los An… 8800 b…       1       3 outside
 3   270036 2014-12-27 2014  Dec   Cali… Sacram… 4000 b…       0       4 outside
 4   269167 2014-12-26 2014  Dec   Illi… East S… 2500 b…       1       3 outside
 5   268598 2014-12-24 2014  Dec   Miss… Saint … 18th a…       1       3 outside
 6   267792 2014-12-23 2014  Dec   Kent… Winche… 260 Ox…       1       3 inside 
 7   268282 2014-12-22 2014  Dec   Mich… Detroit Charle…       1       3 outside
 8   282186 2014-12-22 2014  Dec   New … Webster 191 La…       4       2 inside 
 9   267721 2014-12-22 2014  Dec   Illi… Chicago 5700 b…       0       5 outside
10   266570 2014-12-21 2014  Dec   Flor… Saraso… 4034 N…       2       2 inside 
# … with 3,383 more rows, 2 more variables: number_shot <dbl>, severity <chr>,
#   and abbreviated variable names ¹​incident_id, ²​incident_date,
#   ³​city_or_county, ⁴​number_killed, ⁵​number_injured, ⁶​location
# ℹ Use `print(n = ...)` to see more rows, and `colnames()` to see all variable names
…
