- Final Project Vertical Farming
…
For my final project, I will be looking at data related to soil health. This data will involve studying observations from numerous studies, and interpreting how the quality of soil has changed over the years.

library(tidyverse)
library(ggplot2)

knitr::opts_chunk$set(echo = TRUE, warning=FALSE, message=FALSE)

To know where and how to grow your crops is to understand the nutrients your crops require. This includes how much water the soil can absorb, the composition or texture of the soil,

SoilHealth <- read_csv("_data/SoilHealthDB_V0.csv", show_col_types = FALSE)

SoilHealth

# A tibble: 5,241 × 273
   StudyID ExperimentID Author_F Autho…¹ YearP…² Sampl…³ Journal SiteI…⁴ Country
     <dbl> <lgl>        <chr>    <chr>     <dbl>   <dbl> <chr>   <chr>   <chr>  
 1       1 NA           Abawi    G.S.       2000      NA Applie… New Yo… USA    
 2       1 NA           Abawi    G.S.       2000      NA Applie… New Yo… USA    
 3       1 NA           Abawi    G.S.       2000      NA Applie… New Yo… USA    
 4       1 NA           Abawi    G.S.       2000      NA Applie… New Yo… USA    
 5       1 NA           Abawi    G.S.       2000      NA Applie… New Yo… USA    
 6       1 NA           Abawi    G.S.       2000      NA Applie… New Yo… USA    
 7       1 NA           Abawi    G.S.       2000      NA Applie… New Yo… USA    
 8       1 NA           Abawi    G.S.       2000      NA Applie… New Yo… USA    
 9       1 NA           Abawi    G.S.       2000      NA Applie… New Yo… USA    
10       1 NA           Abawi    G.S.       2000      NA Applie… New Yo… USA    
# … with 5,231 more rows, 264 more variables: Latitude <dbl>, Longitude <dbl>,
#   Elevation <dbl>, Tannual <dbl>, MAT <dbl>, Pannual <dbl>, MAP <dbl>,
#   ClimateType <chr>, TimeAfterCoverCrop <dbl>, Duration <dbl>,
#   CC_planting_date <lgl>, CC_termination_date <lgl>, Time_Comments <chr>,
#   SamplingDepth <chr>, SamplingThickness <chr>, SoilDepthGroup <lgl>,
#   SurfaceSubsurface <lgl>, SoilBD <dbl>, SandPerc <dbl>, SiltPerc <dbl>,
#   ClayPerc <dbl>, Texture <chr>, SoilpH <dbl>, BackgroundSOC <dbl>, …
# ℹ Use `print(n = ...)` to see more rows, and `colnames()` to see all variable names
…
SoilHealthFixed

# A tibble: 1,920 × 120
   StudyID YearP…¹ Sampl…² SiteI…³ Country Latit…⁴ Longi…⁵ Eleva…⁶ Tannual   MAT
     <dbl>   <dbl>   <dbl> <chr>   <chr>     <dbl>   <dbl>   <dbl>   <dbl> <dbl>
 1       7    1999    1995 Aurora… USA        45.2  -123.     48.4      NA    NA
 2       7    1999    1995 Aurora… USA        45.2  -123.     48.4      NA    NA
 3       7    1999    1995 Aurora… USA        45.2  -123.     48.4      NA    NA
 4      10    2015    2010 Univer… USA        43.1   -89.5   332.       NA    NA
 5      10    2015    2011 Univer… USA        43.1   -89.5   332.       NA    NA
 6      10    2015    2011 Univer… USA        43.3   -89.3   326.       NA    NA
 7      10    2015    2010 Univer… USA        43.1   -89.5   332.       NA    NA
 8      10    2015    2011 Univer… USA        43.1   -89.5   332.       NA    NA
 9      10    2015    2011 Univer… USA        43.3   -89.3   326.       NA    NA
10      10    2015    2010 Univer… USA        43.1   -89.5   332.       NA    NA
# … with 1,910 more rows, 110 more variables: Pannual <dbl>, MAP <dbl>,
#   TimeAfterCoverCrop <dbl>, Duration <dbl>, SamplingDepth <chr>,
#   SamplingThickness <dbl>, SoilBD <dbl>, SandPerc <dbl>, SiltPerc <dbl>,
#   ClayPerc <dbl>, Texture <chr>, SoilpH <dbl>, BackgroundSOC <dbl>,
#   SOC_NaturalVeg <dbl>, SoilKsat <dbl>, SoilFamily <chr>, CoverCrop <chr>,
#   CoverCropGroup <chr>, GrainCrop <chr>, GrainCropGroup <chr>,
#   Rotation_T <chr>, Rotation_Diff <chr>, Tillage_T <chr>, …
# ℹ Use `print(n = ...)` to see more rows, and `colnames()` to see all variable names
…
