- Did Racing Improve During Formula 1’s Hybrid Era?
…
lap_times.csv, which holds lap time data for every racer’s every lap across all Grands Prix included.

# races.csv

master_races<-read_csv(
  file="_data/f1archive/races.csv",
  skip=1,
  col_select=1:6,
  col_names=c("race_id","seas_year","seas_round","circ_id","name_race","date_race")
)

master_races

# A tibble: 1,079 × 6
   race_id seas_year seas_round circ_id name_race             date_race 
     <dbl>     <dbl>      <dbl>   <dbl> <chr>                 <date>    
 1       1      2009          1       1 Australian Grand Prix 2009-03-29
 2       2      2009          2       2 Malaysian Grand Prix  2009-04-05
 3       3      2009          3      17 Chinese Grand Prix    2009-04-19
 4       4      2009          4       3 Bahrain Grand Prix    2009-04-26
 5       5      2009          5       4 Spanish Grand Prix    2009-05-10
 6       6      2009          6       6 Monaco Grand Prix     2009-05-24
 7       7      2009          7       5 Turkish Grand Prix    2009-06-07
 8       8      2009          8       9 British Grand Prix    2009-06-21
 9       9      2009          9      20 German Grand Prix     2009-07-12
10      10      2009         10      11 Hungarian Grand Prix  2009-07-26
# … with 1,069 more rows
# ℹ Use `print(n = ...)` to see more rows

# circuits.csv

master_circ<-read_csv(
  file="_data/f1archive/circuits.csv",
  col_select=1:8,
  skip=1,
  col_types="nccccnnn",
  col_names=c("circ_id","circ_ref","circ_name","circ_loc","circ_nat",
              "circ_lat","circ_lng","circ_alt")
  )

master_circ

# A tibble: 76 × 8
   circ_id circ_ref       circ_name      circ_…¹ circ_…² circ_…³ circ_…⁴ circ_…⁵
     <dbl> <chr>          <chr>          <chr>   <chr>     <dbl>   <dbl>   <dbl>
 1       1 albert_park    Albert Park G… Melbou… Austra…  -37.8   145.        10
 2       2 sepang         Sepang Intern… Kuala … Malays…    2.76  102.        18
 3       3 bahrain        Bahrain Inter… Sakhir  Bahrain   26.0    50.5        7
 4       4 catalunya      Circuit de Ba… Montme… Spain     41.6     2.26     109
 5       5 istanbul       Istanbul Park  Istanb… Turkey    41.0    29.4      130
 6       6 monaco         Circuit de Mo… Monte-… Monaco    43.7     7.42       7
 7       7 villeneuve     Circuit Gille… Montre… Canada    45.5   -73.5       13
 8       8 magny_cours    Circuit de Ne… Magny … France    46.9     3.16     228
 9       9 silverstone    Silverstone C… Silver… UK        52.1    -1.02     153
10      10 hockenheimring Hockenheimring Hocken… Germany   49.3     8.57     103
# … with 66 more rows, and abbreviated variable names ¹​circ_loc, ²​circ_nat,
#   ³​circ_lat, ⁴​circ_lng, ⁵​circ_alt
# ℹ Use `print(n = ...)` to see more rows
…
qual_race

# A tibble: 28,185 × 20
   qual_id race_id driv_id con_id driv_num qual_pos qual_ro…¹ qual_time  seas_…²
     <dbl>   <dbl>   <dbl>  <dbl>    <dbl>    <dbl>     <dbl> <Period>     <dbl>
 1       1      18       1      1       22        1         1 1M 26.572S    2008
 2       1      18       1      1       22        1         2 1M 25.187S    2008
 3       1      18       1      1       22        1         3 1M 26.714S    2008
 4       2      18       9      2        4        2         1 1M 26.103S    2008
 5       2      18       9      2        4        2         2 1M 25.315S    2008
 6       2      18       9      2        4        2         3 1M 26.869S    2008
 7       3      18       5      1       23        3         1 1M 25.664S    2008
 8       3      18       5      1       23        3         2 1M 25.452S    2008
 9       3      18       5      1       23        3         3 1M 27.079S    2008
10       4      18      13      6        2        4         1 1M 25.994S    2008
# … with 28,175 more rows, 11 more variables: seas_round <dbl>, circ_id <dbl>,
#   name_race <chr>, date_race <date>, circ_ref <chr>, circ_name <chr>,
#   circ_loc <chr>, circ_nat <chr>, circ_lat <dbl>, circ_lng <dbl>,
#   circ_alt <dbl>, and abbreviated variable names ¹​qual_round, ²​seas_year
# ℹ Use `print(n = ...)` to see more rows, and `colnames()` to see all variable names
…
lap_times<-lap_times %>% 
  mutate(time_lap=ms(time_lap_char)) %>% 
  select(-"time_lap_char") %>% 
  left_join(master_races) %>% 
  left_join(master_circ)

lap_times

# A tibble: 528,785 × 18
   race_id driv_id   lap pos_race time_lap_ms time_lap   seas_…¹ seas_…² circ_id
     <dbl>   <dbl> <dbl>    <dbl>       <dbl> <Period>     <dbl>   <dbl>   <dbl>
 1     841      20     1        1       98109 1M 38.109S    2011       1       1
 2     841      20     2        1       93006 1M 33.006S    2011       1       1
 3     841      20     3        1       92713 1M 32.713S    2011       1       1
 4     841      20     4        1       92803 1M 32.803S    2011       1       1
 5     841      20     5        1       92342 1M 32.342S    2011       1       1
 6     841      20     6        1       92605 1M 32.605S    2011       1       1
 7     841      20     7        1       92502 1M 32.502S    2011       1       1
 8     841      20     8        1       92537 1M 32.537S    2011       1       1
 9     841      20     9        1       93240 1M 33.24S     2011       1       1
10     841      20    10        1       92572 1M 32.572S    2011       1       1
# … with 528,775 more rows, 9 more variables: name_race <chr>,
#   date_race <date>, circ_ref <chr>, circ_name <chr>, circ_loc <chr>,
#   circ_nat <chr>, circ_lat <dbl>, circ_lng <dbl>, circ_alt <dbl>, and
#   abbreviated variable names ¹​seas_year, ²​seas_round
# ℹ Use `print(n = ...)` to see more rows, and `colnames()` to see all variable names
…
fastest_laps<-fastest_laps %>% 
  filter(seas_year>=2002) %>% 
  count(circ_id,name_race) %>% 
  filter(n>=10) %>% 
  left_join(fastest_laps) %>% 
  select(!n) %>% 
  filter(race_id!=1063) %>% # One-off race at modified Bahrain circuit
  left_join(master_circ)

fastest_laps

# A tibble: 363 × 18
   circ_id name_race    race_id time_…¹ driv_id   lap pos_r…² time_lap   seas_…³
     <dbl> <chr>          <dbl>   <dbl>   <dbl> <dbl>   <dbl> <Period>     <dbl>
 1       1 Australian …       1   87706       3    48       7 1M 27.706S    2009
 2       1 Australian …      18   87418       5    43       1 1M 27.418S    2008
 3       1 Australian …      36   85235       8    41       1 1M 25.235S    2007
 4       1 Australian …      55   86045       8    57       2 1M 26.045S    2006
 5       1 Australian …      71   85683       4    24       3 1M 25.683S    2005
 6       1 Australian …      90   84125      30    29       1 1M 24.125S    2004
 7       1 Australian …     108   87724       8    32       1 1M 27.724S    2003
 8       1 Australian …     124   88541       8    37       2 1M 28.541S    2002
 9       1 Australian …     141   88214      30    34       1 1M 28.214S    2001
10       1 Australian …     158   91481      22    41       2 1M 31.481S    2000
# … with 353 more rows, 9 more variables: seas_round <dbl>, date_race <date>,
#   circ_ref <chr>, circ_name <chr>, circ_loc <chr>, circ_nat <chr>,
#   circ_lat <dbl>, circ_lng <dbl>, circ_alt <dbl>, and abbreviated variable
#   names ¹​time_lap_ms, ²​pos_race, ³​seas_year
# ℹ Use `print(n = ...)` to see more rows, and `colnames()` to see all variable names
…
