- Final Project
…
[1] "players_15.csv" "players_16.csv" "players_17.csv" "players_18.csv"
[5] "players_19.csv" "players_20.csv"

To read in the data, I used use list.files(), which produces a character vector of the names of files or directories in the named directory. I then used the purr() function to iterate through each file and within each iteration use assign() and read_csv() to load each individual .csv file into the Global Environment. I used str_remove to parse out the .csv for each variable name.

csv_file_names %>%
  purrr::map(function(file_name){ 
  assign(x = str_remove(file_name, ".csv"), 
         value = read_csv(paste0(file_path, file_name)),
         envir = .GlobalEnv)
})

[[1]]
# A tibble: 15,465 × 104
   sofifa_id player_url short…¹ long_…²   age dob        heigh…³ weigh…⁴ natio…⁵
       <dbl> <chr>      <chr>   <chr>   <dbl> <date>       <dbl>   <dbl> <chr>  
 1    158023 https://s… L. Mes… Lionel…    27 1987-06-24     169      67 Argent…
 2     20801 https://s… Cristi… Cristi…    29 1985-02-05     185      80 Portug…
 3      9014 https://s… A. Rob… Arjen …    30 1984-01-23     180      80 Nether…
 4     41236 https://s… Z. Ibr… Zlatan…    32 1981-10-03     195      95 Sweden 
 5    167495 https://s… M. Neu… Manuel…    28 1986-03-27     193      92 Germany
 6    176580 https://s… L. Suá… Luis A…    27 1987-01-24     181      81 Uruguay
 7    183277 https://s… E. Haz… Eden H…    23 1991-01-07     173      74 Belgium
 8      7826 https://s… R. van… Robin …    30 1983-08-06     187      71 Nether…
 9    121944 https://s… B. Sch… Bastia…    29 1984-08-01     183      79 Germany
10    156616 https://s… F. Rib… Franck…    31 1983-04-07     170      72 France 
# … with 15,455 more rows, 95 more variables: club <chr>, overall <dbl>,
#   potential <dbl>, value_eur <dbl>, wage_eur <dbl>, player_positions <chr>,
#   preferred_foot <chr>, international_reputation <dbl>, weak_foot <dbl>,
#   skill_moves <dbl>, work_rate <chr>, body_type <chr>, real_face <chr>,
#   release_clause_eur <lgl>, player_tags <chr>, team_position <chr>,
#   team_jersey_number <dbl>, loaned_from <chr>, joined <date>,
#   contract_valid_until <dbl>, nation_position <chr>, …
# ℹ Use `print(n = ...)` to see more rows, and `colnames()` to see all variable names

[[2]]
# A tibble: 14,881 × 104
   sofifa_id player_url short…¹ long_…²   age dob        heigh…³ weigh…⁴ natio…⁵
       <dbl> <chr>      <chr>   <chr>   <dbl> <date>       <dbl>   <dbl> <chr>  
 1    158023 https://s… L. Mes… Lionel…    28 1987-06-24     170      72 Argent…
 2     20801 https://s… Cristi… Cristi…    30 1985-02-05     185      80 Portug…
 3      9014 https://s… A. Rob… Arjen …    31 1984-01-23     180      80 Nether…
 4    167495 https://s… M. Neu… Manuel…    29 1986-03-27     193      92 Germany
 5    176580 https://s… L. Suá… Luis A…    28 1987-01-24     182      85 Uruguay
 6    183277 https://s… E. Haz… Eden H…    24 1991-01-07     173      74 Belgium
 7     41236 https://s… Z. Ibr… Zlatan…    33 1981-10-03     195      95 Sweden 
 8    190871 https://s… Neymar  Neymar…    23 1992-02-05     174      68 Brazil 
 9    164240 https://s… Thiago… Thiago…    30 1984-09-22     183      79 Brazil 
10    168542 https://s… David … David …    29 1986-01-08     170      67 Spain  
# … with 14,871 more rows, 95 more variables: club <chr>, overall <dbl>,
#   potential <dbl>, value_eur <dbl>, wage_eur <dbl>, player_positions <chr>,
#   preferred_foot <chr>, international_reputation <dbl>, weak_foot <dbl>,
#   skill_moves <dbl>, work_rate <chr>, body_type <chr>, real_face <chr>,
#   release_clause_eur <lgl>, player_tags <chr>, team_position <chr>,
#   team_jersey_number <dbl>, loaned_from <chr>, joined <date>,
#   contract_valid_until <dbl>, nation_position <chr>, …
# ℹ Use `print(n = ...)` to see more rows, and `colnames()` to see all variable names

[[3]]
# A tibble: 17,009 × 104
   sofifa_id player_url short…¹ long_…²   age dob        heigh…³ weigh…⁴ natio…⁵
       <dbl> <chr>      <chr>   <chr>   <dbl> <date>       <dbl>   <dbl> <chr>  
 1     20801 https://s… Cristi… Cristi…    31 1985-02-05     185      80 Portug…
 2    158023 https://s… L. Mes… Lionel…    29 1987-06-24     170      72 Argent…
 3    190871 https://s… Neymar  Neymar…    24 1992-02-05     174      68 Brazil 
 4    167495 https://s… M. Neu… Manuel…    30 1986-03-27     193      92 Germany
 5    176580 https://s… L. Suá… Luis A…    29 1987-01-24     182      85 Uruguay
 6    193080 https://s… De Gea  David …    25 1990-11-07     193      82 Spain  
 7     41236 https://s… Z. Ibr… Zlatan…    34 1981-10-03     195      95 Sweden 
 8    173731 https://s… G. Bale Gareth…    26 1989-07-16     183      74 Wales  
 9    183907 https://s… J. Boa… Jérôme…    27 1988-09-03     192      90 Germany
10    188545 https://s… R. Lew… Robert…    27 1988-08-21     185      79 Poland 
# … with 16,999 more rows, 95 more variables: club <chr>, overall <dbl>,
#   potential <dbl>, value_eur <dbl>, wage_eur <dbl>, player_positions <chr>,
#   preferred_foot <chr>, international_reputation <dbl>, weak_foot <dbl>,
#   skill_moves <dbl>, work_rate <chr>, body_type <chr>, real_face <chr>,
#   release_clause_eur <lgl>, player_tags <chr>, team_position <chr>,
#   team_jersey_number <dbl>, loaned_from <chr>, joined <date>,
#   contract_valid_until <dbl>, nation_position <chr>, …
# ℹ Use `print(n = ...)` to see more rows, and `colnames()` to see all variable names

[[4]]
# A tibble: 17,592 × 104
   sofifa_id player_url short…¹ long_…²   age dob        heigh…³ weigh…⁴ natio…⁵
       <dbl> <chr>      <chr>   <chr>   <dbl> <date>       <dbl>   <dbl> <chr>  
 1     20801 https://s… Cristi… Cristi…    32 1985-02-05     185      80 Portug…
 2    158023 https://s… L. Mes… Lionel…    30 1987-06-24     170      72 Argent…
 3    190871 https://s… Neymar  Neymar…    25 1992-02-05     175      68 Brazil 
 4    167495 https://s… M. Neu… Manuel…    31 1986-03-27     193      92 Germany
 5    176580 https://s… L. Suá… Luis A…    30 1987-01-24     182      86 Uruguay
 6    188545 https://s… R. Lew… Robert…    28 1988-08-21     185      79 Poland 
 7    193080 https://s… De Gea  David …    26 1990-11-07     193      76 Spain  
 8    183277 https://s… E. Haz… Eden H…    26 1991-01-07     173      76 Belgium
 9    155862 https://s… Sergio… Sergio…    31 1986-03-30     183      75 Spain  
10    167664 https://s… G. Hig… Gonzal…    29 1987-12-10     184      87 Argent…
# … with 17,582 more rows, 95 more variables: club <chr>, overall <dbl>,
#   potential <dbl>, value_eur <dbl>, wage_eur <dbl>, player_positions <chr>,
#   preferred_foot <chr>, international_reputation <dbl>, weak_foot <dbl>,
#   skill_moves <dbl>, work_rate <chr>, body_type <chr>, real_face <chr>,
#   release_clause_eur <dbl>, player_tags <chr>, team_position <chr>,
#   team_jersey_number <dbl>, loaned_from <chr>, joined <date>,
#   contract_valid_until <dbl>, nation_position <chr>, …
# ℹ Use `print(n = ...)` to see more rows, and `colnames()` to see all variable names

[[5]]
# A tibble: 17,770 × 104
   sofifa_id player_url short…¹ long_…²   age dob        heigh…³ weigh…⁴ natio…⁵
       <dbl> <chr>      <chr>   <chr>   <dbl> <date>       <dbl>   <dbl> <chr>  
 1     20801 https://s… Cristi… Cristi…    33 1985-02-05     187      83 Portug…
 2    158023 https://s… L. Mes… Lionel…    31 1987-06-24     170      72 Argent…
 3    190871 https://s… Neymar… Neymar…    26 1992-02-05     175      68 Brazil 
 4    193080 https://s… De Gea  David …    27 1990-11-07     193      76 Spain  
 5    192985 https://s… K. De … Kevin …    27 1991-06-28     181      70 Belgium
 6    155862 https://s… Sergio… Sergio…    32 1986-03-30     184      82 Spain  
 7    176580 https://s… L. Suá… Luis A…    31 1987-01-24     182      86 Uruguay
 8    177003 https://s… L. Mod… Luka M…    32 1985-09-09     172      66 Croatia
 9    183277 https://s… E. Haz… Eden H…    27 1991-01-07     173      74 Belgium
10    200389 https://s… J. Obl… Jan Ob…    25 1993-01-07     188      87 Sloven…
# … with 17,760 more rows, 95 more variables: club <chr>, overall <dbl>,
#   potential <dbl>, value_eur <dbl>, wage_eur <dbl>, player_positions <chr>,
#   preferred_foot <chr>, international_reputation <dbl>, weak_foot <dbl>,
#   skill_moves <dbl>, work_rate <chr>, body_type <chr>, real_face <chr>,
#   release_clause_eur <dbl>, player_tags <chr>, team_position <chr>,
#   team_jersey_number <dbl>, loaned_from <chr>, joined <date>,
#   contract_valid_until <dbl>, nation_position <chr>, …
# ℹ Use `print(n = ...)` to see more rows, and `colnames()` to see all variable names

[[6]]
# A tibble: 18,278 × 104
   sofifa_id player_url short…¹ long_…²   age dob        heigh…³ weigh…⁴ natio…⁵
       <dbl> <chr>      <chr>   <chr>   <dbl> <date>       <dbl>   <dbl> <chr>  
 1    158023 https://s… L. Mes… Lionel…    32 1987-06-24     170      72 Argent…
 2     20801 https://s… Cristi… Cristi…    34 1985-02-05     187      83 Portug…
 3    190871 https://s… Neymar… Neymar…    27 1992-02-05     175      68 Brazil 
 4    200389 https://s… J. Obl… Jan Ob…    26 1993-01-07     188      87 Sloven…
 5    183277 https://s… E. Haz… Eden H…    28 1991-01-07     175      74 Belgium
 6    192985 https://s… K. De … Kevin …    28 1991-06-28     181      70 Belgium
 7    192448 https://s… M. ter… Marc-A…    27 1992-04-30     187      85 Germany
 8    203376 https://s… V. van… Virgil…    27 1991-07-08     193      92 Nether…
 9    177003 https://s… L. Mod… Luka M…    33 1985-09-09     172      66 Croatia
10    209331 https://s… M. Sal… Mohame…    27 1992-06-15     175      71 Egypt  
# … with 18,268 more rows, 95 more variables: club <chr>, overall <dbl>,
#   potential <dbl>, value_eur <dbl>, wage_eur <dbl>, player_positions <chr>,
#   preferred_foot <chr>, international_reputation <dbl>, weak_foot <dbl>,
#   skill_moves <dbl>, work_rate <chr>, body_type <chr>, real_face <chr>,
#   release_clause_eur <dbl>, player_tags <chr>, team_position <chr>,
#   team_jersey_number <dbl>, loaned_from <chr>, joined <date>,
#   contract_valid_until <dbl>, nation_position <chr>, …
# ℹ Use `print(n = ...)` to see more rows, and `colnames()` to see all variable names
…
