- Final Project_ Akhilesh Kumar
…
crime_murder <- crime_data_na_rm %>%
  select(2,3,4) %>% 
  filter(crime_type %in% c('Murder', 'Attempt_to_Commit_Murder', 'C.H._Not_Amounting_to_Murder')) %>% 
  group_by(crime_type, States_UTs) %>% 
  summarise(chargesheet_rate = mean(chargesheet_rate), .groups = 'keep') %>% 
  mutate(category = case_when(
    chargesheet_rate>=50 & chargesheet_rate <=70   ~ "Medium", 
    chargesheet_rate > 70 ~ "High", 
    TRUE ~ "Low")) %>% 
 arrange(desc(crime_type), desc(chargesheet_rate), States_UTs)

crime_murder

# A tibble: 99 × 4
# Groups:   crime_type, States_UTs [99]
   crime_type States_UTs     chargesheet_rate category
   <chr>      <chr>                     <dbl> <chr>   
 1 Murder     Delhi                      95.0 High    
 2 Murder     Tamil Nadu                 93.4 High    
 3 Murder     Kerala                     92.2 High    
 4 Murder     Orissa                     91.5 High    
 5 Murder     Pondicherry                91.4 High    
 6 Murder     Andhra Pradesh             89.4 High    
 7 Murder     Madhya Pradesh             88.8 High    
 8 Murder     Punjab                     88.4 High    
 9 Murder     Sikkim                     87.1 High    
10 Murder     Daman & Diu                86.4 High    
# … with 89 more rows
# ℹ Use `print(n = ...)` to see more rows
…
crime_murder_state <- crime_data_na_rm %>%
  select(2,3,4) %>% 
  filter(crime_type %in% c('Murder', 'Attempt_to_Commit_Murder', 'C.H._Not_Amounting_to_Murder')) %>% 
  group_by(States_UTs) %>% 
  summarise(chargesheet_rate = mean(chargesheet_rate), .groups = 'keep') %>% 
  mutate(category = case_when(
    chargesheet_rate>=50 & chargesheet_rate <=70   ~ "Medium", 
    chargesheet_rate > 70 ~ "High", 
    TRUE ~ "Low"))%>% 
  arrange(desc(chargesheet_rate), States_UTs)

crime_murder_state

# A tibble: 33 × 3
# Groups:   States_UTs [33]
   States_UTs     chargesheet_rate category
   <chr>                     <dbl> <chr>   
 1 Delhi                      95.8 High    
 2 Tamil Nadu                 95.3 High    
 3 Kerala                     95.2 High    
 4 Madhya Pradesh             92.7 High    
 5 Andhra Pradesh             92.7 High    
 6 Rajasthan                  91.0 High    
 7 Maharashtra                90.9 High    
 8 Pondicherry                90.5 High    
 9 Orissa                     90.2 High    
10 Punjab                     90.1 High    
# … with 23 more rows
# ℹ Use `print(n = ...)` to see more rows
…
crime_murder_yr_state <- crime_data_na_rm %>%
  filter(crime_type %in% c('Murder', 'Attempt_to_Commit_Murder', 'C.H._Not_Amounting_to_Murder')) %>% 
  select(1, 2, 4)%>%
  group_by(Year, States_UTs)%>% 
  summarise(chargesheet_rate = mean(chargesheet_rate), .groups = 'keep')%>% 
  mutate(category = case_when(
    chargesheet_rate>=50 & chargesheet_rate <=70   ~ "Medium", 
    chargesheet_rate > 70 ~ "High", 
    TRUE ~ "Low")) %>% 
  mutate(Year=as.numeric(as.character(Year)))

crime_murder_yr_state

# A tibble: 128 × 4
# Groups:   Year, States_UTs [128]
    Year States_UTs        chargesheet_rate category
   <dbl> <chr>                        <dbl> <chr>   
 1  1997 A & N Islands                 92.6 High    
 2  1997 Andhra Pradesh                93   High    
 3  1997 Arunachal Pradesh             64.0 Medium  
 4  1997 Assam                         61.7 Medium  
 5  1997 Bihar                         78.2 High    
 6  1997 Chandigarh                    67.3 Medium  
 7  1997 D & N Haveli                  89.7 High    
 8  1997 Daman & Diu                   61.9 Medium  
 9  1997 Delhi                         98.5 High    
10  1997 Goa                           86.6 High    
# … with 118 more rows
# ℹ Use `print(n = ...)` to see more rows
…
crime_kidnap_state <- crime_data_na_rm %>%
  select(2,3,4) %>% 
  filter(crime_type %in% c('Kidnapping_&_Abduction-Total', 'Kidnapping_&_Abduction-of_Women_&_Girls', 'Kidnapping_&_Abduction-of_others')) %>% 
  group_by(States_UTs) %>% 
  summarise(chargesheet_rate = mean(chargesheet_rate), .groups = 'keep') %>% 
  mutate(category = case_when(
    chargesheet_rate>=50 & chargesheet_rate <=70   ~ "Medium", 
    chargesheet_rate > 70 ~ "High", 
    TRUE ~ "Low"))%>% 
  arrange(desc(chargesheet_rate), States_UTs)

crime_kidnap_state

# A tibble: 33 × 3
# Groups:   States_UTs [33]
   States_UTs     chargesheet_rate category
   <chr>                     <dbl> <chr>   
 1 Kerala                     91.3 High    
 2 Orissa                     89.7 High    
 3 D & N Haveli               88.2 High    
 4 Andhra Pradesh             86.4 High    
 5 Madhya Pradesh             85.8 High    
 6 Delhi                      85.0 High    
 7 Bihar                      82.7 High    
 8 Haryana                    82.5 High    
 9 Maharashtra                81.0 High    
10 Tamil Nadu                 79.4 High    
# … with 23 more rows
# ℹ Use `print(n = ...)` to see more rows
…
Code

crime_kidnap_yr_state <- crime_data_na_rm %>%
  filter(crime_type %in% c('Kidnapping_&_Abduction-Total', 'Kidnapping_&_Abduction-of_Women_&_Girls', 'Kidnapping_&_Abduction-of_others')) %>% 
  select(1, 2, 4)%>%
  group_by(Year, States_UTs)%>% 
  summarise(chargesheet_rate = mean(chargesheet_rate), .groups = 'keep')%>% 
  mutate(category = case_when(
    chargesheet_rate>=50 & chargesheet_rate <=70   ~ "Medium", 
    chargesheet_rate > 70 ~ "High", 
    TRUE ~ "Low"))

crime_kidnap_yr_state

# A tibble: 128 × 4
# Groups:   Year, States_UTs [128]
   Year  States_UTs        chargesheet_rate category
   <fct> <chr>                        <dbl> <chr>   
 1 1997  A & N Islands                 70.8 High    
 2 1997  Andhra Pradesh                85.7 High    
 3 1997  Arunachal Pradesh             50.8 Medium  
 4 1997  Assam                         58.6 Medium  
 5 1997  Bihar                         80.4 High    
 6 1997  Chandigarh                    91.8 High    
 7 1997  D & N Haveli                 100   High    
 8 1997  Daman & Diu                  100   High    
 9 1997  Delhi                         84.2 High    
10 1997  Goa                           25   Low     
# … with 118 more rows
# ℹ Use `print(n = ...)` to see more rows
…
crime_against_women_state <- crime_data_na_rm %>%
  select(2,3,4) %>% 
  filter(crime_type %in% c('Rape', 'Kidnapping_&_Abduction-of_Women_&_Girls', "Dowry_Deaths", "Molestation", "Sexual_Harassment", "Cruelty_by_Husband_and_Relatives", "Importation_of_Girls")) %>% 
  group_by(States_UTs) %>% 
  summarise(chargesheet_rate = mean(chargesheet_rate), .groups = 'keep') %>% 
  mutate(category = case_when(
    chargesheet_rate>=50 & chargesheet_rate <=70   ~ "Medium", 
    chargesheet_rate > 70 ~ "High", 
    TRUE ~ "Low")) %>% 
  arrange(desc(chargesheet_rate), States_UTs)

crime_against_women_state

# A tibble: 33 × 3
# Groups:   States_UTs [33]
   States_UTs       chargesheet_rate category
   <chr>                       <dbl> <chr>   
 1 Madhya Pradesh               87.2 High    
 2 Tamil Nadu                   86.7 High    
 3 Orissa                       85.5 High    
 4 Kerala                       82.6 High    
 5 Andhra Pradesh               80.9 High    
 6 Himachal Pradesh             80.6 High    
 7 Maharashtra                  79.9 High    
 8 Delhi                        79.5 High    
 9 Bihar                        79.5 High    
10 Haryana                      79.2 High    
# … with 23 more rows
# ℹ Use `print(n = ...)` to see more rows
…
Code

crime_against_women_yr_state <- crime_data_na_rm %>%
  filter(crime_type %in% c('Rape', 'Kidnapping_&_Abduction-of_Women_&_Girls', "Dowry_Deaths", "Molestation", "Sexual_Harassment", "Cruelty_by_Husband_and_Relatives", "Importation_of_Girls")) %>% 
  select(1, 2, 4)%>%
  group_by(Year, States_UTs)%>% 
  summarise(chargesheet_rate = mean(chargesheet_rate), .groups = 'keep')%>% 
  mutate(category = case_when(
    chargesheet_rate>=50 & chargesheet_rate <=70   ~ "Medium", 
    chargesheet_rate > 70 ~ "High", 
    TRUE ~ "Low"))

crime_against_women_yr_state

# A tibble: 128 × 4
# Groups:   Year, States_UTs [128]
   Year  States_UTs        chargesheet_rate category
   <fct> <chr>                        <dbl> <chr>   
 1 1997  A & N Islands                 66.8 Medium  
 2 1997  Andhra Pradesh                79.6 High    
 3 1997  Arunachal Pradesh             37.0 Low     
 4 1997  Assam                         59.0 Medium  
 5 1997  Bihar                         73.6 High    
 6 1997  Chandigarh                    64.9 Medium  
 7 1997  D & N Haveli                  69.1 Medium  
 8 1997  Daman & Diu                   46.0 Low     
 9 1997  Delhi                         77.7 High    
10 1997  Goa                           48.7 Low     
# … with 118 more rows
# ℹ Use `print(n = ...)` to see more rows
…
