- Final Project - Indian Stock Market Analysis
…
The date format is yyyy/mm/dd. I only want the year aspect, so creating a new column with just that. A new column ‘yy’ has been created, which is the last column

Code

# x has all the modified values
x<-format(as.Date(all_stocksv2$Date, format="%Y/%m/%d"))

# all_stocks_yy has thethe replaced date column with the new col - 'yy'
all_stocks_yy <- all_stocksv2 %>% 
  mutate(yy=year(x)) %>%
  select(-Date)
print(all_stocks_yy)

# A tibble: 235,192 × 15
   Symbol     Series Prev C…¹  Open  High   Low  Last Close  VWAP Volume Turno…²
   <chr>      <chr>     <dbl> <dbl> <dbl> <dbl> <dbl> <dbl> <dbl>  <dbl>   <dbl>
 1 MUNDRAPORT EQ         440   770  1050   770   959   963.  985. 2.73e7 2.69e15
 2 MUNDRAPORT EQ         963.  984   990   874   885   894.  941. 4.58e6 4.31e14
 3 MUNDRAPORT EQ         894.  909   915.  841   887   884.  888. 5.12e6 4.55e14
 4 MUNDRAPORT EQ         884.  890   958   890   929   922.  929. 4.61e6 4.28e14
 5 MUNDRAPORT EQ         922.  940.  995   922   980   969.  966. 2.98e6 2.88e14
 6 MUNDRAPORT EQ         969.  985  1056   976  1049  1041. 1015. 4.85e6 4.92e14
 7 MUNDRAPORT EQ        1041. 1061  1100. 1050  1084  1082. 1083. 2.85e6 3.08e14
 8 MUNDRAPORT EQ        1082. 1089  1110. 1051  1090. 1081. 1087. 1.75e6 1.90e14
 9 MUNDRAPORT EQ        1081. 1100  1134  1078  1100  1102. 1107. 2.25e6 2.49e14
10 MUNDRAPORT EQ        1102. 1110  1110  1061. 1074. 1075. 1080. 1.01e6 1.09e14
# … with 235,182 more rows, 4 more variables: Trades <dbl>,
#   `Deliverable Volume` <dbl>, Percent_Deliverable <dbl>, yy <dbl>, and
#   abbreviated variable names ¹​`Prev Close`, ²​Turnover
# ℹ Use `print(n = ...)` to see more rows, and `colnames()` to see all variable names
…
[1] 0

Observations

Distinct stocks

NIFTY50 is supposed to be the top 50 stocks of the financial year(there must be 50 distinct stocks in the data set). This data from 2000 to 2021 is not consistent, i.e., there are 65 distinct entries found. Which suggests that some stocks under-performed and got replaced with new ones over time.

Code

all_stocks_yy %>% select(1) %>% distinct()

# A tibble: 65 × 1
   Symbol    
   <chr>     
 1 MUNDRAPORT
 2 ADANIPORTS
 3 ASIANPAINT
 4 UTIBANK   
 5 AXISBANK  
 6 BAJAJ-AUTO
 7 BAJAJFINSV
 8 BAJAUTOFIN
 9 BAJFINANCE
10 BHARTI    
# … with 55 more rows
# ℹ Use `print(n = ...)` to see more rows
…
Special attention can be paid to volumes of stock sold between 2007 - 2009 and 2019 - 2021. There is a sharp increase in

Code

# Mean of all volumes grouped by years.  

# between 2008 to 2009 and 2019 to 2020 there is a big increase in stock volumes. 2008 point to the stock market crash. 2019-2021 point to the covid-19 crisis, where stock market fell sharply and attracted more people in investing in stocks. 

all_stocks_yy %>% 
  group_by(yy) %>% 
  select(`Volume`) %>% 
  summarise_all(mean, na.rm=TRUE) 

# A tibble: 22 × 2
      yy   Volume
   <dbl>    <dbl>
 1  2000  795317.
 2  2001  782304.
 3  2002  635197.
 4  2003 1145646.
 5  2004 1562821.
 6  2005 1099397.
 7  2006 1208818.
 8  2007 1370318.
 9  2008 1695820.
10  2009 2372692.
# … with 12 more rows
# ℹ Use `print(n = ...)` to see more rows
…
Some observations that can be made here :

Stocks like ADANIPORTS, NESTLEIND, NTPC, SSLT didn’t enter the stock market from 2000’s. Their companies began listing further down the line, such as from 2010

Some companies, though made it to the NIFTY 50 list, have dropped out over the years due to a dip in stock price due to various factors. Some such examples would be KOTAKMAH, INFOSYSTCH, TELCO, TISCO and so on

Code

all_stocks_yy %>% 
  pivot_wider(names_from=`yy`, values_from = `Volume`) %>% 
  group_by(Symbol) %>% select(Trades, 14:35) %>% 
  summarise_all(sum, na.rm=TRUE) %>% 
  relocate(`2000`:`2006`, .before = `2007`)

# A tibble: 65 × 24
   Symbol  Trades `2000` `2001` `2002` `2003` `2004` `2005` `2006` `2007` `2008`
   <chr>    <dbl>  <dbl>  <dbl>  <dbl>  <dbl>  <dbl>  <dbl>  <dbl>  <dbl>  <dbl>
 1 ADANIP… 1.08e8 0      0      0      0      0      0      0      0      0     
 2 ASIANP… 1.02e8 3.55e6 4.45e6 3.99e6 6.10e6 7.93e6 8.78e6 7.61e6 9.96e6 8.48e6
 3 AXISBA… 2.96e8 0      0      0      0      0      0      0      6.71e7 5.79e8
 4 BAJAJ-… 6.75e7 0      0      0      0      0      0      0      0      3.07e7
 5 BAJAJF… 5.13e7 0      0      0      0      0      0      0      0      5.30e7
 6 BAJAUT… 0      6.06e5 2.69e5 1.06e6 2.68e6 3.60e6 4.07e6 2.32e6 3.96e6 6.42e6
 7 BAJFIN… 1.39e8 0      0      0      0      0      0      0      0      0     
 8 BHARTI  0      0      0      9.55e7 3.23e8 8.80e8 4.36e8 8.82e7 0      0     
 9 BHARTI… 2.09e8 0      0      0      0      0      0      1.21e8 4.55e8 9.59e8
10 BPCL    1.37e8 2.12e7 5.39e7 3.90e8 3.51e8 2.27e8 1.12e8 1.10e8 1.27e8 1.66e8
# … with 55 more rows, and 13 more variables: `2009` <dbl>, `2010` <dbl>,
#   `2011` <dbl>, `2012` <dbl>, `2013` <dbl>, `2014` <dbl>, `2015` <dbl>,
#   `2016` <dbl>, `2017` <dbl>, `2018` <dbl>, `2019` <dbl>, `2020` <dbl>,
#   `2021` <dbl>
# ℹ Use `print(n = ...)` to see more rows, and `colnames()` to see all variable names
…
Best and Worst Performing Stock of 2000

ZEETELE - Best performing stock in 2000, AJAUTOFIN - Worst performing stock 2000

Code

#best performing stock
all_stocks_yy %>% 
  group_by(yy, Symbol) %>% 
  select(`Volume`) %>% 
  summarise_all(sum, na.rm=TRUE) %>% 
  arrange(desc(Volume)) %>% 
  slice(1)

# A tibble: 22 × 3
# Groups:   yy [22]
      yy Symbol        Volume
   <dbl> <chr>          <dbl>
 1  2000 ZEETELE   2124967599
 2  2001 ZEETELE   2136706114
 3  2002 ZEETELE   1402554565
 4  2003 TISCO     1674239842
 5  2004 TISCO     2026827972
 6  2005 RELIANCE  1423512801
 7  2006 ITC       1495441954
 8  2007 POWERGRID 1985771033
 9  2008 NTPC      1988073378
10  2009 TATASTEEL 2577318306
# … with 12 more rows
# ℹ Use `print(n = ...)` to see more rows

Code

#worst performing stock
all_stocks_yy %>% 
  group_by(yy, Symbol) %>% 
  select(`Volume`) %>% 
  summarise_all(sum, na.rm=TRUE) %>% 
  arrange(Volume) %>% 
  slice(1)

# A tibble: 22 × 3
# Groups:   yy [22]
      yy Symbol      Volume
   <dbl> <chr>        <dbl>
 1  2000 BAJAUTOFIN  606464
 2  2001 BAJAUTOFIN  269290
 3  2002 BAJAUTOFIN 1059613
 4  2003 BRITANNIA  2557859
 5  2004 BRITANNIA  3351970
 6  2005 BRITANNIA  1998097
 7  2006 BRITANNIA  1503856
 8  2007 BRITANNIA  2629574
 9  2008 BRITANNIA  1561330
10  2009 BRITANNIA  1754997
# … with 12 more rows
# ℹ Use `print(n = ...)` to see more rows
…
