- Final Project
…
Code

pit_stops <- merge(pit_stops, f1_drivers[,c( 1:4)])

pit_stops = subset(pit_stops, select = -c(time, duration, milliseconds, driverRef, number))

pit_stops %>% group_by(raceId) %>% group_by(max(stop))

# A tibble: 9,299 × 6
# Groups:   max(stop) [1]
   driverId raceId  stop   lap code  `max(stop)`
      <dbl>  <dbl> <dbl> <dbl> <chr>       <dbl>
 1        1    982     4    29 HAM             6
 2        1   1083     3    39 HAM             6
 3        1   1024     1    26 HAM             6
 4        1    850     3    51 HAM             6
 5        1   1061     2    27 HAM             6
 6        1    846     2    43 HAM             6
 7        1    956     3    29 HAM             6
 8        1   1035     2    41 HAM             6
 9        1    887     2    36 HAM             6
10        1    846     3    49 HAM             6
# … with 9,289 more rows
# ℹ Use `print(n = ...)` to see more rows
…
