- Homework 3
…
debt_raw <- read_xlsx("_data/debt_in_trillions.xlsx")

debt<-debt_raw%>%
  mutate(date = parse_date_time(`Year and Quarter`, 
                           orders="yq"))

tidy_debt<-debt%>%
  pivot_longer(Mortgage:Total, names_to = 'types', values_to = 'debts')

tidy_debt<-tidy_debt%>%
  select(-'Year and Quarter')

tidy_debt

# A tibble: 518 × 3
   date                types        debts
   <dttm>              <chr>        <dbl>
 1 2003-01-01 00:00:00 Mortgage     4.94 
 2 2003-01-01 00:00:00 HE Revolving 0.242
 3 2003-01-01 00:00:00 Auto Loan    0.641
 4 2003-01-01 00:00:00 Credit Card  0.688
 5 2003-01-01 00:00:00 Student Loan 0.241
 6 2003-01-01 00:00:00 Other        0.478
 7 2003-01-01 00:00:00 Total        7.23 
 8 2003-04-01 00:00:00 Mortgage     5.08 
 9 2003-04-01 00:00:00 HE Revolving 0.26 
10 2003-04-01 00:00:00 Auto Loan    0.622
# … with 508 more rows
# ℹ Use `print(n = ...)` to see more rows
…
