- Homework 3
…
snl <- inner_join(snl, seasons, "sid")

#remove excess columns
snl <- snl %>%
  select(-first_epid.x, -last_epid.x, -url, -type, -n_episodes.y, -year, -last_epid.y)

#mutate date
snl <- snl %>%
  mutate(first_epid.y = ymd(first_epid.y))

snl

# A tibble: 614 × 8
   aid           gender   sid featured update_anchor n_epis…¹ seaso…² first_ep…³
   <chr>         <chr>  <dbl> <lgl>    <lgl>            <dbl>   <dbl> <date>    
 1 Kate McKinnon female    37 TRUE     FALSE                5   0.227 2011-09-24
 2 Kate McKinnon female    38 TRUE     FALSE               21   1     2012-09-15
 3 Kate McKinnon female    39 FALSE    FALSE               21   1     2013-09-28
 4 Kate McKinnon female    40 FALSE    FALSE               21   1     2014-09-27
 5 Kate McKinnon female    41 FALSE    FALSE               21   1     2015-10-03
 6 Kate McKinnon female    42 FALSE    FALSE               21   1     2016-10-01
 7 Kate McKinnon female    43 FALSE    FALSE               21   1     2017-09-30
 8 Kate McKinnon female    44 FALSE    FALSE               21   1     2018-09-29
 9 Kate McKinnon female    45 FALSE    FALSE               18   1     2019-09-28
10 Kate McKinnon female    46 FALSE    FALSE               17   1     2020-10-03
# … with 604 more rows, and abbreviated variable names ¹​n_episodes.x,
#   ²​season_fraction, ³​first_epid.y
# ℹ Use `print(n = ...)` to see more rows
…
Descriptive Stats & Vizualizations

The first thing I decided to investigate was the gender composition of each season. I decided to make a new data frame which will calculate the percentage of each gender on each season, then illustrate this using a stacked bar chart.

gender_by_season <- snl %>%
  group_by(sid) %>%
  count(gender) %>%
  summarize(percent = n/sum(n),
            gender = gender,
            .groups = 'drop')

gender_by_season

# A tibble: 95 × 3
     sid percent gender
   <dbl>   <dbl> <chr> 
 1     1   0.333 female
 2     1   0.667 male  
 3     2   0.375 female
 4     2   0.625 male  
 5     3   0.333 female
 6     3   0.667 male  
 7     4   0.333 female
 8     4   0.667 male  
 9     5   0.2   female
10     5   0.8   male  
# … with 85 more rows
# ℹ Use `print(n = ...)` to see more rows
…
