- Homework 2
…
Group Summary Statistics

- Year wise, Certified_Organic_Eggs wise Price Distribution

Code

organicegg$Year<-as.factor(organicegg$Year)
organicegg %>% 
  group_by(Year, Certified_Organic_Eggs) %>% 
  summarise(Price_min=min(Price),Price_max=max(Price),Price_mean=mean(Price), .groups = 'keep') %>%
  arrange(desc(Certified_Organic_Eggs))

# A tibble: 40 × 5
# Groups:   Year, Certified_Organic_Eggs [40]
   Year  Certified_Organic_Eggs Price_min Price_max Price_mean
   <fct> <chr>                      <dbl>     <dbl>      <dbl>
 1 2004  "Large \nDozen"             225       234.       230.
 2 2005  "Large \nDozen"             234.      234.       234.
 3 2006  "Large \nDozen"             234.      236.       234.
 4 2007  "Large \nDozen"             234.      237        237.
 5 2008  "Large \nDozen"             237       278.       267.
 6 2009  "Large \nDozen"             272.      278.       274 
 7 2010  "Large \nDozen"             268.      268        268.
 8 2011  "Large \nDozen"             268.      270        269.
 9 2012  "Large \nDozen"             268.      268.       268.
10 2013  "Large \nDozen"             268.      268.       268.
# … with 30 more rows
# ℹ Use `print(n = ...)` to see more rows

Code

  print(organicegg, n=40)

# A tibble: 480 × 4
   Year  Certified_Organic_Eggs Month Price
   <fct> <chr>                  <chr> <dbl>
 1 2013  "Extra Large \nDozen"  Jan.   290 
 2 2013  "Extra Large \nDozen"  Feb.   290 
 3 2013  "Extra Large \nDozen"  Mar.   290 
 4 2013  "Extra Large \nDozen"  Apr.   290 
 5 2013  "Extra Large \nDozen"  May    290 
 6 2013  "Extra Large \nDozen"  June   290 
 7 2013  "Extra Large \nDozen"  July   290 
 8 2013  "Extra Large \nDozen"  Aug.   290 
 9 2013  "Extra Large \nDozen"  Sep.   290 
10 2013  "Extra Large \nDozen"  Oct.   290 
11 2013  "Extra Large \nDozen"  Nov.   290 
12 2013  "Extra Large \nDozen"  Dec.   290 
13 2013  "Extra Large 1/2 Doz." Jan.   188.
14 2013  "Extra Large 1/2 Doz." Feb.   188.
15 2013  "Extra Large 1/2 Doz." Mar.   188.
16 2013  "Extra Large 1/2 Doz." Apr.   188.
17 2013  "Extra Large 1/2 Doz." May    188.
18 2013  "Extra Large 1/2 Doz." June   188.
19 2013  "Extra Large 1/2 Doz." July   188.
20 2013  "Extra Large 1/2 Doz." Aug.   188.
21 2013  "Extra Large 1/2 Doz." Sep.   188.
22 2013  "Extra Large 1/2 Doz." Oct.   188.
23 2013  "Extra Large 1/2 Doz." Nov.   188.
24 2013  "Extra Large 1/2 Doz." Dec.   188.
25 2013  "Large \nDozen"        Jan.   268.
26 2013  "Large \nDozen"        Feb.   268.
27 2013  "Large \nDozen"        Mar.   268.
28 2013  "Large \nDozen"        Apr.   268.
29 2013  "Large \nDozen"        May    268.
30 2013  "Large \nDozen"        June   268.
31 2013  "Large \nDozen"        July   268.
32 2013  "Large \nDozen"        Aug.   268.
33 2013  "Large \nDozen"        Sep.   268.
34 2013  "Large \nDozen"        Oct.   268.
35 2013  "Large \nDozen"        Nov.   268.
36 2013  "Large \nDozen"        Dec.   268.
37 2013  "Large \n1/2 Doz."     Jan.   178 
38 2013  "Large \n1/2 Doz."     Feb.   178 
39 2013  "Large \n1/2 Doz."     Mar.   178 
40 2013  "Large \n1/2 Doz."     Apr.   178 
# … with 440 more rows
# ℹ Use `print(n = ...)` to see more rows
…
