- Reasons for Migration in Bangalore (2011)
…
Checking totals: While checking whether the aggregates added up to the totals in each column, I faced many issues. At first, I took time to understand how to filter out the rows I needed to perform the addition on the groups and conduct a sanity check. Once, I was able to solve this issue by discussing with the Professor and my classmates, another issue I faced was that I was expecting the sums to be the same for the addition of the aggregate rows and the rows with the “Total” but this was not the result. I realised it could be undercounting in the data, an error which is found in many large scale datasets such as the Census.

Since I also wanted to incorporate information regarding the population of the Bangalore, I thought of joining the dataset with the population information to the migration dataset. However, I realised that there were essentially only three rows of data in the population information of Bangalore. When I did conduct a join, the same information was added multiple times. While there was nothing technically wrong with it, since the data was joined by district codes, it made the data look not tidy. Moreover, I only required three specific values from the dataset- population of everyone, population of females and population of males. I did not require the data that was about the area or number of households. Therefore, I decided not to join the two datasets, but only extracted the three values I needed while I was calculating proportions.

I have attached the code of the join I had tried out and the result of the same.

new<-mig %>% 
  inner_join(pop, by = "dist_code")%>%
  select(-state_code.y)
new

# A tibble: 118,125 × 30
# Groups:   reason_mig [7]
   reason_mig tab_n…¹ state…² dist_…³ area  res   res_t…⁴ last_…⁵ last_…⁶ reason
   <chr>      <chr>   <chr>   <chr>   <chr> <chr> <chr>   <chr>   <chr>   <fct> 
 1 Work       D0603   29      572     Bang… Total All du… Total   Total   Work  
 2 Work       D0603   29      572     Bang… Total All du… Total   Total   Work  
 3 Work       D0603   29      572     Bang… Total All du… Total   Total   Work  
 4 Work       D0603   29      572     Bang… Total All du… Total   Total   Work  
 5 Work       D0603   29      572     Bang… Total All du… Total   Total   Work  
 6 Work       D0603   29      572     Bang… Total All du… Total   Total   Work  
 7 Work       D0603   29      572     Bang… Total All du… Total   Total   Work  
 8 Work       D0603   29      572     Bang… Total All du… Total   Total   Work  
 9 Work       D0603   29      572     Bang… Total All du… Total   Total   Work  
10 Business   D0603   29      572     Bang… Total All du… Total   Total   Busin…
# … with 118,115 more rows, 20 more variables: value_mig <chr>,
#   number_people <dbl>, tot_t <dbl>, tot_m <dbl>, tot_f <dbl>,
#   proportion_pop <dbl>, proportion_mig <dbl>, sub_dist_code <chr>,
#   type_of_region <chr>, name <chr>, reg_type <chr>,
#   num_village_inhabit <dbl>, num_village_uninhabit <dbl>, num_town <dbl>,
#   num_hh <dbl>, pop_t <dbl>, pop_m <dbl>, pop_f <dbl>, area_region <dbl>,
#   pop_density <dbl>, and abbreviated variable names ¹​tab_name, …
# ℹ Use `print(n = ...)` to see more rows, and `colnames()` to see all variable names
…
