- Challenge 2 Instructions
…
Code

FAO.sm <- FAOstat %>%
  select(-contains("Code"))
FAO.sm

# A tibble: 82,116 × 9
   Domain       Area        Element Item   Year Unit    Value Flag  Flag Descr…¹
   <chr>        <chr>       <chr>   <chr> <dbl> <chr>   <dbl> <chr> <chr>       
 1 Live Animals Afghanistan Stocks  Asses  1961 Head  1300000 <NA>  Official da…
 2 Live Animals Afghanistan Stocks  Asses  1962 Head   851850 <NA>  Official da…
 3 Live Animals Afghanistan Stocks  Asses  1963 Head  1001112 <NA>  Official da…
 4 Live Animals Afghanistan Stocks  Asses  1964 Head  1150000 F     FAO estimate
 5 Live Animals Afghanistan Stocks  Asses  1965 Head  1300000 <NA>  Official da…
 6 Live Animals Afghanistan Stocks  Asses  1966 Head  1200000 <NA>  Official da…
 7 Live Animals Afghanistan Stocks  Asses  1967 Head  1200000 <NA>  Official da…
 8 Live Animals Afghanistan Stocks  Asses  1968 Head  1328000 <NA>  Official da…
 9 Live Animals Afghanistan Stocks  Asses  1969 Head  1250000 <NA>  Official da…
10 Live Animals Afghanistan Stocks  Asses  1970 Head  1300000 <NA>  Official da…
# … with 82,106 more rows, and abbreviated variable name ¹​`Flag Description`
# ℹ Use `print(n = ...)` to see more rows
…
Provide Grouped Summary Statistics

Conduct some exploratory data analysis, using dplyr commands such as group_by(), select(), filter(), and summarise(). Find the central tendency (mean, median, mode) and dispersion (standard deviation, mix/max/quantile) for different subgroups within the data set.

Code

FAO.sm %>%
  filter(Flag=="A")%>%
  group_by(Area)%>%
  summarize(n=n())

# A tibble: 28 × 2
   Area                          n
   <chr>                     <int>
 1 Africa                      522
 2 Americas                    464
 3 Asia                        522
 4 Australia and New Zealand   376
 5 Caribbean                   464
 6 Central America             406
 7 Central Asia                243
 8 Eastern Africa              522
 9 Eastern Asia                522
10 Eastern Europe              522
# … with 18 more rows
# ℹ Use `print(n = ...)` to see more rows

Code

FAO.sm %>%
  filter(Flag=="A")%>%
  group_by(Area)%>%
  summarize(n=n())

# A tibble: 28 × 2
   Area                          n
   <chr>                     <int>
 1 Africa                      522
 2 Americas                    464
 3 Asia                        522
 4 Australia and New Zealand   376
 5 Caribbean                   464
 6 Central America             406
 7 Central Asia                243
 8 Eastern Africa              522
 9 Eastern Asia                522
10 Eastern Europe              522
# … with 18 more rows
# ℹ Use `print(n = ...)` to see more rows
…
Code

area_filter<-FAO.sm %>%
  filter(Flag=="A")%>%
  group_by(Area)%>%
  summarize(n=n())

I then wanted to see the averages by proportions.

Code

area_filter%>%
mutate(prop = prop.table(n))

# A tibble: 28 × 3
   Area                          n   prop
   <chr>                     <int>  <dbl>
 1 Africa                      522 0.0415
 2 Americas                    464 0.0369
 3 Asia                        522 0.0415
 4 Australia and New Zealand   376 0.0299
 5 Caribbean                   464 0.0369
 6 Central America             406 0.0323
 7 Central Asia                243 0.0193
 8 Eastern Africa              522 0.0415
 9 Eastern Asia                522 0.0415
10 Eastern Europe              522 0.0415
# … with 18 more rows
# ℹ Use `print(n = ...)` to see more rows

I did a filter for Pigs and also wanted to see number of Pigs in Iran.

Code

pig_analysis <- FAO.sm %>%
  filter(Item=="Pigs",Area=="Iran (Islamic Republic of)")
pig_analysis

# A tibble: 50 × 9
   Domain       Area               Element Item   Year Unit  Value Flag  Flag …¹
   <chr>        <chr>              <chr>   <chr> <dbl> <chr> <dbl> <chr> <chr>  
 1 Live Animals Iran (Islamic Rep… Stocks  Pigs   1961 Head  55000 <NA>  Offici…
 2 Live Animals Iran (Islamic Rep… Stocks  Pigs   1962 Head  58000 <NA>  Offici…
 3 Live Animals Iran (Islamic Rep… Stocks  Pigs   1963 Head  52000 <NA>  Offici…
 4 Live Animals Iran (Islamic Rep… Stocks  Pigs   1964 Head  50000 <NA>  Offici…
 5 Live Animals Iran (Islamic Rep… Stocks  Pigs   1965 Head  50000 <NA>  Offici…
 6 Live Animals Iran (Islamic Rep… Stocks  Pigs   1966 Head  50000 <NA>  Offici…
 7 Live Animals Iran (Islamic Rep… Stocks  Pigs   1967 Head  52000 <NA>  Offici…
 8 Live Animals Iran (Islamic Rep… Stocks  Pigs   1968 Head  52000 <NA>  Offici…
 9 Live Animals Iran (Islamic Rep… Stocks  Pigs   1969 Head  50000 F     FAO es…
10 Live Animals Iran (Islamic Rep… Stocks  Pigs   1970 Head  48000 F     FAO es…
# … with 40 more rows, and abbreviated variable name ¹​`Flag Description`
# ℹ Use `print(n = ...)` to see more rows
…
